   12.5000000      -19.5000000       14.6000175    
   11.5000000      -18.5000000       13.7000141    
   15.5000000      -17.5000000     -0.700002551    
   13.5000000      -16.5000000      0.799997509    
   14.5000000      -16.5000000     -0.600002527    
   14.5000000      -16.5000000       1.99999774    
   15.5000000      -16.5000000     -0.700002551    
   16.5000000      -16.5000000       9.99974832E-02
   11.5000000      -15.5000000       2.49999738    
   12.5000000      -15.5000000      0.799997509    
   12.5000000      -15.5000000       3.79999614    
   13.5000000      -15.5000000     -0.500002503    
   13.5000000      -15.5000000       3.29999661    
   14.5000000      -15.5000000     -0.800002575    
   14.5000000      -15.5000000       2.39999747    
   15.5000000      -15.5000000     -0.500002503    
   15.5000000      -15.5000000       1.59999764    
   9.50000000      -14.5000000       3.69999623    
   9.50000000      -14.5000000       11.6000061    
   10.5000000      -14.5000000       2.49999738    
   11.5000000      -14.5000000      0.699997485    
   11.5000000      -14.5000000       2.89999700    
   11.5000000      -14.5000000       6.89999342    
   12.5000000      -14.5000000       9.99974832E-02
   12.5000000      -14.5000000       2.09999776    
   12.5000000      -14.5000000       4.39999580    
   13.5000000      -14.5000000     -0.500002503    
   13.5000000      -14.5000000       2.89999700    
   13.5000000      -14.5000000       5.39999485    
   14.5000000      -14.5000000     -0.400002509    
   14.5000000      -14.5000000       1.59999764    
   14.5000000      -14.5000000       7.89999247    
   15.5000000      -14.5000000      0.699997485    
   15.5000000      -14.5000000       2.89999700    
  -10.5000000      -13.5000000       12.4000092    
   7.50000000      -13.5000000       5.79999447    
   8.50000000      -13.5000000       4.59999561    
   9.50000000      -13.5000000       2.39999747    
   9.50000000      -13.5000000       10.8000031    
   10.5000000      -13.5000000      0.899997532    
   10.5000000      -13.5000000       6.09999418    
   10.5000000      -13.5000000       10.8000031    
   11.5000000      -13.5000000      0.299997479    
   11.5000000      -13.5000000       3.79999614    
   11.5000000      -13.5000000       7.39999294    
   12.5000000      -13.5000000     -0.100002520    
   12.5000000      -13.5000000       1.89999771    
   12.5000000      -13.5000000       6.49999380    
   13.5000000      -13.5000000     -0.100002520    
   13.5000000      -13.5000000       1.89999771    
   13.5000000      -13.5000000       6.39999390    
   14.5000000      -13.5000000       1.09999752    
   14.5000000      -13.5000000       8.19999313    
   15.5000000      -13.5000000       1.69999766    
  -9.50000000      -12.5000000       11.6000061    
  -8.50000000      -12.5000000       11.2000046    
  -7.50000000      -12.5000000       12.6000099    
  -6.50000000      -12.5000000       12.6000099    
   6.50000000      -12.5000000       5.39999485    
   7.50000000      -12.5000000       3.79999614    
   7.50000000      -12.5000000       8.19999313    
   8.50000000      -12.5000000       2.59999728    
   8.50000000      -12.5000000       8.49999428    
   9.50000000      -12.5000000       1.09999752    
   9.50000000      -12.5000000       4.19999599    
   9.50000000      -12.5000000       7.39999294    
   9.50000000      -12.5000000       11.1000042    
   10.5000000      -12.5000000      0.499997467    
   10.5000000      -12.5000000       3.49999642    
   10.5000000      -12.5000000       7.29999304    
   10.5000000      -12.5000000       10.1000004    
   11.5000000      -12.5000000      0.199997485    
   11.5000000      -12.5000000       2.19999766    
   11.5000000      -12.5000000       6.09999418    
   11.5000000      -12.5000000       10.4000015    
   12.5000000      -12.5000000       9.99974832E-02
   12.5000000      -12.5000000       2.09999776    
   12.5000000      -12.5000000       7.19999313    
   12.5000000      -12.5000000       11.1000042    
   13.5000000      -12.5000000      0.799997509    
   13.5000000      -12.5000000       3.89999604    
   13.5000000      -12.5000000       11.9000072    
   14.5000000      -12.5000000       2.69999719    
   15.5000000      -12.5000000       2.09999776    
  -9.50000000      -11.5000000       11.3000050    
  -8.50000000      -11.5000000       11.3000050    
  -7.50000000      -11.5000000       10.2000008    
  -6.50000000      -11.5000000       11.5000057    
  -5.50000000      -11.5000000       11.2000046    
   4.50000000      -11.5000000       6.19999409    
   5.50000000      -11.5000000       5.59999466    
   6.50000000      -11.5000000       3.59999633    
   6.50000000      -11.5000000       8.99999619    
   7.50000000      -11.5000000       1.89999771    
   7.50000000      -11.5000000       4.49999571    
   7.50000000      -11.5000000       7.39999294    
   7.50000000      -11.5000000       12.8000107    
   8.50000000      -11.5000000       1.39999759    
   8.50000000      -11.5000000       4.39999580    
   8.50000000      -11.5000000       6.49999380    
   8.50000000      -11.5000000       12.1000080    
   9.50000000      -11.5000000      0.799997509    
   9.50000000      -11.5000000       3.79999614    
   9.50000000      -11.5000000       5.89999437    
   9.50000000      -11.5000000       8.89999580    
   9.50000000      -11.5000000       11.5000057    
   10.5000000      -11.5000000      0.499997467    
   10.5000000      -11.5000000       3.49999642    
   10.5000000      -11.5000000       6.09999418    
   10.5000000      -11.5000000       8.49999428    
   11.5000000      -11.5000000      0.299997479    
   11.5000000      -11.5000000       3.29999661    
   11.5000000      -11.5000000       5.39999485    
   11.5000000      -11.5000000       8.89999580    
   11.5000000      -11.5000000       11.0000038    
   12.5000000      -11.5000000      0.899997532    
   12.5000000      -11.5000000       2.99999690    
   12.5000000      -11.5000000       6.49999380    
   12.5000000      -11.5000000       10.2000008    
   12.5000000      -11.5000000       12.3000088    
   13.5000000      -11.5000000       3.79999614    
   13.5000000      -11.5000000       11.1000042    
   14.5000000      -11.5000000       3.09999681    
   15.5000000      -11.5000000       3.69999623    
  -9.50000000      -10.5000000       9.59999847    
  -8.50000000      -10.5000000       11.0000038    
  -7.50000000      -10.5000000       9.49999809    
  -6.50000000      -10.5000000       9.09999657    
  -6.50000000      -10.5000000       11.7000065    
  -5.50000000      -10.5000000       10.1000004    
  -4.50000000      -10.5000000       10.4000015    
  -3.50000000      -10.5000000       9.19999695    
  0.500000000      -10.5000000       6.39999390    
   1.50000000      -10.5000000       5.89999437    
   2.50000000      -10.5000000       2.89999700    
   3.50000000      -10.5000000       3.79999614    
   3.50000000      -10.5000000       6.19999409    
   4.50000000      -10.5000000       4.79999542    
   5.50000000      -10.5000000       3.19999671    
   5.50000000      -10.5000000       6.09999418    
   5.50000000      -10.5000000       8.79999542    
   6.50000000      -10.5000000       1.59999764    
   6.50000000      -10.5000000       4.89999533    
   6.50000000      -10.5000000       9.29999733    
   6.50000000      -10.5000000       11.4000053    
   7.50000000      -10.5000000       1.49999762    
   7.50000000      -10.5000000       4.49999571    
   7.50000000      -10.5000000       6.99999332    
   7.50000000      -10.5000000       11.2000046    
   7.50000000      -10.5000000       13.3000126    
   8.50000000      -10.5000000       1.19999754    
   8.50000000      -10.5000000       4.19999599    
   8.50000000      -10.5000000       7.19999313    
   8.50000000      -10.5000000       10.0000000    
   9.50000000      -10.5000000      0.699997485    
   9.50000000      -10.5000000       3.69999623    
   9.50000000      -10.5000000       6.99999332    
   9.50000000      -10.5000000       9.09999657    
   10.5000000      -10.5000000      0.499997467    
   10.5000000      -10.5000000       3.49999642    
   10.5000000      -10.5000000       6.99999332    
   10.5000000      -10.5000000       9.19999695    
   11.5000000      -10.5000000      0.999997556    
   11.5000000      -10.5000000       4.59999561    
   11.5000000      -10.5000000       7.49999285    
   11.5000000      -10.5000000       11.0000038    
   12.5000000      -10.5000000       2.39999747    
   12.5000000      -10.5000000       5.89999437    
   12.5000000      -10.5000000       10.2000008    
   13.5000000      -10.5000000       5.89999437    
  -9.50000000      -9.50000000       9.19999695    
  -8.50000000      -9.50000000       8.99999619    
  -7.50000000      -9.50000000       9.19999695    
  -6.50000000      -9.50000000       7.59999275    
  -5.50000000      -9.50000000       8.99999619    
  -4.50000000      -9.50000000       7.09999323    
  -4.50000000      -9.50000000       10.2000008    
  -3.50000000      -9.50000000       4.79999542    
  -3.50000000      -9.50000000       8.69999504    
  -2.50000000      -9.50000000       5.39999485    
  -2.50000000      -9.50000000       8.59999466    
  -1.50000000      -9.50000000       8.29999352    
 -0.500000000      -9.50000000       6.39999390    
  0.500000000      -9.50000000       1.99999774    
  0.500000000      -9.50000000       6.39999390    
   1.50000000      -9.50000000       4.29999590    
   2.50000000      -9.50000000       2.49999738    
   2.50000000      -9.50000000       4.69999552    
   3.50000000      -9.50000000       2.99999690    
   3.50000000      -9.50000000       5.79999447    
   4.50000000      -9.50000000       1.99999774    
   4.50000000      -9.50000000       4.69999552    
   4.50000000      -9.50000000       8.09999275    
   5.50000000      -9.50000000       1.79999769    
   5.50000000      -9.50000000       4.79999542    
   5.50000000      -9.50000000       7.09999323    
   6.50000000      -9.50000000       1.79999769    
   6.50000000      -9.50000000       4.79999542    
   6.50000000      -9.50000000       8.19999313    
   7.50000000      -9.50000000       1.49999762    
   7.50000000      -9.50000000       4.49999571    
   7.50000000      -9.50000000       7.49999285    
   8.50000000      -9.50000000       1.19999754    
   8.50000000      -9.50000000       4.19999599    
   8.50000000      -9.50000000       6.79999352    
   8.50000000      -9.50000000       9.89999962    
   9.50000000      -9.50000000      0.699997485    
   9.50000000      -9.50000000       3.69999623    
   9.50000000      -9.50000000       6.29999399    
   9.50000000      -9.50000000       10.2000008    
   10.5000000      -9.50000000       1.09999752    
   10.5000000      -9.50000000       4.19999599    
   10.5000000      -9.50000000       7.19999313    
   10.5000000      -9.50000000       10.1000004    
   11.5000000      -9.50000000       2.19999766    
   11.5000000      -9.50000000       6.29999399    
   11.5000000      -9.50000000       8.79999542    
   12.5000000      -9.50000000       6.59999371    
  -11.5000000      -8.50000000       11.8000069    
  -9.50000000      -8.50000000       10.7000027    
  -8.50000000      -8.50000000       8.99999619    
  -7.50000000      -8.50000000       8.69999504    
  -7.50000000      -8.50000000       12.1000080    
  -6.50000000      -8.50000000       6.49999380    
  -6.50000000      -8.50000000       10.3000011    
  -5.50000000      -8.50000000       5.39999485    
  -5.50000000      -8.50000000       8.19999313    
  -4.50000000      -8.50000000       5.49999475    
  -3.50000000      -8.50000000       5.09999514    
  -3.50000000      -8.50000000       8.69999504    
  -2.50000000      -8.50000000       3.59999633    
  -2.50000000      -8.50000000       5.79999447    
  -2.50000000      -8.50000000       8.79999542    
  -1.50000000      -8.50000000       2.29999757    
  -1.50000000      -8.50000000       6.49999380    
 -0.500000000      -8.50000000       2.29999757    
 -0.500000000      -8.50000000       4.39999580    
 -0.500000000      -8.50000000       7.39999294    
  0.500000000      -8.50000000       1.99999774    
  0.500000000      -8.50000000       5.39999485    
  0.500000000      -8.50000000       7.49999285    
   1.50000000      -8.50000000       2.79999709    
   1.50000000      -8.50000000       6.39999390    
   2.50000000      -8.50000000       1.79999769    
   2.50000000      -8.50000000       4.69999552    
   3.50000000      -8.50000000      0.999997556    
   3.50000000      -8.50000000       3.29999661    
   3.50000000      -8.50000000       6.79999352    
   4.50000000      -8.50000000       1.69999766    
   4.50000000      -8.50000000       4.69999552    
   5.50000000      -8.50000000       1.99999774    
   5.50000000      -8.50000000       4.99999523    
   5.50000000      -8.50000000       7.09999323    
   5.50000000      -8.50000000       10.0000000    
   6.50000000      -8.50000000       1.59999764    
   6.50000000      -8.50000000       4.59999561    
   6.50000000      -8.50000000       6.89999342    
   6.50000000      -8.50000000       10.4000015    
   7.50000000      -8.50000000       1.49999762    
   7.50000000      -8.50000000       4.49999571    
   7.50000000      -8.50000000       7.09999323    
   7.50000000      -8.50000000       12.8000107    
   8.50000000      -8.50000000       1.09999752    
   8.50000000      -8.50000000       4.09999609    
   8.50000000      -8.50000000       6.59999371    
   8.50000000      -8.50000000       9.19999695    
   8.50000000      -8.50000000       13.0000114    
   9.50000000      -8.50000000       1.09999752    
   9.50000000      -8.50000000       4.09999609    
   9.50000000      -8.50000000       7.29999304    
   9.50000000      -8.50000000       10.2000008    
   10.5000000      -8.50000000       2.09999776    
   10.5000000      -8.50000000       4.29999590    
   10.5000000      -8.50000000       7.49999285    
   10.5000000      -8.50000000       11.7000065    
   11.5000000      -8.50000000       3.39999652    
   11.5000000      -8.50000000       7.29999304    
   12.5000000      -8.50000000       5.49999475    
  -8.50000000      -7.50000000       6.89999342    
  -7.50000000      -7.50000000       9.29999733    
  -6.50000000      -7.50000000       8.89999580    
  -5.50000000      -7.50000000       3.29999661    
  -5.50000000      -7.50000000       8.59999466    
  -4.50000000      -7.50000000       3.99999595    
  -4.50000000      -7.50000000       7.09999323    
  -3.50000000      -7.50000000       2.59999728    
  -3.50000000      -7.50000000       5.59999466    
  -2.50000000      -7.50000000       1.89999771    
  -2.50000000      -7.50000000       6.79999352    
  -1.50000000      -7.50000000       1.79999769    
  -1.50000000      -7.50000000       3.89999604    
  -1.50000000      -7.50000000       6.69999361    
 -0.500000000      -7.50000000      0.999997556    
 -0.500000000      -7.50000000       3.19999671    
  0.500000000      -7.50000000      0.799997509    
  0.500000000      -7.50000000       3.69999623    
   1.50000000      -7.50000000      0.199997485    
   1.50000000      -7.50000000       3.19999671    
   1.50000000      -7.50000000       5.49999475    
   2.50000000      -7.50000000     -0.100002520    
   2.50000000      -7.50000000       1.89999771    
   2.50000000      -7.50000000       4.89999533    
   2.50000000      -7.50000000       7.19999313    
   3.50000000      -7.50000000      0.699997485    
   3.50000000      -7.50000000       3.69999623    
   3.50000000      -7.50000000       6.89999342    
   4.50000000      -7.50000000       1.69999766    
   4.50000000      -7.50000000       4.69999552    
   4.50000000      -7.50000000       6.89999342    
   5.50000000      -7.50000000       1.79999769    
   5.50000000      -7.50000000       4.79999542    
   5.50000000      -7.50000000       7.19999313    
   6.50000000      -7.50000000       1.69999766    
   6.50000000      -7.50000000       4.69999552    
   6.50000000      -7.50000000       7.39999294    
   6.50000000      -7.50000000       9.89999962    
   7.50000000      -7.50000000       1.59999764    
   7.50000000      -7.50000000       4.59999561    
   7.50000000      -7.50000000       7.49999285    
   7.50000000      -7.50000000       9.69999886    
   8.50000000      -7.50000000       1.39999759    
   8.50000000      -7.50000000       4.39999580    
   8.50000000      -7.50000000       8.09999275    
   9.50000000      -7.50000000       1.99999774    
   9.50000000      -7.50000000       4.19999599    
   9.50000000      -7.50000000       6.49999380    
   9.50000000      -7.50000000       9.69999886    
   10.5000000      -7.50000000       1.09999752    
   10.5000000      -7.50000000       4.49999571    
   10.5000000      -7.50000000       7.49999285    
   11.5000000      -7.50000000       9.99974832E-02
   11.5000000      -7.50000000       4.09999609    
   11.5000000      -7.50000000       8.49999428    
   12.5000000      -7.50000000     -0.700002551    
   12.5000000      -7.50000000       2.29999757    
   13.5000000      -7.50000000     -0.400002509    
   13.5000000      -7.50000000       4.59999561    
  -6.50000000      -6.50000000       3.49999642    
  -5.50000000      -6.50000000       2.09999776    
  -4.50000000      -6.50000000       1.29999757    
  -4.50000000      -6.50000000       4.19999599    
  -3.50000000      -6.50000000       1.79999769    
  -3.50000000      -6.50000000       4.39999580    
  -2.50000000      -6.50000000       2.49999738    
  -2.50000000      -6.50000000       4.79999542    
  -1.50000000      -6.50000000       2.19999766    
  -1.50000000      -6.50000000       5.99999428    
 -0.500000000      -6.50000000      0.699997485    
 -0.500000000      -6.50000000       3.09999681    
 -0.500000000      -6.50000000       5.99999428    
  0.500000000      -6.50000000      -1.60000277    
  0.500000000      -6.50000000      0.399997473    
  0.500000000      -6.50000000       3.39999652    
  0.500000000      -6.50000000       5.59999466    
   1.50000000      -6.50000000      -1.80000281    
   1.50000000      -6.50000000      0.199997485    
   1.50000000      -6.50000000       2.19999766    
   1.50000000      -6.50000000       4.39999580    
   2.50000000      -6.50000000     -0.400002509    
   2.50000000      -6.50000000       1.59999764    
   2.50000000      -6.50000000       4.59999561    
   2.50000000      -6.50000000       6.79999352    
   3.50000000      -6.50000000       1.49999762    
   3.50000000      -6.50000000       3.79999614    
   4.50000000      -6.50000000       2.39999747    
   4.50000000      -6.50000000       5.39999485    
   5.50000000      -6.50000000       2.29999757    
   5.50000000      -6.50000000       5.29999495    
   5.50000000      -6.50000000       8.79999542    
   6.50000000      -6.50000000       2.39999747    
   6.50000000      -6.50000000       5.89999437    
   7.50000000      -6.50000000       2.09999776    
   7.50000000      -6.50000000       6.89999342    
   8.50000000      -6.50000000       1.69999766    
   8.50000000      -6.50000000       3.79999614    
   8.50000000      -6.50000000       7.09999323    
   9.50000000      -6.50000000      0.699997485    
   9.50000000      -6.50000000       2.79999709    
   9.50000000      -6.50000000       5.69999456    
   10.5000000      -6.50000000      0.199997485    
   10.5000000      -6.50000000       2.59999728    
   10.5000000      -6.50000000       9.49999809    
   11.5000000      -6.50000000     -0.200002521    
   11.5000000      -6.50000000       3.19999671    
   12.5000000      -6.50000000     -0.300002515    
  -8.50000000      -5.50000000       2.29999757    
  -7.50000000      -5.50000000      -1.20000267    
  -6.50000000      -5.50000000     -0.700002551    
  -6.50000000      -5.50000000       4.39999580    
  -5.50000000      -5.50000000     -0.200002521    
  -5.50000000      -5.50000000       4.09999609    
  -4.50000000      -5.50000000      0.499997467    
  -4.50000000      -5.50000000       4.49999571    
  -3.50000000      -5.50000000      0.799997509    
  -3.50000000      -5.50000000       3.19999671    
  -2.50000000      -5.50000000       1.19999754    
  -2.50000000      -5.50000000       3.59999633    
  -1.50000000      -5.50000000      0.299997479    
  -1.50000000      -5.50000000       2.59999728    
 -0.500000000      -5.50000000     -0.100002520    
 -0.500000000      -5.50000000       1.89999771    
 -0.500000000      -5.50000000       3.99999595    
 -0.500000000      -5.50000000       7.59999275    
  0.500000000      -5.50000000      -1.50000274    
  0.500000000      -5.50000000      0.499997467    
  0.500000000      -5.50000000       3.49999642    
   1.50000000      -5.50000000      -1.50000274    
   1.50000000      -5.50000000      0.499997467    
   1.50000000      -5.50000000       3.49999642    
   1.50000000      -5.50000000       5.89999437    
   2.50000000      -5.50000000     -0.400002509    
   2.50000000      -5.50000000       1.59999764    
   2.50000000      -5.50000000       4.59999561    
   2.50000000      -5.50000000       7.09999323    
   3.50000000      -5.50000000       1.09999752    
   3.50000000      -5.50000000       3.19999671    
   3.50000000      -5.50000000       6.29999399    
   4.50000000      -5.50000000       2.19999766    
   4.50000000      -5.50000000       4.29999590    
   4.50000000      -5.50000000       8.09999275    
   5.50000000      -5.50000000       2.49999738    
   5.50000000      -5.50000000       4.59999561    
   6.50000000      -5.50000000       1.79999769    
   6.50000000      -5.50000000       3.89999604    
   7.50000000      -5.50000000       1.39999759    
   7.50000000      -5.50000000       4.79999542    
   8.50000000      -5.50000000      0.899997532    
   8.50000000      -5.50000000       3.89999604    
   9.50000000      -5.50000000      0.899997532    
   10.5000000      -5.50000000       1.89999771    
  -7.50000000      -4.50000000     -0.200002521    
  -6.50000000      -4.50000000     -0.600002527    
  -6.50000000      -4.50000000       9.09999657    
  -5.50000000      -4.50000000     -0.500002503    
  -4.50000000      -4.50000000     -0.100002520    
  -4.50000000      -4.50000000       1.89999771    
  -3.50000000      -4.50000000     -0.900002599    
  -3.50000000      -4.50000000       1.19999754    
  -3.50000000      -4.50000000       5.79999447    
  -2.50000000      -4.50000000      -1.70000279    
  -2.50000000      -4.50000000      0.299997479    
  -2.50000000      -4.50000000       2.39999747    
  -2.50000000      -4.50000000       6.89999342    
  -1.50000000      -4.50000000      -1.00000262    
  -1.50000000      -4.50000000      0.999997556    
  -1.50000000      -4.50000000       5.99999428    
 -0.500000000      -4.50000000     -0.100002520    
 -0.500000000      -4.50000000       1.89999771    
 -0.500000000      -4.50000000       4.19999599    
  0.500000000      -4.50000000     -0.500002503    
  0.500000000      -4.50000000       2.49999738    
  0.500000000      -4.50000000       4.69999552    
   1.50000000      -4.50000000     -0.500002503    
   1.50000000      -4.50000000       2.49999738    
   1.50000000      -4.50000000       5.99999428    
   2.50000000      -4.50000000       9.99974832E-02
   2.50000000      -4.50000000       2.09999776    
   2.50000000      -4.50000000       5.09999514    
   2.50000000      -4.50000000       7.69999266    
   3.50000000      -4.50000000       1.09999752    
   3.50000000      -4.50000000       4.09999609    
   3.50000000      -4.50000000       6.29999399    
   4.50000000      -4.50000000       1.29999757    
   4.50000000      -4.50000000       4.29999590    
   5.50000000      -4.50000000       1.49999762    
   5.50000000      -4.50000000       4.49999571    
   5.50000000      -4.50000000       6.59999371    
   6.50000000      -4.50000000       1.69999766    
   6.50000000      -4.50000000       3.79999614    
   6.50000000      -4.50000000       5.89999437    
   7.50000000      -4.50000000       2.19999766    
   8.50000000      -4.50000000       2.59999728    
  -5.50000000      -3.50000000      0.999997556    
  -4.50000000      -3.50000000      0.699997485    
  -3.50000000      -3.50000000       9.99974832E-02
  -3.50000000      -3.50000000       2.09999776    
  -3.50000000      -3.50000000       4.39999580    
  -2.50000000      -3.50000000      -1.30000269    
  -2.50000000      -3.50000000      0.699997485    
  -2.50000000      -3.50000000       3.99999595    
  -1.50000000      -3.50000000     -0.900002599    
  -1.50000000      -3.50000000       2.09999776    
  -1.50000000      -3.50000000       4.29999590    
 -0.500000000      -3.50000000     -0.500002503    
 -0.500000000      -3.50000000       2.49999738    
 -0.500000000      -3.50000000       4.69999552    
  0.500000000      -3.50000000     -0.200002521    
  0.500000000      -3.50000000       1.79999769    
  0.500000000      -3.50000000       4.79999542    
   1.50000000      -3.50000000       9.99974832E-02
   1.50000000      -3.50000000       2.09999776    
   1.50000000      -3.50000000       5.09999514    
   1.50000000      -3.50000000       13.6000137    
   2.50000000      -3.50000000     -0.200002521    
   2.50000000      -3.50000000       1.79999769    
   2.50000000      -3.50000000       4.79999542    
   3.50000000      -3.50000000     -0.300002515    
   3.50000000      -3.50000000       1.69999766    
   3.50000000      -3.50000000       4.69999552    
   4.50000000      -3.50000000      0.699997485    
   4.50000000      -3.50000000       3.69999623    
   4.50000000      -3.50000000       6.19999409    
   5.50000000      -3.50000000       1.69999766    
   5.50000000      -3.50000000       4.79999542    
   6.50000000      -3.50000000       1.59999764    
   6.50000000      -3.50000000       5.89999437    
   7.50000000      -3.50000000       1.09999752    
   7.50000000      -3.50000000       6.89999342    
   8.50000000      -3.50000000      0.899997532    
   8.50000000      -3.50000000       3.79999614    
   9.50000000      -3.50000000      0.699997485    
  -3.50000000      -2.50000000       2.09999776    
  -2.50000000      -2.50000000       1.79999769    
  -1.50000000      -2.50000000      0.499997467    
  -1.50000000      -2.50000000       3.69999623    
 -0.500000000      -2.50000000      -2.10000277    
 -0.500000000      -2.50000000       9.99974832E-02
 -0.500000000      -2.50000000       2.09999776    
 -0.500000000      -2.50000000       4.39999580    
  0.500000000      -2.50000000     -0.600002527    
  0.500000000      -2.50000000       2.39999747    
  0.500000000      -2.50000000       8.89999580    
   1.50000000      -2.50000000     -0.300002515    
   1.50000000      -2.50000000       1.69999766    
   1.50000000      -2.50000000       4.69999552    
   1.50000000      -2.50000000       7.09999323    
   2.50000000      -2.50000000     -0.700002551    
   2.50000000      -2.50000000       2.29999757    
   2.50000000      -2.50000000       5.29999495    
   3.50000000      -2.50000000      -1.50000274    
   3.50000000      -2.50000000      0.499997467    
   3.50000000      -2.50000000       3.49999642    
   3.50000000      -2.50000000       5.89999437    
   4.50000000      -2.50000000      0.499997467    
   4.50000000      -2.50000000       3.49999642    
   4.50000000      -2.50000000       5.89999437    
   5.50000000      -2.50000000       1.29999757    
   5.50000000      -2.50000000       4.39999580    
   6.50000000      -2.50000000      0.999997556    
   6.50000000      -2.50000000       4.39999580    
   7.50000000      -2.50000000      0.599997461    
   7.50000000      -2.50000000       6.49999380    
   8.50000000      -2.50000000      0.199997485    
   8.50000000      -2.50000000       2.19999766    
   9.50000000      -2.50000000     -0.300002515    
   9.50000000      -2.50000000       1.89999771    
   10.5000000      -2.50000000     -0.700002551    
   10.5000000      -2.50000000       1.89999771    
   11.5000000      -2.50000000      -1.30000269    
   11.5000000      -2.50000000       3.49999642    
   12.5000000      -2.50000000       4.49999571    
  -4.50000000      -1.50000000       2.79999709    
  -3.50000000      -1.50000000       2.39999747    
  -2.50000000      -1.50000000      0.599997461    
  -2.50000000      -1.50000000       3.59999633    
  -2.50000000      -1.50000000       6.59999371    
  -1.50000000      -1.50000000      0.199997485    
  -1.50000000      -1.50000000       2.19999766    
  -1.50000000      -1.50000000       4.69999552    
 -0.500000000      -1.50000000     -0.100002520    
 -0.500000000      -1.50000000       1.89999771    
 -0.500000000      -1.50000000       5.99999428    
  0.500000000      -1.50000000     -0.200002521    
  0.500000000      -1.50000000       1.79999769    
  0.500000000      -1.50000000       4.79999542    
   1.50000000      -1.50000000      0.199997485    
   1.50000000      -1.50000000       2.19999766    
   1.50000000      -1.50000000       5.19999504    
   1.50000000      -1.50000000       13.0000114    
   2.50000000      -1.50000000     -0.100002520    
   2.50000000      -1.50000000       1.89999771    
   2.50000000      -1.50000000       4.89999533    
   2.50000000      -1.50000000       16.9000263    
   3.50000000      -1.50000000     -0.300002515    
   3.50000000      -1.50000000       1.69999766    
   3.50000000      -1.50000000       4.69999552    
   3.50000000      -1.50000000       12.0000076    
   4.50000000      -1.50000000      0.499997467    
   4.50000000      -1.50000000       3.49999642    
   4.50000000      -1.50000000       5.59999466    
   5.50000000      -1.50000000      0.999997556    
   5.50000000      -1.50000000       3.99999595    
   5.50000000      -1.50000000       12.7000103    
   6.50000000      -1.50000000      0.799997509    
   6.50000000      -1.50000000       3.89999604    
   6.50000000      -1.50000000       5.99999428    
   7.50000000      -1.50000000      0.499997467    
   7.50000000      -1.50000000       3.79999614    
   7.50000000      -1.50000000       14.3000164    
   8.50000000      -1.50000000      0.199997485    
   8.50000000      -1.50000000       2.19999766    
   8.50000000      -1.50000000       6.39999390    
   9.50000000      -1.50000000     -0.200002521    
   9.50000000      -1.50000000       2.19999766    
   9.50000000      -1.50000000       7.59999275    
   10.5000000      -1.50000000     -0.500002503    
   10.5000000      -1.50000000       3.49999642    
   11.5000000      -1.50000000     -0.300002515    
   11.5000000      -1.50000000       2.39999747    
   12.5000000      -1.50000000       3.39999652    
  -4.50000000     -0.500000000       4.89999533    
  -3.50000000     -0.500000000       1.89999771    
  -2.50000000     -0.500000000     -0.400002509    
  -2.50000000     -0.500000000       1.59999764    
  -2.50000000     -0.500000000       4.49999571    
  -1.50000000     -0.500000000     -0.700002551    
  -1.50000000     -0.500000000       2.29999757    
  -1.50000000     -0.500000000       5.19999504    
 -0.500000000     -0.500000000     -0.200002521    
 -0.500000000     -0.500000000       1.79999769    
 -0.500000000     -0.500000000       7.19999313    
  0.500000000     -0.500000000      0.399997473    
  0.500000000     -0.500000000       3.39999652    
  0.500000000     -0.500000000       13.8000145    
   1.50000000     -0.500000000      0.599997461    
   1.50000000     -0.500000000       3.59999633    
   1.50000000     -0.500000000       8.39999390    
   2.50000000     -0.500000000      0.199997485    
   2.50000000     -0.500000000       2.19999766    
   2.50000000     -0.500000000       5.19999504    
   2.50000000     -0.500000000       9.59999847    
   3.50000000     -0.500000000      0.399997473    
   3.50000000     -0.500000000       3.39999652    
   3.50000000     -0.500000000       12.5000095    
   4.50000000     -0.500000000      0.999997556    
   4.50000000     -0.500000000       3.99999595    
   4.50000000     -0.500000000       6.69999361    
   5.50000000     -0.500000000       1.59999764    
   5.50000000     -0.500000000       4.59999561    
   6.50000000     -0.500000000       1.59999764    
   6.50000000     -0.500000000       3.89999604    
   6.50000000     -0.500000000       5.99999428    
   7.50000000     -0.500000000       1.09999752    
   7.50000000     -0.500000000       3.29999661    
   7.50000000     -0.500000000       6.79999352    
   8.50000000     -0.500000000       1.09999752    
   9.50000000     -0.500000000       1.69999766    
   10.5000000     -0.500000000       2.69999719    
  -3.50000000      0.500000000       2.39999747    
  -3.50000000      0.500000000       4.99999523    
  -2.50000000      0.500000000      -1.60000277    
  -2.50000000      0.500000000      0.399997473    
  -2.50000000      0.500000000       2.49999738    
  -2.50000000      0.500000000       9.19999695    
  -1.50000000      0.500000000      -1.50000274    
  -1.50000000      0.500000000      0.499997467    
  -1.50000000      0.500000000       3.89999604    
 -0.500000000      0.500000000     -0.400002509    
 -0.500000000      0.500000000       1.59999764    
 -0.500000000      0.500000000       6.09999418    
  0.500000000      0.500000000      0.499997467    
  0.500000000      0.500000000       3.49999642    
   1.50000000      0.500000000       1.19999754    
   1.50000000      0.500000000       4.19999599    
   2.50000000      0.500000000      0.899997532    
   2.50000000      0.500000000       3.89999604    
   3.50000000      0.500000000      0.399997473    
   3.50000000      0.500000000       3.39999652    
   3.50000000      0.500000000       5.49999475    
   4.50000000      0.500000000      0.299997479    
   4.50000000      0.500000000       3.29999661    
   4.50000000      0.500000000       5.49999475    
   5.50000000      0.500000000       1.19999754    
   5.50000000      0.500000000       4.19999599    
   6.50000000      0.500000000       1.49999762    
   6.50000000      0.500000000       5.29999495    
   7.50000000      0.500000000       2.09999776    
   7.50000000      0.500000000       4.69999552    
   8.50000000      0.500000000       3.79999614    
  -3.50000000       1.50000000       5.09999514    
  -2.50000000       1.50000000      -1.60000277    
  -2.50000000       1.50000000       4.79999542    
  -1.50000000       1.50000000      -1.20000267    
  -1.50000000       1.50000000       1.49999762    
  -1.50000000       1.50000000       3.69999623    
 -0.500000000       1.50000000      0.199997485    
 -0.500000000       1.50000000       2.29999757    
 -0.500000000       1.50000000       4.89999533    
 -0.500000000       1.50000000       8.79999542    
  0.500000000       1.50000000      0.899997532    
  0.500000000       1.50000000       3.89999604    
   1.50000000       1.50000000      0.899997532    
   1.50000000       1.50000000       3.89999604    
   1.50000000       1.50000000       15.5000210    
   2.50000000       1.50000000      0.699997485    
   2.50000000       1.50000000       3.69999623    
   2.50000000       1.50000000       6.29999399    
   3.50000000       1.50000000      0.499997467    
   3.50000000       1.50000000       3.49999642    
   3.50000000       1.50000000       5.79999447    
   4.50000000       1.50000000      0.299997479    
   4.50000000       1.50000000       3.29999661    
   4.50000000       1.50000000       5.39999485    
   5.50000000       1.50000000     -0.400002509    
   5.50000000       1.50000000       1.59999764    
   5.50000000       1.50000000       4.59999561    
   5.50000000       1.50000000       7.49999285    
   6.50000000       1.50000000     -0.300002515    
   6.50000000       1.50000000       1.69999766    
   6.50000000       1.50000000       5.29999495    
   6.50000000       1.50000000       12.1000080    
   7.50000000       1.50000000      0.399997473    
   7.50000000       1.50000000       4.39999580    
   7.50000000       1.50000000       8.69999504    
   8.50000000       1.50000000       1.69999766    
   8.50000000       1.50000000       6.19999409    
   9.50000000       1.50000000       4.69999552    
  -2.50000000       2.50000000       5.49999475    
  -1.50000000       2.50000000       3.29999661    
 -0.500000000       2.50000000       1.89999771    
 -0.500000000       2.50000000       4.59999561    
  0.500000000       2.50000000       1.89999771    
  0.500000000       2.50000000       5.29999495    
  0.500000000       2.50000000       17.4000282    
   1.50000000       2.50000000      0.799997509    
   1.50000000       2.50000000       3.79999614    
   1.50000000       2.50000000       6.89999342    
   2.50000000       2.50000000      0.499997467    
   2.50000000       2.50000000       3.49999642    
   2.50000000       2.50000000       6.99999332    
   3.50000000       2.50000000      0.299997479    
   3.50000000       2.50000000       3.29999661    
   3.50000000       2.50000000       6.19999409    
   4.50000000       2.50000000      0.999997556    
   4.50000000       2.50000000       3.99999595    
   5.50000000       2.50000000      0.699997485    
   5.50000000       2.50000000       2.79999709    
   5.50000000       2.50000000       5.39999485    
   5.50000000       2.50000000       15.8000221    
   6.50000000       2.50000000     -0.500002503    
   6.50000000       2.50000000       1.59999764    
   6.50000000       2.50000000       4.89999533    
   6.50000000       2.50000000       9.09999657    
   7.50000000       2.50000000     -0.800002575    
   7.50000000       2.50000000       4.99999523    
   8.50000000       2.50000000     -0.700002551    
   8.50000000       2.50000000       4.29999590    
   8.50000000       2.50000000       8.89999580    
   9.50000000       2.50000000      0.299997479    
   9.50000000       2.50000000       7.79999256    
   10.5000000       2.50000000       6.49999380    
  -1.50000000       3.50000000       4.69999552    
 -0.500000000       3.50000000       2.99999690    
  0.500000000       3.50000000       1.39999759    
  0.500000000       3.50000000       4.69999552    
  0.500000000       3.50000000       8.09999275    
   1.50000000       3.50000000      0.399997473    
   1.50000000       3.50000000       3.39999652    
   1.50000000       3.50000000       6.59999371    
   2.50000000       3.50000000      0.199997485    
   2.50000000       3.50000000       2.19999766    
   2.50000000       3.50000000       4.49999571    
   2.50000000       3.50000000       8.89999580    
   3.50000000       3.50000000      -2.51829624E-06
   3.50000000       3.50000000       1.99999774    
   3.50000000       3.50000000       4.19999599    
   3.50000000       3.50000000       7.39999294    
   4.50000000       3.50000000      0.699997485    
   4.50000000       3.50000000       3.69999623    
   5.50000000       3.50000000       1.69999766    
   5.50000000       3.50000000       4.09999609    
   6.50000000       3.50000000       3.19999671    
   7.50000000       3.50000000     -0.500002503    
   7.50000000       3.50000000       4.69999552    
   7.50000000       3.50000000       8.59999466    
   8.50000000       3.50000000      -1.60000277    
   8.50000000       3.50000000      0.399997473    
   8.50000000       3.50000000       8.79999542    
   9.50000000       3.50000000      -1.60000277    
   9.50000000       3.50000000       5.89999437    
   10.5000000       3.50000000       7.99999237    
  -1.50000000       4.50000000       5.29999495    
 -0.500000000       4.50000000       3.29999661    
  0.500000000       4.50000000       1.79999769    
  0.500000000       4.50000000       4.39999580    
   1.50000000       4.50000000      0.299997479    
   1.50000000       4.50000000       3.39999652    
   1.50000000       4.50000000       6.09999418    
   2.50000000       4.50000000     -0.300002515    
   2.50000000       4.50000000       1.69999766    
   2.50000000       4.50000000       5.29999495    
   2.50000000       4.50000000       16.6000252    
   3.50000000       4.50000000     -0.400002509    
   3.50000000       4.50000000       1.59999764    
   3.50000000       4.50000000       4.09999609    
   3.50000000       4.50000000       8.09999275    
   4.50000000       4.50000000      0.399997473    
   4.50000000       4.50000000       3.39999652    
   4.50000000       4.50000000       6.79999352    
   5.50000000       4.50000000       1.49999762    
   5.50000000       4.50000000       4.89999533    
   6.50000000       4.50000000       3.39999652    
   7.50000000       4.50000000       5.29999495    
   8.50000000       4.50000000       5.29999495    
  -1.50000000       5.50000000       6.09999418    
 -0.500000000       5.50000000       4.69999552    
  0.500000000       5.50000000       2.29999757    
  0.500000000       5.50000000       4.79999542    
   1.50000000       5.50000000      0.399997473    
   1.50000000       5.50000000       5.09999514    
   2.50000000       5.50000000     -0.500002503    
   2.50000000       5.50000000       2.69999719    
   2.50000000       5.50000000       10.2000008    
   3.50000000       5.50000000     -0.600002527    
   3.50000000       5.50000000       2.39999747    
   3.50000000       5.50000000       8.19999313    
   4.50000000       5.50000000      0.199997485    
   4.50000000       5.50000000       2.19999766    
   4.50000000       5.50000000       5.29999495    
   5.50000000       5.50000000       1.29999757    
   5.50000000       5.50000000       6.39999390    
   6.50000000       5.50000000       4.99999523    
  0.500000000       6.50000000       4.79999542    
   1.50000000       6.50000000      0.899997532    
   1.50000000       6.50000000       5.19999504    
   2.50000000       6.50000000     -0.600002527    
   2.50000000       6.50000000       5.09999514    
   3.50000000       6.50000000     -0.800002575    
   3.50000000       6.50000000       5.49999475    
   4.50000000       6.50000000     -0.200002521    
   4.50000000       6.50000000       1.89999771    
   4.50000000       6.50000000       6.89999342    
   5.50000000       6.50000000       1.29999757    
   5.50000000       6.50000000       4.59999561    
   1.50000000       7.50000000       2.29999757    
   2.50000000       7.50000000     -0.600002527    
   2.50000000       7.50000000       6.09999418    
   3.50000000       7.50000000     -0.900002599    
   3.50000000       7.50000000       4.99999523    
   4.50000000       7.50000000     -0.500002503    
   4.50000000       7.50000000       1.59999764    
   4.50000000       7.50000000       7.29999304    
   5.50000000       7.50000000       1.69999766    
   2.50000000       8.50000000     -0.200002521    
   2.50000000       8.50000000       3.69999623    
   3.50000000       8.50000000      -1.60000277    
   3.50000000       8.50000000      0.399997473    
   4.50000000       8.50000000     -0.400002509    
   4.50000000       8.50000000       3.19999671    
 -0.500000000       9.50000000       8.89999580    
  0.500000000       9.50000000       10.1000004    
   1.50000000       9.50000000       4.89999533    
   2.50000000       9.50000000       1.49999762    
   3.50000000       9.50000000      -2.51829624E-06
 -0.500000000       10.5000000       9.29999733    
  0.500000000       10.5000000       8.79999542    
   1.50000000       10.5000000       5.59999466    
   4.50000000       10.5000000      0.399997473    
  -1.50000000       11.5000000       5.89999437    
 -0.500000000       11.5000000       9.69999886    
  0.500000000       11.5000000       11.2000046    
   3.50000000       12.5000000      0.699997485    
   3.50000000       12.5000000       11.6000061    
