   12.5000000      -19.5000000       14.7000179     -0.476873815       6.08200121    
   15.5000000      -17.5000000     -0.600002527       5.45222238E-02   5.19999981    
   14.5000000      -16.5000000     -0.600002527     -0.161809340       5.19999981    
   15.5000000      -16.5000000     -0.700002551     -0.106897220       5.19999981    
   16.5000000      -16.5000000     -0.100002520       2.26296633E-02   5.19999981    
   12.5000000      -15.5000000      0.899997532      -6.57217950E-02   5.25399971    
   13.5000000      -15.5000000     -0.600002527       4.78070155E-02   5.19999981    
   14.5000000      -15.5000000     -0.800002575     -0.351293176       5.19999981    
   14.5000000      -15.5000000       3.89999604     -0.503465652       5.43399954    
   15.5000000      -15.5000000     -0.500002503      0.511833191       5.19999981    
   15.5000000      -15.5000000       1.99999774     -0.711502790       5.31999969    
   10.5000000      -14.5000000       2.79999709     -0.270679057       5.36799955    
   11.5000000      -14.5000000      0.599997461       1.74982958E-02   5.23599958    
   11.5000000      -14.5000000       2.99999690       9.60241929E-02   5.37999964    
   12.5000000      -14.5000000     -0.400002509      -6.27699345E-02   5.19999981    
   12.5000000      -14.5000000       1.59999764      0.414021432       5.29599953    
   12.5000000      -14.5000000       3.69999623     -0.281718373       5.42199993    
   13.5000000      -14.5000000     -0.600002527     -0.297685146       5.19999981    
   13.5000000      -14.5000000       3.19999671     -0.356959283       5.39199972    
   14.5000000      -14.5000000     -0.400002509      0.256700695       5.19999981    
   14.5000000      -14.5000000       1.59999764     -0.333005786       5.29599953    
   14.5000000      -14.5000000       5.19999504     -0.316739112       5.51199961    
   15.5000000      -14.5000000      0.799997509      0.286361903       5.24799967    
   9.50000000      -13.5000000       2.39999747     -0.622480631       5.34399986    
   9.50000000      -13.5000000       4.49999571      0.571338296       5.46999979    
   10.5000000      -13.5000000      0.699997485      0.406781614       5.24199963    
   10.5000000      -13.5000000       6.79999352       7.41347224E-02   5.60799980    
   11.5000000      -13.5000000      -2.51829624E-06 -0.325504631       5.19999981    
   11.5000000      -13.5000000       1.99999774       9.65101942E-02   5.31999969    
   12.5000000      -13.5000000     -0.400002509     -0.188482717       5.19999981    
   12.5000000      -13.5000000       1.59999764     -0.188433409       5.29599953    
   12.5000000      -13.5000000       7.49999285     -0.415026069       5.64999962    
   13.5000000      -13.5000000     -0.100002520      0.313277751       5.19999981    
   13.5000000      -13.5000000       1.89999771     -0.296603709       5.31399965    
   13.5000000      -13.5000000       3.99999595       1.75850503E-02   5.43999958    
   13.5000000      -13.5000000       12.3000088       2.75561959E-03   5.93800068    
   14.5000000      -13.5000000      0.799997509      0.413030326       5.24799967    
   14.5000000      -13.5000000       8.19999313     -0.208996415       5.69199991    
  -8.50000000      -12.5000000       11.4000053      0.321884394       5.88400030    
  -7.50000000      -12.5000000       12.8000107       3.92760411E-02   5.96800089    
   7.50000000      -12.5000000       4.29999590     -0.533556521       5.45799971    
   8.50000000      -12.5000000       1.99999774      0.202060580       5.31999969    
   8.50000000      -12.5000000       7.49999285      0.100804441       5.64999962    
   9.50000000      -12.5000000      0.799997509      0.179120287       5.24799967    
   9.50000000      -12.5000000       3.99999595       3.32182683E-02   5.43999958    
   9.50000000      -12.5000000       9.69999886     -0.170587942       5.78200006    
   10.5000000      -12.5000000      0.299997479     -0.634356916       5.21799946    
   10.5000000      -12.5000000       3.29999661      0.136061355       5.39799976    
   10.5000000      -12.5000000       8.29999352       2.24430375E-02   5.69799995    
   11.5000000      -12.5000000       9.99974832E-02  -6.94254339E-02   5.20599985    
   11.5000000      -12.5000000       2.09999776     -0.164308637       5.32599974    
   11.5000000      -12.5000000       6.79999352     -0.102799192       5.60799980    
   12.5000000      -12.5000000       9.99974832E-02  0.394151121       5.20599985    
   12.5000000      -12.5000000       2.09999776      0.180960923       5.32599974    
   12.5000000      -12.5000000       9.49999809     -0.523049295       5.76999998    
   13.5000000      -12.5000000      0.799997509       6.37568086E-02   5.24799967    
   13.5000000      -12.5000000       3.69999623     -0.176860422       5.42199993    
   13.5000000      -12.5000000       12.2000084      -3.73871997E-03   5.93200064    
   14.5000000      -12.5000000       2.09999776      0.128178999       5.32599974    
  -8.50000000      -11.5000000       11.6000061       8.44991580E-03   5.89600039    
  -7.50000000      -11.5000000       10.5000019     -0.375041574       5.83000040    
  -6.50000000      -11.5000000       11.5000057      0.199554265       5.89000034    
  -5.50000000      -11.5000000       11.6000061     -0.338036925       5.89600039    
   5.50000000      -11.5000000       5.49999475     -0.257140636       5.52999973    
   6.50000000      -11.5000000       3.59999633      0.227657050       5.41599989    
   6.50000000      -11.5000000       6.99999332       8.60490501E-02   5.61999989    
   7.50000000      -11.5000000       1.79999769       9.60580781E-02   5.30799961    
   7.50000000      -11.5000000       4.29999590      0.202930227       5.45799971    
   7.50000000      -11.5000000       8.59999466      -6.42166287E-02   5.71599960    
   8.50000000      -11.5000000      0.799997509      -8.56606290E-02   5.24799967    
   8.50000000      -11.5000000       3.79999614      -2.55079567E-03   5.42799950    
   8.50000000      -11.5000000       8.69999504     -0.130824536       5.72200012    
   9.50000000      -11.5000000      0.299997479     -0.538569331       5.21799946    
   9.50000000      -11.5000000       3.29999661     -0.124062262       5.39799976    
   9.50000000      -11.5000000       7.89999247      -2.30111927E-03   5.67399979    
   10.5000000      -11.5000000      0.299997479     -0.239915550       5.21799946    
   10.5000000      -11.5000000       3.29999661      0.530572295       5.39799976    
   10.5000000      -11.5000000       9.09999657      0.142358527       5.74599981    
   11.5000000      -11.5000000      0.299997479      0.441862136       5.21799946    
   11.5000000      -11.5000000       3.29999661       4.68176678E-02   5.39799976    
   11.5000000      -11.5000000       6.29999399      0.396452457       5.57799959    
   11.5000000      -11.5000000       10.8000031     -0.650983095       5.84800053    
   12.5000000      -11.5000000      0.899997532      0.261977345       5.25399971    
   12.5000000      -11.5000000       3.09999681     -0.366271913       5.38599968    
   12.5000000      -11.5000000       7.69999266      0.251578182       5.66199970    
   12.5000000      -11.5000000       11.6000061     -0.472852826       5.89600039    
   13.5000000      -11.5000000       4.59999561     -0.373144835       5.47599983    
   14.5000000      -11.5000000       2.79999709      0.498839796       5.36799955    
  -9.50000000      -10.5000000       9.69999886      -2.49591917E-02   5.78200006    
  -6.50000000      -10.5000000       10.5000019      0.451249570       5.83000040    
  -5.50000000      -10.5000000       10.3000011       3.44353765E-02   5.81800032    
  -4.50000000      -10.5000000       10.5000019     -0.124052435       5.83000040    
  -3.50000000      -10.5000000       9.69999886     -0.502953291       5.78200006    
   3.50000000      -10.5000000       5.19999504       2.06533968E-02   5.51199961    
   4.50000000      -10.5000000       5.39999485      0.421472251       5.52399969    
   5.50000000      -10.5000000       3.09999681      0.322314829       5.38599968    
   5.50000000      -10.5000000       7.39999294     -0.131091058       5.64399958    
   6.50000000      -10.5000000       1.49999762     -0.155033380       5.28999996    
   6.50000000      -10.5000000       4.59999561     -0.121485941       5.47599983    
   6.50000000      -10.5000000       10.7000027      -9.33215991E-02   5.84200048    
   7.50000000      -10.5000000      0.899997532     -0.499648124       5.25399971    
   7.50000000      -10.5000000       3.89999604      0.120153382       5.43399954    
   7.50000000      -10.5000000       6.89999342     -0.326470971       5.61399984    
   7.50000000      -10.5000000       13.4000130      0.244121134       6.00400114    
   8.50000000      -10.5000000      0.399997473     -0.628442705       5.22399950    
   8.50000000      -10.5000000       3.39999652      -1.41610131E-02   5.40399981    
   8.50000000      -10.5000000       6.79999352     -0.377253950       5.60799980    
   9.50000000      -10.5000000      0.399997473     -0.221300304       5.22399950    
   9.50000000      -10.5000000       3.39999652      0.748656094       5.40399981    
   9.50000000      -10.5000000       7.09999323      0.126077205       5.62599945    
   9.50000000      -10.5000000       11.2000046     -0.190320045       5.87200069    
   10.5000000      -10.5000000      0.399997473     -0.283235729       5.22399950    
   10.5000000      -10.5000000       3.39999652       1.73823070E-02   5.40399981    
   10.5000000      -10.5000000       7.49999285      0.566790879       5.64999962    
   10.5000000      -10.5000000       12.8000107     -0.351927817       5.96800089    
   11.5000000      -10.5000000      0.899997532      0.629572570       5.25399971    
   11.5000000      -10.5000000       4.59999561     -0.109593779       5.47599983    
   11.5000000      -10.5000000       8.19999313      0.460961282       5.69199991    
   11.5000000      -10.5000000       10.7000027     -0.464190394       5.84200048    
   12.5000000      -10.5000000       2.69999719      0.138457656       5.36199951    
   12.5000000      -10.5000000       8.69999504     -0.209748060       5.72200012    
   13.5000000      -10.5000000       4.99999523     -0.127812624       5.49999952    
  -6.50000000      -9.50000000       8.09999275      0.758154988       5.68599987    
  -5.50000000      -9.50000000       9.39999771      0.911627769       5.76399994    
  -4.50000000      -9.50000000       9.09999657      0.269398451       5.74599981    
  -3.50000000      -9.50000000       6.89999342     -0.309844166       5.61399984    
  -2.50000000      -9.50000000       7.69999266     -0.548920512       5.66199970    
 -0.500000000      -9.50000000       5.89999437      0.308202982       5.55399990    
  0.500000000      -9.50000000       4.79999542      0.444429278       5.48799992    
   1.50000000      -9.50000000       4.09999609       1.72978975E-02   5.44599962    
   2.50000000      -9.50000000       3.29999661      -1.17709190E-02   5.39799976    
   2.50000000      -9.50000000       5.59999466       1.69527829E-02   5.53599977    
   3.50000000      -9.50000000       3.39999652      0.172622710       5.40399981    
   3.50000000      -9.50000000       6.59999371      0.446326375       5.59599972    
   4.50000000      -9.50000000       2.19999766      0.157122985       5.33199978    
   4.50000000      -9.50000000       5.19999504      -3.18257734E-02   5.51199961    
   5.50000000      -9.50000000       1.69999766     -0.366280168       5.30199957    
   5.50000000      -9.50000000       4.69999552       6.85029849E-03   5.48199987    
   5.50000000      -9.50000000       7.69999266     -0.258617520       5.66199970    
   6.50000000      -9.50000000       1.19999754     -0.624566078       5.27199984    
   6.50000000      -9.50000000       4.19999599      0.356340289       5.45199966    
   6.50000000      -9.50000000       6.29999399     -0.241849884       5.57799959    
   7.50000000      -9.50000000      0.499997467     -0.506514490       5.22999954    
   7.50000000      -9.50000000       3.49999642       8.84389728E-02   5.40999985    
   7.50000000      -9.50000000       6.99999332      -8.98503363E-02   5.61999989    
   8.50000000      -9.50000000      0.599997461     -0.147185147       5.23599958    
   8.50000000      -9.50000000       3.59999633      0.231174886       5.41599989    
   8.50000000      -9.50000000       6.09999418      0.663738608       5.56599951    
   8.50000000      -9.50000000       10.2000008     -0.238329336       5.81200027    
   9.50000000      -9.50000000      0.599997461     -0.595014691       5.23599958    
   9.50000000      -9.50000000       3.59999633      0.157942086       5.41599989    
   9.50000000      -9.50000000       6.59999371       3.26224864E-02   5.59599972    
   9.50000000      -9.50000000       8.69999504      0.140781865       5.72200012    
   10.5000000      -9.50000000      0.999997556       1.06509900       5.25999975    
   10.5000000      -9.50000000       4.19999599       6.95277825E-02   5.45199966    
   10.5000000      -9.50000000       6.39999390      0.214204222       5.58399963    
   10.5000000      -9.50000000       10.3000011     -0.259632319       5.81800032    
   11.5000000      -9.50000000       2.09999776      0.352133870       5.32599974    
   11.5000000      -9.50000000       6.09999418      -5.50697520E-02   5.56599951    
   11.5000000      -9.50000000       8.59999466     -0.113008901       5.71599960    
   12.5000000      -9.50000000       5.19999504      0.881868005       5.51199961    
  -11.5000000      -8.50000000       11.3000050      0.144314975       5.87800026    
  -8.50000000      -8.50000000       8.59999466       4.34741229E-02   5.71599960    
  -7.50000000      -8.50000000       10.2000008       5.08673713E-02   5.81200027    
  -6.50000000      -8.50000000       7.89999247      0.656464100       5.67399979    
  -5.50000000      -8.50000000       6.39999390      0.880078018       5.58399963    
  -4.50000000      -8.50000000       6.09999418      0.612599611       5.56599951    
  -3.50000000      -8.50000000       6.69999361      0.157156631       5.60199976    
  -2.50000000      -8.50000000       3.99999595     -0.570481956       5.43999958    
  -2.50000000      -8.50000000       7.09999323     -0.453118026       5.62599945    
  -1.50000000      -8.50000000       2.89999700     -0.560533464       5.37399960    
 -0.500000000      -8.50000000       3.09999681      0.273755312       5.38599968    
 -0.500000000      -8.50000000       6.59999371     -0.336278260       5.59599972    
  0.500000000      -8.50000000       2.49999738       1.06020558       5.34999990    
  0.500000000      -8.50000000       4.59999561       3.29012759E-02   5.47599983    
  0.500000000      -8.50000000       7.09999323     -0.118237644       5.62599945    
   1.50000000      -8.50000000       3.19999671      0.262242079       5.39199972    
   1.50000000      -8.50000000       5.29999495      0.153027028       5.51799965    
   2.50000000      -8.50000000       2.19999766       7.95206502E-02   5.33199978    
   2.50000000      -8.50000000       5.69999456     -0.268729061       5.54199982    
   3.50000000      -8.50000000       1.69999766      0.456213534       5.30199957    
   3.50000000      -8.50000000       3.99999595     -0.347219169       5.43999958    
   3.50000000      -8.50000000       6.69999361      0.228820726       5.60199976    
   4.50000000      -8.50000000       1.59999764     -0.337926447       5.29599953    
   4.50000000      -8.50000000       4.59999561      0.393363386       5.47599983    
   4.50000000      -8.50000000       6.79999352     -0.205250889       5.60799980    
   5.50000000      -8.50000000       1.19999754     -0.710569620       5.27199984    
   5.50000000      -8.50000000       4.19999599      0.474176824       5.45199966    
   5.50000000      -8.50000000       8.19999313     -0.117538117       5.69199991    
   6.50000000      -8.50000000      0.699997485     -0.248596638       5.24199963    
   6.50000000      -8.50000000       3.69999623      0.245176971       5.42199993    
   6.50000000      -8.50000000       7.39999294     -0.483500957       5.64399958    
   6.50000000      -8.50000000       10.4000015      -9.32189263E-03   5.82400036    
   7.50000000      -8.50000000      0.999997556     -0.336449623       5.25999975    
   7.50000000      -8.50000000       3.99999595      0.285307229       5.43999958    
   7.50000000      -8.50000000       6.19999409      0.806939006       5.57199955    
   7.50000000      -8.50000000       8.29999352      -8.61478299E-02   5.69799995    
   7.50000000      -8.50000000       12.7000103     -0.194765627       5.96200085    
   8.50000000      -8.50000000      0.799997509     -0.763411582       5.24799967    
   8.50000000      -8.50000000       3.79999614     -0.495956808       5.42799950    
   8.50000000      -8.50000000       6.29999399      0.749132633       5.57799959    
   8.50000000      -8.50000000       9.79999924      0.293901205       5.78800011    
   9.50000000      -8.50000000      0.899997532       1.01873374       5.25399971    
   9.50000000      -8.50000000       3.89999604       4.92258668E-02   5.43399954    
   9.50000000      -8.50000000       7.39999294      0.789439142       5.64399958    
   10.5000000      -8.50000000       1.99999774      0.886859179       5.31999969    
   10.5000000      -8.50000000       4.29999590     -0.393397242       5.45799971    
   10.5000000      -8.50000000       8.49999428      -9.00368094E-02   5.71000004    
   10.5000000      -8.50000000       11.4000053     -0.166694924       5.88400030    
   11.5000000      -8.50000000       3.89999604      0.339766473       5.43399954    
   11.5000000      -8.50000000       5.99999428     -0.227535382       5.55999947    
   12.5000000      -8.50000000       4.99999523       9.08234566E-02   5.49999952    
  -8.50000000      -7.50000000       6.69999361      0.837720692       5.60199976    
  -6.50000000      -7.50000000       8.69999504       1.00807571       5.72200012    
  -5.50000000      -7.50000000       5.59999466       1.48982294E-02   5.53599977    
  -4.50000000      -7.50000000       4.89999533     -0.369237632       5.49399948    
  -3.50000000      -7.50000000       3.69999623      0.172199145       5.42199993    
  -2.50000000      -7.50000000       2.19999766      0.138110295       5.33199978    
  -2.50000000      -7.50000000       4.79999542      0.753715992       5.48799992    
  -1.50000000      -7.50000000       2.29999757      0.146458134       5.33799982    
  -1.50000000      -7.50000000       4.39999580     -0.223518237       5.46399975    
 -0.500000000      -7.50000000       1.29999757       5.75332195E-02   5.27799988    
 -0.500000000      -7.50000000       4.59999561      0.458546758       5.47599983    
  0.500000000      -7.50000000       1.39999759      0.472493470       5.28399992    
  0.500000000      -7.50000000       4.79999542     -0.704096913       5.48799992    
   1.50000000      -7.50000000      0.599997461      0.315510869       5.23599958    
   1.50000000      -7.50000000       3.89999604     -0.136607498       5.43399954    
   1.50000000      -7.50000000       6.59999371     -0.586477458       5.59599972    
   2.50000000      -7.50000000      0.499997467      0.397780687       5.22999954    
   2.50000000      -7.50000000       2.59999728      0.579279184       5.35599995    
   2.50000000      -7.50000000       5.59999466      -8.02691802E-02   5.53599977    
   3.50000000      -7.50000000       1.09999752      0.379130125       5.26599979    
   3.50000000      -7.50000000       4.09999609      0.395174265       5.44599962    
   3.50000000      -7.50000000       6.19999409     -0.150961906       5.57199955    
   4.50000000      -7.50000000       1.29999757     -0.202149242       5.27799988    
   4.50000000      -7.50000000       4.29999590      0.315785229       5.45799971    
   5.50000000      -7.50000000       1.09999752      -7.12985694E-02   5.26599979    
   5.50000000      -7.50000000       4.09999609      0.251860797       5.44599962    
   5.50000000      -7.50000000       9.09999657     -0.182698384       5.74599981    
   6.50000000      -7.50000000       1.49999762     -0.274263620       5.28999996    
   6.50000000      -7.50000000       4.49999571      0.526441991       5.46999979    
   6.50000000      -7.50000000       7.09999323      0.118993439       5.62599945    
   7.50000000      -7.50000000       1.39999759     -0.765809834       5.28399992    
   7.50000000      -7.50000000       4.39999580       5.84641919E-02   5.46399975    
   7.50000000      -7.50000000       7.59999275      0.111957870       5.65599966    
   8.50000000      -7.50000000       1.19999754      0.630538225       5.27199984    
   8.50000000      -7.50000000       4.19999599     -0.397589147       5.45199966    
   8.50000000      -7.50000000       8.69999504      0.113970220       5.72200012    
   9.50000000      -7.50000000       1.69999766      0.786047339       5.30199957    
   9.50000000      -7.50000000       3.79999614     -0.273785502       5.42799950    
   9.50000000      -7.50000000       6.39999390      0.464365721       5.58399963    
   9.50000000      -7.50000000       10.9000034     -0.738644421       5.85400057    
   10.5000000      -7.50000000      0.899997532      -5.05714566E-02   5.25399971    
   10.5000000      -7.50000000       3.59999633      -8.50944966E-02   5.41599989    
   10.5000000      -7.50000000       5.79999447      -7.95612484E-02   5.54799986    
   10.5000000      -7.50000000       9.69999886     -0.514732659       5.78200006    
   11.5000000      -7.50000000      -2.51829624E-06 -0.481506169       5.19999981    
   11.5000000      -7.50000000       3.79999614      0.273961693       5.42799950    
   11.5000000      -7.50000000       9.39999771     -0.242040843       5.76399994    
   12.5000000      -7.50000000     -0.700002551     -0.579594135       5.19999981    
   12.5000000      -7.50000000       2.09999776     -0.787589848       5.32599974    
   13.5000000      -7.50000000     -0.600002527      -6.37092218E-02   5.19999981    
  -5.50000000      -6.50000000       2.09999776     -0.137323350       5.32599974    
  -4.50000000      -6.50000000       1.89999771      0.159342945       5.31399965    
  -3.50000000      -6.50000000       2.49999738      0.138597667       5.34999990    
  -2.50000000      -6.50000000       2.49999738      0.309755147       5.34999990    
  -2.50000000      -6.50000000       4.99999523       2.54752338E-02   5.49999952    
  -1.50000000      -6.50000000       2.59999728      0.473997235       5.35599995    
 -0.500000000      -6.50000000      0.899997532      0.345832705       5.25399971    
 -0.500000000      -6.50000000       3.59999633     -0.315315664       5.41599989    
  0.500000000      -6.50000000      -1.50000274      0.107409388       5.19999981    
  0.500000000      -6.50000000      0.499997467      0.745052576       5.22999954    
  0.500000000      -6.50000000       3.59999633      0.187832713       5.41599989    
  0.500000000      -6.50000000       6.89999342     -0.778187096       5.61399984    
   1.50000000      -6.50000000      -1.80000281      0.260652721       5.19999981    
   1.50000000      -6.50000000      0.199997485     -0.440948784       5.21199989    
   1.50000000      -6.50000000       2.19999766      0.246273234       5.33199978    
   1.50000000      -6.50000000       4.69999552      -2.34078467E-02   5.48199987    
   1.50000000      -6.50000000       8.49999428      -9.82584506E-02   5.71000004    
   2.50000000      -6.50000000     -0.200002521      0.321597666       5.19999981    
   2.50000000      -6.50000000       1.79999769      0.835680366       5.30799961    
   2.50000000      -6.50000000       4.79999542      0.835589945       5.48799992    
   2.50000000      -6.50000000       7.49999285      -6.92791045E-02   5.64999962    
   3.50000000      -6.50000000       1.29999757       1.25137138       5.27799988    
   3.50000000      -6.50000000       4.29999590      0.763970077       5.45799971    
   3.50000000      -6.50000000       6.39999390      0.544203043       5.58399963    
   4.50000000      -6.50000000       1.49999762       1.21813798       5.28999996    
   4.50000000      -6.50000000       4.49999571      0.552000761       5.46999979    
   4.50000000      -6.50000000       7.49999285      -5.63884228E-02   5.64999962    
   5.50000000      -6.50000000       2.09999776      0.590628862       5.32599974    
   5.50000000      -6.50000000       5.09999514      0.235910609       5.50599957    
   6.50000000      -6.50000000       1.99999774     -0.532491207       5.31999969    
   6.50000000      -6.50000000       4.99999523      0.519752920       5.49999952    
   6.50000000      -6.50000000       7.99999237       6.15989901E-02   5.67999983    
   7.50000000      -6.50000000       1.69999766      0.523448944       5.30199957    
   7.50000000      -6.50000000       4.89999533      -8.72185826E-03   5.49399948    
   7.50000000      -6.50000000       9.39999771       1.17458403E-03   5.76399994    
   8.50000000      -6.50000000       1.29999757      0.563748538       5.27799988    
   8.50000000      -6.50000000       5.59999466      0.159584552       5.53599977    
   9.50000000      -6.50000000      0.499997467     -0.149130940       5.22999954    
   9.50000000      -6.50000000       4.49999571       9.43839550E-05   5.46999979    
   10.5000000      -6.50000000     -0.200002521      -1.04592872       5.19999981    
   10.5000000      -6.50000000       1.79999769      0.209306404       5.30799961    
   10.5000000      -6.50000000       4.29999590      0.606230378       5.45799971    
   11.5000000      -6.50000000     -0.400002509     -0.859542608       5.19999981    
   11.5000000      -6.50000000       1.59999764       5.52713573E-02   5.29599953    
   11.5000000      -6.50000000       8.59999466     -0.337028831       5.71599960    
   12.5000000      -6.50000000     -0.600002527      -8.46043974E-03   5.19999981    
   12.5000000      -6.50000000       5.79999447       3.07465065E-03   5.54799986    
  -8.50000000      -5.50000000       1.39999759       1.81120026       5.28399992    
  -7.50000000      -5.50000000      -1.20000267       1.30140924       5.19999981    
  -6.50000000      -5.50000000     -0.600002527      0.269610226       5.19999981    
  -6.50000000      -5.50000000       13.2000122      0.424032301       5.99200106    
  -5.50000000      -5.50000000     -0.100002520      0.441752523       5.19999981    
  -5.50000000      -5.50000000       6.89999342      0.731760859       5.61399984    
  -4.50000000      -5.50000000      0.599997461      0.854486644       5.23599958    
  -4.50000000      -5.50000000       8.19999313     -0.183162153       5.69199991    
  -3.50000000      -5.50000000      0.999997556       1.55074573       5.25999975    
  -2.50000000      -5.50000000       1.49999762      0.429747820       5.28999996    
  -1.50000000      -5.50000000      0.199997485       1.48409736       5.21199989    
  -1.50000000      -5.50000000       2.59999728      0.828599572       5.35599995    
 -0.500000000      -5.50000000      -2.51829624E-06   1.88092923       5.19999981    
 -0.500000000      -5.50000000       1.99999774       1.33675349       5.31999969    
 -0.500000000      -5.50000000       4.69999552     -0.945175767       5.48199987    
  0.500000000      -5.50000000      -1.40000272     -0.816130280       5.19999981    
  0.500000000      -5.50000000      0.599997461      0.195036754       5.23599958    
  0.500000000      -5.50000000       3.59999633      0.378650516       5.41599989    
   1.50000000      -5.50000000      -1.50000274      0.373982608       5.19999981    
   1.50000000      -5.50000000      0.499997467      -1.41455841       5.22999954    
   1.50000000      -5.50000000       3.49999642      0.615763187       5.40999985    
   1.50000000      -5.50000000       6.39999390       1.62572896       5.58399963    
   2.50000000      -5.50000000     -0.200002521      0.908902586       5.19999981    
   2.50000000      -5.50000000       1.79999769      0.627177119       5.30799961    
   2.50000000      -5.50000000       4.79999542      -1.32035983       5.48799992    
   3.50000000      -5.50000000       1.29999757      0.505906641       5.27799988    
   3.50000000      -5.50000000       4.29999590      0.306036890       5.45799971    
   3.50000000      -5.50000000       6.39999390     -0.375978738       5.58399963    
   4.50000000      -5.50000000       1.99999774       1.18336487       5.31999969    
   4.50000000      -5.50000000       4.09999609      0.722418010       5.44599962    
   4.50000000      -5.50000000       6.19999409      0.407800972       5.57199955    
   5.50000000      -5.50000000       1.89999771       1.27497888       5.31399965    
   5.50000000      -5.50000000       4.89999533     -0.729285359       5.49399948    
   6.50000000      -5.50000000       1.19999754      0.101284802       5.27199984    
   6.50000000      -5.50000000       4.19999599     -0.392928630       5.45199966    
   6.50000000      -5.50000000       6.49999380      0.947845042       5.58999968    
   7.50000000      -5.50000000      0.799997509      0.655213237       5.24799967    
   7.50000000      -5.50000000       4.09999609      0.512877107       5.44599962    
   8.50000000      -5.50000000      0.599997461      -1.34949648       5.23599958    
   8.50000000      -5.50000000       2.69999719       1.04796720       5.36199951    
   8.50000000      -5.50000000       6.29999399     -0.274675012       5.57799959    
   9.50000000      -5.50000000      0.599997461      -1.61916924       5.23599958    
   9.50000000      -5.50000000       3.59999633     -0.242428005       5.41599989    
   10.5000000      -5.50000000      0.799997509      0.216961831       5.24799967    
  -7.50000000      -4.50000000     -0.200002521      -5.19004464E-02   5.19999981    
  -6.50000000      -4.50000000     -0.600002527     -0.863567650       5.19999981    
  -5.50000000      -4.50000000     -0.400002509      0.536570787       5.19999981    
  -5.50000000      -4.50000000       2.19999766     -0.531506181       5.33199978    
  -4.50000000      -4.50000000      -2.51829624E-06   1.68130982       5.19999981    
  -4.50000000      -4.50000000       2.19999766     -0.213188857       5.33199978    
  -3.50000000      -4.50000000     -0.900002599       2.99581504       5.19999981    
  -3.50000000      -4.50000000       1.19999754     -0.918235421       5.27199984    
  -3.50000000      -4.50000000       8.59999466     -0.223596916       5.71599960    
  -2.50000000      -4.50000000      -1.70000279      0.862793446       5.19999981    
  -2.50000000      -4.50000000      0.299997479       2.65649343       5.21799946    
  -2.50000000      -4.50000000       2.49999738      -2.38256955       5.34999990    
  -2.50000000      -4.50000000       11.8000069     -0.150337905       5.90800047    
  -1.50000000      -4.50000000      -1.00000262       2.86530590       5.19999981    
  -1.50000000      -4.50000000      0.999997556     -0.763383269       5.25999975    
  -1.50000000      -4.50000000       8.29999352      0.299830377       5.69799995    
 -0.500000000      -4.50000000     -0.100002520       2.01716661       5.19999981    
 -0.500000000      -4.50000000       1.89999771      -1.00280726       5.31399965    
 -0.500000000      -4.50000000       4.49999571     -0.550944626       5.46999979    
  0.500000000      -4.50000000     -0.500002503       2.35583591       5.19999981    
  0.500000000      -4.50000000       2.49999738      0.132185549       5.34999990    
  0.500000000      -4.50000000       4.79999542      0.355878472       5.48799992    
   1.50000000      -4.50000000     -0.300002515      -7.19606280E-02   5.19999981    
   1.50000000      -4.50000000       1.69999766      -2.83085394       5.30199957    
   1.50000000      -4.50000000       4.69999552       1.82785892       5.48199987    
   1.50000000      -4.50000000       6.79999352      -1.50941348       5.60799980    
   2.50000000      -4.50000000       9.99974832E-02   1.52932715       5.20599985    
   2.50000000      -4.50000000       2.09999776     -0.982056379       5.32599974    
   2.50000000      -4.50000000       5.09999514     -0.258671552       5.50599957    
   3.50000000      -4.50000000       1.09999752     -0.548544228       5.26599979    
   3.50000000      -4.50000000       4.09999609       1.32560444       5.44599962    
   3.50000000      -4.50000000       6.29999399      -2.22597051       5.57799959    
   4.50000000      -4.50000000       1.19999754       1.01993716       5.27199984    
   4.50000000      -4.50000000       4.19999599      0.423594028       5.45199966    
   4.50000000      -4.50000000       7.39999294     -0.512400925       5.64399958    
   5.50000000      -4.50000000       1.19999754       1.53469682       5.27199984    
   5.50000000      -4.50000000       4.19999599      -1.34029579       5.45199966    
   6.50000000      -4.50000000       1.09999752     -0.249408320       5.26599979    
   6.50000000      -4.50000000       3.19999671     -0.535064220       5.39199972    
   6.50000000      -4.50000000       8.99999619      0.314253062       5.73999977    
   7.50000000      -4.50000000       1.59999764      0.429267406       5.29599953    
   7.50000000      -4.50000000       3.89999604     -0.191577211       5.43399954    
   8.50000000      -4.50000000       2.19999766      0.872934878       5.33199978    
  -5.50000000      -3.50000000      0.999997556      0.294389844       5.25999975    
  -4.50000000      -3.50000000      0.699997485      -1.40647745       5.24199963    
  -3.50000000      -3.50000000       9.99974832E-02 -0.200984776       5.20599985    
  -3.50000000      -3.50000000       2.09999776      -3.37441826       5.32599974    
  -3.50000000      -3.50000000       4.69999552      0.459054649       5.48199987    
  -2.50000000      -3.50000000      -1.30000269     -0.656144619       5.19999981    
  -2.50000000      -3.50000000      0.699997485       1.14779675       5.24199963    
  -2.50000000      -3.50000000       3.99999595     -0.840581298       5.43999958    
  -1.50000000      -3.50000000     -0.900002599      -2.74290586       5.19999981    
  -1.50000000      -3.50000000       2.09999776       2.18943405       5.32599974    
  -1.50000000      -3.50000000       4.39999580      0.872138321       5.46399975    
 -0.500000000      -3.50000000     -0.500002503       2.75153708       5.19999981    
 -0.500000000      -3.50000000       2.49999738      -1.98073220       5.34999990    
 -0.500000000      -3.50000000       4.99999523       1.32831478       5.49999952    
  0.500000000      -3.50000000     -0.100002520       3.62301254       5.19999981    
  0.500000000      -3.50000000       1.89999771       1.88920593       5.31399965    
  0.500000000      -3.50000000       4.99999523      0.359803379       5.49999952    
   1.50000000      -3.50000000      0.199997485     -0.622501194       5.21199989    
   1.50000000      -3.50000000       2.19999766      0.357551217       5.33199978    
   1.50000000      -3.50000000       5.19999504       1.56296396       5.51199961    
   2.50000000      -3.50000000     -0.100002520      0.517864704       5.19999981    
   2.50000000      -3.50000000       1.89999771      0.573899984       5.31399965    
   2.50000000      -3.50000000       4.89999533      0.868981838       5.49399948    
   3.50000000      -3.50000000     -0.200002521       4.06254530E-02   5.19999981    
   3.50000000      -3.50000000       1.79999769      0.740881681       5.30799961    
   3.50000000      -3.50000000       4.79999542     -0.124195836       5.48799992    
   4.50000000      -3.50000000      0.699997485      0.201674923       5.24199963    
   4.50000000      -3.50000000       3.69999623       1.55165136       5.42199993    
   4.50000000      -3.50000000       5.99999428      -1.40686810       5.55999947    
   5.50000000      -3.50000000       1.49999762     -0.361625195       5.28999996    
   5.50000000      -3.50000000       4.49999571      -1.04811060       5.46999979    
   5.50000000      -3.50000000       8.69999504      0.419000745       5.72200012    
   6.50000000      -3.50000000       1.49999762      0.346087694       5.28999996    
   6.50000000      -3.50000000       5.79999447     -0.677617908       5.54799986    
   7.50000000      -3.50000000       1.39999759       1.67625272       5.28399992    
   7.50000000      -3.50000000       3.89999604     -0.728027999       5.43399954    
   8.50000000      -3.50000000      0.899997532       2.04561591       5.25399971    
   8.50000000      -3.50000000       3.89999604     -0.487282485       5.43399954    
   9.50000000      -3.50000000      0.699997485       1.53050232       5.24199963    
  -3.50000000      -2.50000000       2.19999766      0.970604539       5.33199978    
  -2.50000000      -2.50000000       1.69999766       2.73333597       5.30199957    
  -1.50000000      -2.50000000      0.399997473       2.56315637       5.22399950    
  -1.50000000      -2.50000000       3.69999623      -2.06280470       5.42199993    
 -0.500000000      -2.50000000      -2.20000267       1.08622181       5.19999981    
 -0.500000000      -2.50000000     -0.100002520       3.16125154       5.19999981    
 -0.500000000      -2.50000000       1.89999771       1.17288733       5.31399965    
 -0.500000000      -2.50000000       4.29999590     -0.574454486       5.45799971    
  0.500000000      -2.50000000     -0.700002551       2.28012371       5.19999981    
  0.500000000      -2.50000000       2.29999757       9.61427391E-02   5.33799982    
  0.500000000      -2.50000000       14.2000160     -0.741933465       6.05200100    
   1.50000000      -2.50000000     -0.300002515       7.48765945       5.19999981    
   1.50000000      -2.50000000       1.69999766     -0.354158133       5.30199957    
   1.50000000      -2.50000000       4.69999552       1.35769498       5.48199987    
   1.50000000      -2.50000000       7.99999237     -0.230561927       5.67999983    
   2.50000000      -2.50000000     -0.600002527       2.45902658       5.19999981    
   2.50000000      -2.50000000       2.39999747      0.602383018       5.34399986    
   2.50000000      -2.50000000       5.39999485     -0.689065456       5.52399969    
   3.50000000      -2.50000000      -1.50000274      -1.32337034       5.19999981    
   3.50000000      -2.50000000      0.499997467      -3.35406685       5.22999954    
   3.50000000      -2.50000000       3.49999642       1.75748646       5.40999985    
   3.50000000      -2.50000000       5.79999447       1.28351760       5.54799986    
   4.50000000      -2.50000000      0.399997473     -0.284668177       5.22399950    
   4.50000000      -2.50000000       3.39999652       2.45634675       5.40399981    
   4.50000000      -2.50000000       5.79999447      -1.81112766       5.54799986    
   5.50000000      -2.50000000      0.699997485       1.24549794       5.24199963    
   5.50000000      -2.50000000       3.69999623       1.02235556       5.42199993    
   6.50000000      -2.50000000      0.599997461       1.15939140       5.23599958    
   6.50000000      -2.50000000       3.89999604      -9.08211246E-02   5.43399954    
   7.50000000      -2.50000000       9.99974832E-02 -0.593229115       5.20599985    
   7.50000000      -2.50000000       2.09999776      0.135261774       5.32599974    
   8.50000000      -2.50000000     -0.200002521     -0.571249902       5.19999981    
   8.50000000      -2.50000000       1.79999769     -0.483322352       5.30799961    
   8.50000000      -2.50000000       5.19999504      0.559520721       5.51199961    
   9.50000000      -2.50000000     -0.500002503      -1.52179646       5.19999981    
   10.5000000      -2.50000000     -0.700002551      -1.57495153       5.19999981    
   10.5000000      -2.50000000       2.59999728     -0.927321196       5.35599995    
   11.5000000      -2.50000000      -1.30000269      0.443002433       5.19999981    
   11.5000000      -2.50000000       4.69999552     -0.157074615       5.48199987    
   12.5000000      -2.50000000       3.89999604       1.18808138       5.43399954    
  -3.50000000      -1.50000000       2.29999757       1.26987028       5.33799982    
  -2.50000000      -1.50000000      0.499997467       1.59417939       5.22999954    
  -2.50000000      -1.50000000       3.59999633      -1.08467972       5.41599989    
  -2.50000000      -1.50000000       6.99999332     -0.761577487       5.61999989    
  -1.50000000      -1.50000000      0.199997485     -0.347402066       5.21199989    
  -1.50000000      -1.50000000       2.19999766      -2.21674895       5.33199978    
  -1.50000000      -1.50000000       5.79999447      -1.41410053       5.54799986    
 -0.500000000      -1.50000000     -0.200002521       3.34122562       5.19999981    
 -0.500000000      -1.50000000       1.79999769      0.332156271       5.30799961    
 -0.500000000      -1.50000000       7.39999294      0.624132574       5.64399958    
  0.500000000      -1.50000000     -0.400002509      0.439864814       5.19999981    
  0.500000000      -1.50000000       1.59999764     -0.284382254       5.29599953    
  0.500000000      -1.50000000       4.59999561     -0.424870253       5.47599983    
  0.500000000      -1.50000000       16.6000252      0.340142071       6.19600153    
   1.50000000      -1.50000000       9.99974832E-02  -9.69206691E-02   5.20599985    
   1.50000000      -1.50000000       2.09999776      -1.21913993       5.32599974    
   1.50000000      -1.50000000       5.09999514       2.10326409       5.50599957    
   1.50000000      -1.50000000       11.4000053      0.673038483       5.88400030    
   2.50000000      -1.50000000       9.99974832E-02  -1.96215284       5.20599985    
   2.50000000      -1.50000000       2.09999776       1.58150458       5.32599974    
   2.50000000      -1.50000000       5.09999514       1.19618893       5.50599957    
   3.50000000      -1.50000000     -0.200002521      -2.75736380       5.19999981    
   3.50000000      -1.50000000       1.79999769       1.01812112       5.30799961    
   3.50000000      -1.50000000       4.79999542     -0.152159154       5.48799992    
   4.50000000      -1.50000000      0.599997461     -0.297852278       5.23599958    
   4.50000000      -1.50000000       3.59999633       1.40157056       5.41599989    
   4.50000000      -1.50000000       5.79999447      -1.23141050       5.54799986    
   5.50000000      -1.50000000      0.899997532      0.877553523       5.25399971    
   5.50000000      -1.50000000       3.89999604     -0.897254944       5.43399954    
   5.50000000      -1.50000000       8.09999275     -0.398497492       5.68599987    
   6.50000000      -1.50000000      0.799997509     -0.379865587       5.24799967    
   6.50000000      -1.50000000       3.89999604     -0.520305037       5.43399954    
   7.50000000      -1.50000000      0.399997473     -0.664275289       5.22399950    
   7.50000000      -1.50000000       3.59999633      0.533496916       5.41599989    
   7.50000000      -1.50000000       8.99999619     -0.183697477       5.73999977    
   8.50000000      -1.50000000      0.199997485     -0.695669651       5.21199989    
   8.50000000      -1.50000000       2.19999766      0.390100569       5.33199978    
   8.50000000      -1.50000000       5.89999437      0.285851419       5.55399990    
   9.50000000      -1.50000000     -0.200002521     -0.610502481       5.19999981    
   9.50000000      -1.50000000       2.19999766     -0.781475902       5.33199978    
   9.50000000      -1.50000000       7.99999237      0.802372396       5.67999983    
   10.5000000      -1.50000000     -0.500002503      -1.88430047       5.19999981    
   10.5000000      -1.50000000       3.69999623      0.774989128       5.42199993    
   11.5000000      -1.50000000     -0.300002515      -1.53601849       5.19999981    
   11.5000000      -1.50000000       2.59999728      0.991480529       5.35599995    
  -4.50000000     -0.500000000       4.69999552      0.808299959       5.48199987    
  -3.50000000     -0.500000000       1.89999771     -0.577579975       5.31399965    
  -3.50000000     -0.500000000       4.09999609      0.637456119       5.44599962    
  -2.50000000     -0.500000000     -0.400002509      -1.66376305       5.19999981    
  -2.50000000     -0.500000000       1.59999764      0.336304963       5.29599953    
  -2.50000000     -0.500000000       5.79999447       9.34400335E-02   5.54799986    
  -1.50000000     -0.500000000     -0.700002551      -2.14952278       5.19999981    
  -1.50000000     -0.500000000       2.39999747      0.567974329       5.34399986    
  -1.50000000     -0.500000000       6.59999371     -0.154492095       5.59599972    
 -0.500000000     -0.500000000      -2.51829624E-06   1.82232547       5.19999981    
 -0.500000000     -0.500000000       1.99999774      0.438048363       5.31999969    
 -0.500000000     -0.500000000       4.59999561       1.70165348       5.47599983    
  0.500000000     -0.500000000      -2.51829624E-06   2.27860761       5.19999981    
  0.500000000     -0.500000000       1.99999774      0.356437624       5.31999969    
  0.500000000     -0.500000000       6.19999409      0.688548088       5.57199955    
   1.50000000     -0.500000000      0.399997473     -0.674066007       5.22399950    
   1.50000000     -0.500000000       3.39999652      0.675443769       5.40399981    
   1.50000000     -0.500000000       6.29999399      0.635134339       5.57799959    
   2.50000000     -0.500000000      0.199997485       1.74316525       5.21199989    
   2.50000000     -0.500000000       2.19999766      0.610625744       5.33199978    
   2.50000000     -0.500000000       5.19999504     -0.683779478       5.51199961    
   3.50000000     -0.500000000      0.199997485     -0.997337222       5.21199989    
   3.50000000     -0.500000000       2.19999766       1.28830552       5.33199978    
   3.50000000     -0.500000000       5.19999504       3.32539752E-02   5.51199961    
   4.50000000     -0.500000000       1.19999754       1.85362077       5.27199984    
   4.50000000     -0.500000000       4.19999599     -0.654463053       5.45199966    
   4.50000000     -0.500000000       9.39999771       2.01162386       5.76399994    
   5.50000000     -0.500000000       1.69999766      0.829986155       5.30199957    
   5.50000000     -0.500000000       4.69999552     -0.833749533       5.48199987    
   6.50000000     -0.500000000       1.59999764       1.32327652       5.29599953    
   6.50000000     -0.500000000       3.89999604     -0.462087810       5.43399954    
   7.50000000     -0.500000000       1.39999759       1.87251091       5.28399992    
   7.50000000     -0.500000000       4.69999552      -2.28240490E-02   5.48199987    
   8.50000000     -0.500000000      0.999997556      0.952385485       5.25999975    
   9.50000000     -0.500000000       1.69999766     -0.165266454       5.30199957    
  -3.50000000      0.500000000       2.29999757      0.169602439       5.33799982    
  -3.50000000      0.500000000       4.79999542      0.487897933       5.48799992    
  -2.50000000      0.500000000      -1.60000277      -2.35471439       5.19999981    
  -2.50000000      0.500000000      0.399997473      -1.90301180       5.22399950    
  -2.50000000      0.500000000       3.69999623       1.22358441       5.42199993    
  -1.50000000      0.500000000      -1.40000272      0.265752465       5.19999981    
  -1.50000000      0.500000000      0.599997461       2.98146510       5.23599958    
  -1.50000000      0.500000000       4.69999552      -5.15937768E-02   5.48199987    
 -0.500000000      0.500000000     -0.200002521      0.770466924       5.19999981    
 -0.500000000      0.500000000       1.79999769       1.54911971       5.30799961    
 -0.500000000      0.500000000       3.89999604      0.228852257       5.43399954    
 -0.500000000      0.500000000       8.39999390      0.651352406       5.70399952    
  0.500000000      0.500000000      0.299997479      -1.11901176       5.21799946    
  0.500000000      0.500000000       3.29999661      -1.86884332       5.39799976    
   1.50000000      0.500000000      0.899997532      0.538759589       5.25399971    
   1.50000000      0.500000000       3.89999604     -0.715478182       5.43399954    
   2.50000000      0.500000000      0.799997509      0.959304810       5.24799967    
   2.50000000      0.500000000       3.79999614     -0.745815992       5.42799950    
   2.50000000      0.500000000       6.49999380     -0.458703399       5.58999968    
   3.50000000      0.500000000      0.199997485      0.984381080       5.21199989    
   3.50000000      0.500000000       2.19999766       1.09347677       5.33199978    
   3.50000000      0.500000000       5.19999504     -0.619693637       5.51199961    
   4.50000000      0.500000000     -0.100002520      -9.89372581E-02   5.19999981    
   4.50000000      0.500000000       1.89999771      0.999745369       5.31399965    
   4.50000000      0.500000000       4.89999533      -1.06328273       5.49399948    
   5.50000000      0.500000000       1.09999752     -0.570287406       5.26599979    
   5.50000000      0.500000000       4.09999609       1.70352030       5.44599962    
   6.50000000      0.500000000       1.59999764     -0.210115612       5.29599953    
   6.50000000      0.500000000       3.69999623      0.813368320       5.42199993    
   7.50000000      0.500000000       2.09999776     -0.613871813       5.32599974    
   7.50000000      0.500000000       4.69999552     -0.284333616       5.48199987    
   8.50000000      0.500000000       3.89999604       1.11277139       5.43399954    
  -3.50000000       1.50000000       5.89999437      0.610053658       5.55399990    
  -2.50000000       1.50000000      -1.40000272     -0.205305666       5.19999981    
  -2.50000000       1.50000000      0.899997532       1.37372160       5.25399971    
  -2.50000000       1.50000000       5.29999495      0.431420863       5.51799965    
  -1.50000000       1.50000000     -0.700002551       2.85937309       5.19999981    
  -1.50000000       1.50000000       2.89999700     -0.658932745       5.37399960    
 -0.500000000       1.50000000      0.699997485     -0.906983078       5.24199963    
 -0.500000000       1.50000000       2.79999709     -0.828635097       5.36799955    
 -0.500000000       1.50000000       7.49999285      0.352859169       5.64999962    
  0.500000000       1.50000000      0.299997479      0.172332525       5.21799946    
  0.500000000       1.50000000       3.29999661      -1.06842148       5.39799976    
  0.500000000       1.50000000       8.29999352      0.607288420       5.69799995    
   1.50000000       1.50000000      0.199997485      0.355253458       5.21199989    
   1.50000000       1.50000000       2.19999766       1.31546092       5.33199978    
   1.50000000       1.50000000       5.49999475     -0.656966925       5.52999973    
   2.50000000       1.50000000      0.699997485       1.33491039       5.24199963    
   2.50000000       1.50000000       3.69999623     -0.245699853       5.42199993    
   2.50000000       1.50000000       6.29999399     -0.448336929       5.57799959    
   3.50000000       1.50000000      0.599997461       1.15601301       5.23599958    
   3.50000000       1.50000000       3.59999633     -0.717132866       5.41599989    
   3.50000000       1.50000000       5.99999428      0.199834198       5.55999947    
   4.50000000       1.50000000       9.99974832E-02   1.22190571       5.20599985    
   4.50000000       1.50000000       2.09999776      0.339368165       5.32599974    
   4.50000000       1.50000000       5.19999504     -0.903078914       5.51199961    
   5.50000000       1.50000000     -0.600002527     -0.902267814       5.19999981    
   5.50000000       1.50000000       2.39999747       7.09958076E-02   5.34399986    
   5.50000000       1.50000000       7.39999294      -3.79332677E-02   5.64399958    
   6.50000000       1.50000000     -0.500002503     -0.708603561       5.19999981    
   6.50000000       1.50000000       1.59999764     -0.388968438       5.29599953    
   6.50000000       1.50000000       5.79999447      0.797967732       5.54799986    
   7.50000000       1.50000000      0.599997461       5.32033145E-02   5.23599958    
   7.50000000       1.50000000       5.19999504     -0.208890736       5.51199961    
   8.50000000       1.50000000       3.99999595      0.628050327       5.43999958    
   9.50000000       1.50000000       4.69999552      0.628742456       5.48199987    
  -2.50000000       2.50000000       5.29999495      0.521949887       5.51799965    
  -1.50000000       2.50000000       3.89999604      -1.07392061       5.43399954    
 -0.500000000       2.50000000       1.89999771      -1.03902745       5.31399965    
 -0.500000000       2.50000000       4.69999552      -2.30951980E-02   5.48199987    
  0.500000000       2.50000000      0.499997467     -0.175162718       5.22999954    
  0.500000000       2.50000000       3.59999633      0.275499165       5.41599989    
   1.50000000       2.50000000     -0.100002520       3.14439908E-02   5.19999981    
   1.50000000       2.50000000       1.89999771      0.632548988       5.31399965    
   1.50000000       2.50000000       5.09999514       6.06952608E-03   5.50599957    
   2.50000000       2.50000000      0.499997467      0.827123046       5.22999954    
   2.50000000       2.50000000       3.49999642      0.859307170       5.40999985    
   2.50000000       2.50000000       8.99999619     -0.429970980       5.73999977    
   3.50000000       2.50000000      0.499997467       2.29451656       5.22999954    
   3.50000000       2.50000000       3.49999642      -1.16968703       5.40999985    
   3.50000000       2.50000000       17.7000294      0.260306537       6.26200199    
   4.50000000       2.50000000      0.999997556       1.15198779       5.25999975    
   4.50000000       2.50000000       3.99999595     -0.157028154       5.43999958    
   4.50000000       2.50000000       6.09999418     -0.713993430       5.56599951    
   5.50000000       2.50000000      0.999997556      -2.63904929E-02   5.25999975    
   5.50000000       2.50000000       3.19999671      0.592131555       5.39199972    
   5.50000000       2.50000000       8.89999580       4.78304476E-02   5.73399973    
   6.50000000       2.50000000     -0.600002527      -1.41183710       5.19999981    
   6.50000000       2.50000000       1.69999766      0.916816354       5.30199957    
   6.50000000       2.50000000       4.99999523     -0.139462158       5.49999952    
   6.50000000       2.50000000       14.1000156       1.31145549       6.04600096    
   7.50000000       2.50000000      -1.00000262     -0.990266621       5.19999981    
   7.50000000       2.50000000       1.09999752     -0.981789351       5.26599979    
   7.50000000       2.50000000       5.79999447      0.601105809       5.54799986    
   8.50000000       2.50000000     -0.700002551      0.219655722       5.19999981    
   8.50000000       2.50000000       6.19999409     -0.945524931       5.57199955    
   9.50000000       2.50000000       5.39999485      -8.42936151E-03   5.52399969    
  -1.50000000       3.50000000       4.29999590      0.127547383       5.45799971    
 -0.500000000       3.50000000       2.69999719     -0.591895223       5.36199951    
  0.500000000       3.50000000      0.899997532     -0.367373586       5.25399971    
  0.500000000       3.50000000       3.89999604       1.34307122       5.43399954    
   1.50000000       3.50000000     -0.300002515      0.123004690       5.19999981    
   1.50000000       3.50000000       1.69999766      -2.02112496E-02   5.30199957    
   1.50000000       3.50000000       4.49999571      0.684605241       5.46999979    
   2.50000000       3.50000000       9.99974832E-02 -0.164694741       5.20599985    
   2.50000000       3.50000000       2.09999776      0.530922115       5.32599974    
   2.50000000       3.50000000       4.49999571      0.448102921       5.46999979    
   3.50000000       3.50000000      0.199997485      0.750300884       5.21199989    
   3.50000000       3.50000000       2.19999766     -0.681392193       5.33199978    
   3.50000000       3.50000000       4.79999542      0.535309017       5.48799992    
   4.50000000       3.50000000      0.799997509       1.65271556       5.24799967    
   4.50000000       3.50000000       3.89999604      0.207568020       5.43399954    
   4.50000000       3.50000000       7.29999304     -0.855593204       5.63799953    
   5.50000000       3.50000000       2.19999766       1.30082464       5.33199978    
   6.50000000       3.50000000       2.99999690      0.286039948       5.37999964    
   7.50000000       3.50000000     -0.500002503      -1.11515021       5.19999981    
   7.50000000       3.50000000       2.19999766      0.283771694       5.33199978    
   7.50000000       3.50000000       6.09999418       1.10839140       5.56599951    
   8.50000000       3.50000000      -1.60000277      -1.63874745       5.19999981    
   8.50000000       3.50000000      0.399997473      0.789625585       5.22399950    
   9.50000000       3.50000000      -1.50000274       2.23292756       5.19999981    
   9.50000000       3.50000000       7.69999266     -0.166107759       5.66199970    
   10.5000000       3.50000000       7.69999266      0.124650836       5.66199970    
  -1.50000000       4.50000000       4.79999542      -7.81567544E-02   5.48799992    
 -0.500000000       4.50000000       3.29999661      0.589633763       5.39799976    
  0.500000000       4.50000000       1.29999757     -0.632053196       5.27799988    
  0.500000000       4.50000000       3.89999604       1.25279784       5.43399954    
  0.500000000       4.50000000       5.99999428     -0.227940381       5.55999947    
   1.50000000       4.50000000     -0.400002509     -0.208665490       5.19999981    
   1.50000000       4.50000000       1.59999764     -0.205233678       5.29599953    
   1.50000000       4.50000000       4.29999590      0.886286736       5.45799971    
   1.50000000       4.50000000       7.09999323      0.185450241       5.62599945    
   2.50000000       4.50000000     -0.600002527     -0.202905670       5.19999981    
   2.50000000       4.50000000       2.39999747      -7.87106007E-02   5.34399986    
   2.50000000       4.50000000       4.49999571      0.703126311       5.46999979    
   3.50000000       4.50000000     -0.300002515     -0.346175611       5.19999981    
   3.50000000       4.50000000       1.69999766      0.211436450       5.30199957    
   3.50000000       4.50000000       5.09999514      0.215901852       5.50599957    
   4.50000000       4.50000000      0.499997467      0.661611855       5.22999954    
   4.50000000       4.50000000       4.39999580     -0.536871195       5.46399975    
   5.50000000       4.50000000       1.79999769      -6.10919930E-02   5.30799961    
   6.50000000       4.50000000       3.49999642     -0.114405394       5.40999985    
 -0.500000000       5.50000000       4.69999552      0.870071769       5.48199987    
  0.500000000       5.50000000       2.19999766      0.128813684       5.33199978    
  0.500000000       5.50000000       4.69999552     -0.338941514       5.48199987    
   1.50000000       5.50000000     -0.100002520      -1.07502115       5.19999981    
   1.50000000       5.50000000       1.89999771       1.53148603       5.31399965    
   2.50000000       5.50000000     -0.800002575     -0.541391492       5.19999981    
   2.50000000       5.50000000       2.19999766       1.02165365       5.33199978    
   3.50000000       5.50000000     -0.600002527     -0.239314407       5.19999981    
   3.50000000       5.50000000       2.39999747     -0.345356762       5.34399986    
   3.50000000       5.50000000       13.1000118     -0.454950184       5.98600101    
   4.50000000       5.50000000      0.299997479      0.114105105       5.21799946    
   4.50000000       5.50000000       6.79999352       9.61609259E-02   5.60799980    
   5.50000000       5.50000000       1.39999759      0.594285607       5.28399992    
   5.50000000       5.50000000       4.99999523       3.19449753E-02   5.49999952    
   1.50000000       6.50000000      0.599997461     -0.387073636       5.23599958    
   1.50000000       6.50000000       4.09999609      0.457911253       5.44599962    
   2.50000000       6.50000000     -0.800002575     -0.136873022       5.19999981    
   2.50000000       6.50000000       6.79999352      0.311069131       5.60799980    
   3.50000000       6.50000000     -0.800002575     -0.742658138       5.19999981    
   3.50000000       6.50000000       6.69999361      0.105159596       5.60199976    
   4.50000000       6.50000000     -0.200002521      0.976201773       5.19999981    
   4.50000000       6.50000000       1.99999774     -0.197724417       5.31999969    
   4.50000000       6.50000000       8.09999275       6.56788051E-02   5.68599987    
   5.50000000       6.50000000       2.49999738      -8.86467099E-03   5.34999990    
   1.50000000       7.50000000       2.29999757      0.343357563       5.33799982    
   2.50000000       7.50000000     -0.600002527     -0.953115642       5.19999981    
   2.50000000       7.50000000       1.49999762      0.649270177       5.28999996    
   3.50000000       7.50000000     -0.900002599     -0.908756971       5.19999981    
   3.50000000       7.50000000       1.29999757       1.09410062E-02   5.27799988    
   4.50000000       7.50000000     -0.500002503       2.02195549       5.19999981    
   4.50000000       7.50000000       1.69999766      0.437808484       5.30199957    
   4.50000000       7.50000000       9.09999657      -1.37202591E-02   5.74599981    
   2.50000000       8.50000000     -0.100002520     -0.558859408       5.19999981    
   2.50000000       8.50000000       4.49999571      0.130695090       5.46999979    
   3.50000000       8.50000000      -1.70000279     -0.571898103       5.19999981    
   3.50000000       8.50000000      0.299997479     -0.437060893       5.21799946    
   4.50000000       8.50000000     -0.400002509       1.92280149       5.19999981    
   4.50000000       8.50000000       3.39999652      0.134170786       5.40399981    
 -0.500000000       9.50000000       8.39999390       1.01030910       5.70399952    
  0.500000000       9.50000000       9.59999847     -0.854330122       5.77600002    
   2.50000000       9.50000000       1.49999762     -0.336437941       5.28999996    
   3.50000000       9.50000000       9.99974832E-02  0.329149365       5.20599985    
 -0.500000000       10.5000000       9.29999733      0.211163491       5.75799990    
  0.500000000       10.5000000       8.79999542     -0.103438750       5.72799969    
   1.50000000       10.5000000       7.79999256      0.942032933       5.66799974    
  -1.50000000       11.5000000       5.89999437      0.261290282       5.55399990    
  -1.50000000       11.5000000       10.6000023       8.21768045E-02   5.83600044    
 -0.500000000       11.5000000       5.79999447       1.12147224       5.54799986    
 -0.500000000       11.5000000       10.4000015      0.431708157       5.82400036    
   3.50000000       12.5000000       10.8000031      0.693336606       5.84800053    
   3.50000000       12.5000000       13.0000114      -6.98931292E-02   5.98000097    
