   2.50000000      -16.5000000       13.9000149      0.252720416       3.44800043    
   3.50000000      -16.5000000       12.8000107      0.219627529       3.41028619    
   3.50000000      -16.5000000       15.1000195       5.00070043E-02   3.48914361    
   4.50000000      -16.5000000       12.9000111       6.09948039E-02   3.41371465    
   8.50000000      -16.5000000       12.1000080      0.651715159       3.38628602    
   2.50000000      -15.5000000       13.8000145      -1.72830056E-02   3.44457197    
   3.50000000      -15.5000000       12.1000080      0.168027267       3.38628602    
   4.50000000      -15.5000000       12.2000084     -0.135729238       3.38971472    
   6.50000000      -15.5000000       13.1000118     -0.261570036       3.42057180    
   7.50000000      -15.5000000       11.5000057       1.61144808E-02   3.36571455    
   8.50000000      -15.5000000       12.5000095      0.168041497       3.40000033    
   1.50000000      -14.5000000       14.5000172      0.403724730       3.46857214    
   2.50000000      -14.5000000       11.4000053      0.137153968       3.36228585    
   2.50000000      -14.5000000       14.2000160      0.122593813       3.45828629    
   3.50000000      -14.5000000       11.2000046     -0.215503365       3.35542870    
   3.50000000      -14.5000000       13.4000130       7.30456859E-02   3.43085766    
   4.50000000      -14.5000000       10.4000015     -0.198773131       3.32800007    
   5.50000000      -14.5000000       12.7000103      -5.45822568E-02   3.40685749    
   6.50000000      -14.5000000       10.2000008     -0.224250183       3.32114291    
   7.50000000      -14.5000000       11.2000046       7.82715380E-02   3.35542870    
   7.50000000      -14.5000000       13.3000126      -8.77318233E-02   3.42742896    
   8.50000000      -14.5000000       12.5000095      0.520484686       3.40000033    
   1.50000000      -13.5000000       12.5000095      0.652673602       3.40000033    
   1.50000000      -13.5000000       14.7000179      -5.00695780E-02   3.47542930    
   2.50000000      -13.5000000       7.99999237      -1.78597104E-02   3.24571395    
   2.50000000      -13.5000000       10.0000000       3.84977162E-02   3.31428576    
   2.50000000      -13.5000000       12.1000080      0.256346077       3.38628602    
   3.50000000      -13.5000000       11.2000046     -0.206217319       3.35542870    
   4.50000000      -13.5000000       10.4000015     -0.169822201       3.32800007    
   5.50000000      -13.5000000       7.69999266      -7.77989700E-02   3.23542833    
   5.50000000      -13.5000000       9.79999924      0.243605852       3.30742860    
   5.50000000      -13.5000000       11.9000072     -0.325316817       3.37942886    
   6.50000000      -13.5000000       9.89999962      0.216253787       3.31085706    
   6.50000000      -13.5000000       12.7000103     -0.317257434       3.40685749    
   7.50000000      -13.5000000       10.4000015      0.332648456       3.32800007    
   7.50000000      -13.5000000       12.4000092     -0.269789159       3.39657187    
   8.50000000      -13.5000000       12.6000099      0.335589081       3.40342903    
   9.50000000      -13.5000000       14.8000183     -0.361227214       3.47885776    
   1.50000000      -12.5000000       8.79999542      0.670607507       3.27314281    
   1.50000000      -12.5000000       12.0000076      0.266586214       3.38285732    
   1.50000000      -12.5000000       14.1000156     -0.147125095       3.45485783    
   2.50000000      -12.5000000       5.79999447      -9.94326472E-02   3.17028546    
   2.50000000      -12.5000000       8.09999275      -2.72221006E-02   3.24914265    
   2.50000000      -12.5000000       10.9000034      0.257812917       3.34514308    
   3.50000000      -12.5000000       8.99999619     -0.260922015       3.27999997    
   3.50000000      -12.5000000       12.8000107      0.226471335       3.41028619    
   4.50000000      -12.5000000       5.79999447       6.67849556E-04   3.17028546    
   4.50000000      -12.5000000       8.89999580       5.50018176E-02   3.27657127    
   4.50000000      -12.5000000       11.0000038     -0.208765909       3.34857154    
   5.50000000      -12.5000000       8.99999619      0.327787131       3.27999997    
   5.50000000      -12.5000000       11.7000065     -0.657606900       3.37257171    
   6.50000000      -12.5000000       9.49999809      0.306739628       3.29714274    
   6.50000000      -12.5000000       11.7000065     -0.105183169       3.37257171    
   7.50000000      -12.5000000       9.69999886      0.131522015       3.30399990    
   7.50000000      -12.5000000       11.9000072     -0.116391569       3.37942886    
   8.50000000      -12.5000000       12.2000084     -0.129829153       3.38971472    
   8.50000000      -12.5000000       14.3000164      -2.32994147E-02   3.46171498    
   9.50000000      -12.5000000       14.4000168     -0.304113567       3.46514344    
 -0.500000000      -11.5000000       8.29999352      0.465899467       3.25599980    
  0.500000000      -11.5000000       9.19999695     -0.107602663       3.28685713    
   1.50000000      -11.5000000       3.99999595      -1.76868718E-02   3.10857129    
   1.50000000      -11.5000000       11.3000050       8.44145790E-02   3.35885739    
   1.50000000      -11.5000000       13.3000126       5.80968000E-02   3.42742896    
   2.50000000      -11.5000000       2.89999700      0.338522375       3.07085681    
   2.50000000      -11.5000000       5.09999514     -0.447745085       3.14628553    
   2.50000000      -11.5000000       8.79999542      0.363083869       3.27314281    
   2.50000000      -11.5000000       12.1000080      0.301464379       3.38628602    
   3.50000000      -11.5000000       3.39999652      -6.04621097E-02   3.08799982    
   3.50000000      -11.5000000       7.99999237     -0.216700554       3.24571395    
   3.50000000      -11.5000000       10.0000000      0.106665760       3.31428576    
   3.50000000      -11.5000000       12.4000092       6.07855618E-03   3.39657187    
   4.50000000      -11.5000000       6.79999352      -5.05591072E-02   3.20457125    
   4.50000000      -11.5000000       8.89999580      -7.61344880E-02   3.27657127    
   4.50000000      -11.5000000       13.5000134     -0.461492062       3.43428612    
   5.50000000      -11.5000000       7.79999256      0.214200601       3.23885679    
   5.50000000      -11.5000000       10.2000008     -0.204872817       3.32114291    
   6.50000000      -11.5000000       8.59999466      0.328428328       3.26628542    
   6.50000000      -11.5000000       12.2000084      0.408147722       3.38971472    
   7.50000000      -11.5000000       8.99999619     -0.151635051       3.27999997    
   7.50000000      -11.5000000       11.5000057      -8.62706304E-02   3.36571455    
   8.50000000      -11.5000000       11.9000072       6.52191043E-02   3.37942886    
   8.50000000      -11.5000000       14.0000153     -0.139926791       3.45142913    
   9.50000000      -11.5000000       13.8000145     -0.507911742       3.44457197    
  0.500000000      -10.5000000       3.29999661      -3.65684703E-02   3.08457112    
  0.500000000      -10.5000000       7.39999294     -0.231506631       3.22514248    
  0.500000000      -10.5000000       9.89999962      -8.72287899E-03   3.31085706    
   1.50000000      -10.5000000      0.999997556      0.108602688       3.00571394    
   1.50000000      -10.5000000       3.09999681     -0.155677721       3.07771397    
   1.50000000      -10.5000000       8.49999428       3.82909924E-03   3.26285696    
   1.50000000      -10.5000000       10.9000034      -9.03707743E-03   3.34514308    
   1.50000000      -10.5000000       15.0000191       7.25981407E-03   3.48571491    
   2.50000000      -10.5000000      0.999997556      0.171599925       3.00571394    
   2.50000000      -10.5000000       3.49999642     -0.270223349       3.09142828    
   2.50000000      -10.5000000       6.49999380      0.350028276       3.19428539    
   2.50000000      -10.5000000       10.5000019      0.174102843       3.33142877    
   2.50000000      -10.5000000       12.6000099      0.266372085       3.40342903    
   3.50000000      -10.5000000       4.69999552     -0.255412817       3.13257122    
   3.50000000      -10.5000000       7.29999304     -0.169981182       3.22171402    
   3.50000000      -10.5000000       9.29999733      -1.21222530E-02   3.29028559    
   3.50000000      -10.5000000       11.5000057     -0.352459908       3.36571455    
   4.50000000      -10.5000000       7.19999313      0.351461709       3.21828556    
   4.50000000      -10.5000000       10.2000008     -0.220875531       3.32114291    
   4.50000000      -10.5000000       13.8000145     -0.297130942       3.44457197    
   5.50000000      -10.5000000       5.99999428       6.39439002E-02   3.17714262    
   5.50000000      -10.5000000       9.29999733       9.37306583E-02   3.29028559    
   5.50000000      -10.5000000       12.4000092      0.100855380       3.39657187    
   6.50000000      -10.5000000       7.99999237      0.142385453       3.24571395    
   6.50000000      -10.5000000       11.3000050      0.544794798       3.35885739    
   7.50000000      -10.5000000       8.29999352     -0.150584325       3.25599980    
   7.50000000      -10.5000000       10.5000019      -6.10782243E-02   3.33142877    
   7.50000000      -10.5000000       13.3000126      0.103385635       3.42742896    
   8.50000000      -10.5000000       11.0000038      0.172143131       3.34857154    
   8.50000000      -10.5000000       13.8000145      -4.43825498E-02   3.44457197    
   9.50000000      -10.5000000       12.6000099     -0.953724623       3.40342903    
  0.500000000      -9.50000000     -0.400002509      0.243830800       2.97142839    
  0.500000000      -9.50000000       6.59999371      0.166947365       3.19771409    
  0.500000000      -9.50000000       10.8000031     -0.526627958       3.34171438    
   1.50000000      -9.50000000      -1.60000277      -1.98247824E-02   2.97142839    
   1.50000000      -9.50000000      0.399997473      0.183860347       2.98514271    
   1.50000000      -9.50000000       9.69999886      0.522539794       3.30399990    
   2.50000000      -9.50000000     -0.200002521      -1.81632489E-03   2.97142839    
   2.50000000      -9.50000000       3.39999652      0.315476835       3.08799982    
   2.50000000      -9.50000000       7.29999304      0.430494517       3.22171402    
   2.50000000      -9.50000000       10.3000011      -6.66608885E-02   3.32457161    
   2.50000000      -9.50000000       13.2000122      0.123571381       3.42400050    
   3.50000000      -9.50000000       8.69999504      -4.31057215E-02   3.26971412    
   4.50000000      -9.50000000       9.39999771     -0.207993120       3.29371428    
   5.50000000      -9.50000000       6.79999352       7.37214014E-02   3.20457125    
   6.50000000      -9.50000000       9.79999924      0.319183886       3.30742860    
   7.50000000      -9.50000000       10.3000011      -1.00325847       3.32457161    
  0.500000000      -8.50000000     -0.400002509     -0.857731342       2.97142839    
  0.500000000      -8.50000000       1.59999764       9.35336947E-02   3.02628541    
  0.500000000      -8.50000000       4.29999590      0.361408025       3.11885691    
  0.500000000      -8.50000000       8.09999275      0.255302757       3.24914265    
   1.50000000      -8.50000000     -0.900002599       3.35447639E-02   2.97142839    
   1.50000000      -8.50000000       6.29999399     -0.641257107       3.18742824    
   2.50000000      -8.50000000     -0.600002527     -0.187714592       2.97142839    
   2.50000000      -8.50000000       4.19999599      0.944186032       3.11542845    
   2.50000000      -8.50000000       9.39999771     -0.205778152       3.29371428    
   3.50000000      -8.50000000       1.89999771      0.247622654       3.03657126    
   3.50000000      -8.50000000       8.29999352     -0.211227849       3.25599980    
   4.50000000      -8.50000000       6.19999409      -5.68917356E-02   3.18399978    
   6.50000000      -8.50000000       9.39999771      0.268623650       3.29371428    
 -0.500000000      -7.50000000       2.49999738     -0.617979765       3.05714273    
  0.500000000      -7.50000000     -0.400002509       1.58698833       2.97142839    
  0.500000000      -7.50000000       1.59999764     -0.432098031       3.02628541    
  0.500000000      -7.50000000       7.49999285       4.85373735E-02   3.22857118    
   1.50000000      -7.50000000     -0.800002575     -0.310789347       2.97142839    
   1.50000000      -7.50000000       3.19999671      0.456647128       3.08114266    
   1.50000000      -7.50000000       9.89999962     -0.636680961       3.31085706    
   2.50000000      -7.50000000     -0.500002503      0.415747136       2.97142839    
   2.50000000      -7.50000000       3.09999681      0.807447910       3.07771397    
   2.50000000      -7.50000000       7.09999323     -0.226335764       3.21485686    
   2.50000000      -7.50000000       10.8000031     -0.800147295       3.34171438    
   3.50000000      -7.50000000      0.399997473     -0.868602514       2.98514271    
   3.50000000      -7.50000000       2.79999709      0.474675387       3.06742835    
   3.50000000      -7.50000000       6.89999342     -0.665555239       3.20799971    
   3.50000000      -7.50000000       10.5000019      0.147175148       3.33142877    
   4.50000000      -7.50000000       3.49999642     -0.576389134       3.09142828    
   4.50000000      -7.50000000       6.99999332      0.226888299       3.21142840    
   5.50000000      -7.50000000       5.69999456     -0.463335752       3.16685700    
   6.50000000      -7.50000000       6.79999352       7.84946084E-02   3.20457125    
  -1.50000000      -6.50000000       4.19999599      0.215836138       3.11542845    
 -0.500000000      -6.50000000       1.69999766       1.09541249       3.02971411    
 -0.500000000      -6.50000000       5.19999504      0.349148363       3.14971399    
  0.500000000      -6.50000000      0.199997485      0.117163837       2.97828555    
  0.500000000      -6.50000000       2.19999766     -0.243457288       3.04685688    
  0.500000000      -6.50000000       4.59999561      0.385648459       3.12914252    
  0.500000000      -6.50000000       8.69999504      -7.88100958E-02   3.26971412    
   1.50000000      -6.50000000     -0.600002527     -0.460261345       2.97142839    
   1.50000000      -6.50000000       2.39999747      0.843530834       3.05371404    
   1.50000000      -6.50000000       6.59999371      0.628312051       3.19771409    
   2.50000000      -6.50000000     -0.200002521       1.32473159       2.97142839    
   2.50000000      -6.50000000       1.79999769     -0.166608185       3.03314257    
   2.50000000      -6.50000000       7.39999294     -0.782101452       3.22514248    
   3.50000000      -6.50000000      0.599997461       5.40677458E-03   2.99199986    
   3.50000000      -6.50000000       5.59999466     -0.410995185       3.16342831    
   3.50000000      -6.50000000       10.8000031      0.422215521       3.34171438    
   4.50000000      -6.50000000       1.39999759     -0.333686978       3.01942825    
   4.50000000      -6.50000000       7.09999323      0.357414275       3.21485686    
   5.50000000      -6.50000000       5.09999514     -0.115105525       3.14628553    
   6.50000000      -6.50000000       6.49999380     -0.172757804       3.19428539    
  -1.50000000      -5.50000000       4.59999561      0.851240635       3.12914252    
 -0.500000000      -5.50000000       1.19999754      0.529581666       3.01257110    
 -0.500000000      -5.50000000       5.09999514       8.14221874E-02   3.14628553    
  0.500000000      -5.50000000      0.299997479      0.918213487       2.98171401    
  0.500000000      -5.50000000       3.29999661     -0.441958815       3.08457112    
  0.500000000      -5.50000000       5.69999456       3.41461077E-02   3.16685700    
  0.500000000      -5.50000000       8.19999313      -1.56254649       3.25257111    
   1.50000000      -5.50000000     -0.500002503     -0.472907066       2.97142839    
   1.50000000      -5.50000000       2.49999738       1.16274691       3.05714273    
   1.50000000      -5.50000000       6.29999399     -0.154680133       3.18742824    
   2.50000000      -5.50000000      -1.00000262       1.71132147       2.97142839    
   2.50000000      -5.50000000      0.999997556     -0.744287491       3.00571394    
   2.50000000      -5.50000000       6.09999418      -7.83574283E-02   3.18057108    
   3.50000000      -5.50000000     -0.200002521     -0.369262844       2.97142839    
   3.50000000      -5.50000000       1.79999769      0.751875460       3.03314257    
   3.50000000      -5.50000000       3.99999595     -0.579135180       3.10857129    
   3.50000000      -5.50000000       8.09999275       4.63876277E-02   3.24914265    
   4.50000000      -5.50000000       1.69999766     -0.639741659       3.02971411    
   4.50000000      -5.50000000       4.09999609     -0.415248066       3.11199975    
   4.50000000      -5.50000000       6.79999352       1.32557726       3.20457125    
   4.50000000      -5.50000000       9.49999809      -1.22643352       3.29714274    
   5.50000000      -5.50000000       1.99999774      0.352375835       3.03999972    
   5.50000000      -5.50000000       6.79999352      0.137476802       3.20457125    
   6.50000000      -5.50000000       3.59999633       1.95675939E-02   3.09485698    
   6.50000000      -5.50000000       6.59999371      0.142007366       3.19771409    
   7.50000000      -5.50000000       8.19999313       4.06294614E-02   3.25257111    
  -1.50000000      -4.50000000       3.79999614      0.749712050       3.10171413    
 -0.500000000      -4.50000000       1.89999771     -0.973187566       3.03657126    
 -0.500000000      -4.50000000       5.09999514     -0.119326800       3.14628553    
  0.500000000      -4.50000000      0.699997485       1.86874151       2.99542832    
  0.500000000      -4.50000000       3.79999614      0.332594573       3.10171413    
  0.500000000      -4.50000000       5.99999428     -0.401702732       3.17714262    
   1.50000000      -4.50000000      -1.00000262       1.34764338       2.97142839    
   1.50000000      -4.50000000      0.999997556      -2.43432879       3.00571394    
   1.50000000      -4.50000000       3.99999595      0.725267887       3.10857129    
   1.50000000      -4.50000000       6.39999390     -0.533680081       3.19085693    
   2.50000000      -4.50000000      -1.80000281     -0.665183425       2.97142839    
   2.50000000      -4.50000000      0.199997485      0.590358615       2.97828555    
   2.50000000      -4.50000000       2.19999766      -1.47147799       3.04685688    
   2.50000000      -4.50000000       5.99999428      0.499333680       3.17714262    
   3.50000000      -4.50000000      -1.00000262      0.167823896       2.97142839    
   3.50000000      -4.50000000      0.999997556      0.597167671       3.00571394    
   3.50000000      -4.50000000       3.99999595      0.335424781       3.10857129    
   3.50000000      -4.50000000       7.29999304     -0.390594333       3.22171402    
   4.50000000      -4.50000000       1.59999764      0.347407103       3.02628541    
   4.50000000      -4.50000000       6.19999409     -0.259108245       3.18399978    
   5.50000000      -4.50000000       2.39999747     -0.171533614       3.05371404    
   5.50000000      -4.50000000       4.69999552      0.328898549       3.13257122    
   6.50000000      -4.50000000       3.29999661      -2.37552673E-02   3.08457112    
  -1.50000000      -3.50000000       1.49999762      -1.05189395       3.02285695    
 -0.500000000      -3.50000000       1.39999759      0.447797239       3.01942825    
 -0.500000000      -3.50000000       3.49999642     -0.763065577       3.09142828    
 -0.500000000      -3.50000000       5.59999466     -0.210412160       3.16342831    
  0.500000000      -3.50000000      0.599997461       1.38646579       2.99199986    
  0.500000000      -3.50000000       3.59999633     -0.117161244       3.09485698    
  0.500000000      -3.50000000       7.59999275     -0.412146509       3.23199964    
   1.50000000      -3.50000000     -0.800002575      0.163117722       2.97142839    
   1.50000000      -3.50000000       2.19999766      0.883321106       3.04685688    
   1.50000000      -3.50000000       5.59999466      0.191349670       3.16342831    
   2.50000000      -3.50000000      -1.60000277      -1.94708622       2.97142839    
   2.50000000      -3.50000000      0.399997473       1.28833163       2.98514271    
   2.50000000      -3.50000000       3.39999652      0.485925227       3.08799982    
   3.50000000      -3.50000000     -0.800002575      0.236310095       2.97142839    
   3.50000000      -3.50000000       2.19999766       8.55654776E-02   3.04685688    
   3.50000000      -3.50000000       4.29999590      0.109638996       3.11885691    
   3.50000000      -3.50000000       10.7000027     -0.200186536       3.33828592    
   4.50000000      -3.50000000      0.299997479      0.516192198       2.98171401    
   4.50000000      -3.50000000       3.29999661       4.34981138E-02   3.08457112    
   4.50000000      -3.50000000       8.19999313      -1.19034648       3.25257111    
   5.50000000      -3.50000000       1.39999759      0.222102761       3.01942825    
   5.50000000      -3.50000000       4.89999533      -1.25544107       3.13942838    
   6.50000000      -3.50000000       2.69999719      0.804570377       3.06399989    
  -2.50000000      -2.50000000     -0.900002599      0.148861259       2.97142839    
  -2.50000000      -2.50000000       2.19999766     -0.331532091       3.04685688    
  -1.50000000      -2.50000000     -0.900002599     -0.970568776       2.97142839    
  -1.50000000      -2.50000000       1.19999754      0.127760619       3.01257110    
  -1.50000000      -2.50000000       5.19999504      0.256863594       3.14971399    
 -0.500000000      -2.50000000     -0.300002515      -1.45736217       2.97142839    
 -0.500000000      -2.50000000       1.69999766      0.289073110       3.02971411    
 -0.500000000      -2.50000000       4.89999533      0.394189060       3.13942838    
  0.500000000      -2.50000000      0.399997473      0.129812539       2.98514271    
  0.500000000      -2.50000000       3.39999652     -0.168673769       3.08799982    
   1.50000000      -2.50000000     -0.500002503       1.40967429       2.97142839    
   1.50000000      -2.50000000       2.49999738       1.55026484       3.05714273    
   1.50000000      -2.50000000       4.59999561      -2.08615804       3.12914252    
   2.50000000      -2.50000000     -0.800002575     -0.456146955       2.97142839    
   2.50000000      -2.50000000       2.19999766       4.73779440E-02   3.04685688    
   2.50000000      -2.50000000       7.79999256     -0.601969779       3.23885679    
   3.50000000      -2.50000000     -0.400002509       2.23079300       2.97142839    
   3.50000000      -2.50000000       1.59999764     -0.566942275       3.02628541    
   3.50000000      -2.50000000       4.89999533      0.310577333       3.13942838    
   4.50000000      -2.50000000     -0.600002527       1.18782508       2.97142839    
   4.50000000      -2.50000000       2.39999747     -0.761336088       3.05371404    
   4.50000000      -2.50000000       4.59999561      0.673690915       3.12914252    
   4.50000000      -2.50000000       7.39999294     -0.880236983       3.22514248    
   5.50000000      -2.50000000     -0.900002599      0.987008095       2.97142839    
   5.50000000      -2.50000000       1.19999754      0.520390570       3.01257110    
   5.50000000      -2.50000000       3.39999652      0.175349295       3.08799982    
   5.50000000      -2.50000000       8.89999580     -0.736837626       3.27657127    
   6.50000000      -2.50000000       1.49999762      0.533540010       3.02285695    
   6.50000000      -2.50000000       4.29999590     -0.596076012       3.11885691    
   7.50000000      -2.50000000       4.09999609      0.490446985       3.11199975    
  -2.50000000      -1.50000000      -1.50000274       1.01056039       2.97142839    
  -1.50000000      -1.50000000      -1.30000269      -2.02272940       2.97142839    
  -1.50000000      -1.50000000      0.699997485      0.861605346       2.99542832    
  -1.50000000      -1.50000000       5.59999466     -0.180352360       3.16342831    
 -0.500000000      -1.50000000     -0.400002509      -3.02280498       2.97142839    
 -0.500000000      -1.50000000       1.59999764       2.76157260E-02   3.02628541    
  0.500000000      -1.50000000      0.299997479      0.970519543       2.98171401    
  0.500000000      -1.50000000       3.39999652     -0.401093364       3.08799982    
   1.50000000      -1.50000000      -2.20000267      0.139152378       2.97142839    
   1.50000000      -1.50000000     -0.100002520     -0.880026758       2.97142839    
   1.50000000      -1.50000000       1.89999771      -1.51988339       3.03657126    
   1.50000000      -1.50000000       3.99999595      -4.32325378E-02   3.10857129    
   2.50000000      -1.50000000     -0.400002509       1.40528691       2.97142839    
   2.50000000      -1.50000000       1.59999764       1.28713036       3.02628541    
   2.50000000      -1.50000000       4.69999552     -0.346852869       3.13257122    
   3.50000000      -1.50000000     -0.300002515      0.940522790       2.97142839    
   3.50000000      -1.50000000       1.69999766       1.92551827       3.02971411    
   3.50000000      -1.50000000       4.99999523      0.117659524       3.14285684    
   4.50000000      -1.50000000     -0.900002599      0.399008393       2.97142839    
   4.50000000      -1.50000000       2.09999776      0.943520427       3.04342842    
   4.50000000      -1.50000000       5.59999466     -0.150731400       3.16342831    
   5.50000000      -1.50000000      -1.70000279     -0.413341314       2.97142839    
   5.50000000      -1.50000000      0.299997479      0.666382074       2.98171401    
   5.50000000      -1.50000000       2.59999728      0.165542737       3.06057119    
   6.50000000      -1.50000000     -0.900002599      -1.00258541       2.97142839    
   6.50000000      -1.50000000       1.39999759       2.40271669E-02   3.01942825    
   6.50000000      -1.50000000       4.59999561     -0.125490785       3.12914252    
   6.50000000      -1.50000000       7.79999256      0.503526330       3.23885679    
   7.50000000      -1.50000000       3.59999633       2.91773081E-02   3.09485698    
  -2.50000000     -0.500000000       2.99999690     -0.462796420       3.07428551    
  -1.50000000     -0.500000000     -0.100002520       1.80653739       2.97142839    
  -1.50000000     -0.500000000       3.49999642      0.932961583       3.09142828    
 -0.500000000     -0.500000000      0.199997485      0.733477890       2.97828555    
 -0.500000000     -0.500000000       2.19999766      0.929435492       3.04685688    
 -0.500000000     -0.500000000       12.0000076     -0.298276335       3.38285732    
  0.500000000     -0.500000000      0.399997473       2.11281276       2.98514271    
  0.500000000     -0.500000000       3.39999652       1.44975615       3.08799982    
   1.50000000     -0.500000000     -0.800002575     -0.387279689       2.97142839    
   1.50000000     -0.500000000       2.19999766      0.511588454       3.04685688    
   1.50000000     -0.500000000       5.19999504       1.90912390       3.14971399    
   2.50000000     -0.500000000     -0.400002509       1.13953733       2.97142839    
   2.50000000     -0.500000000       1.59999764      -8.34608078E-03   3.02628541    
   2.50000000     -0.500000000       4.59999561      0.175032929       3.12914252    
   3.50000000     -0.500000000     -0.300002515       1.27783251       2.97142839    
   3.50000000     -0.500000000       1.69999766       3.91542614E-02   3.02971411    
   3.50000000     -0.500000000       4.69999552      0.871089816       3.13257122    
   4.50000000     -0.500000000     -0.600002527      0.477577984       2.97142839    
   4.50000000     -0.500000000       2.39999747      0.136368394       3.05371404    
   4.50000000     -0.500000000       5.39999485       1.14322865       3.15657115    
   4.50000000     -0.500000000       7.99999237     -0.858598948       3.24571395    
   5.50000000     -0.500000000     -0.700002551     -0.656295598       2.97142839    
   5.50000000     -0.500000000       2.29999757     -0.628719747       3.05028558    
   5.50000000     -0.500000000       5.29999495      0.834949553       3.15314269    
   6.50000000     -0.500000000     -0.100002520     -0.492046058       2.97142839    
   6.50000000     -0.500000000       1.89999771      -7.12485090E-02   3.03657126    
   6.50000000     -0.500000000       4.99999523      0.125854552       3.14285684    
   7.50000000     -0.500000000       1.19999754      0.586005330       3.01257110    
   7.50000000     -0.500000000       5.39999485     -0.298294663       3.15657115    
   8.50000000     -0.500000000       3.69999623     -0.102361120       3.09828544    
  -3.50000000      0.500000000       3.29999661      0.185196653       3.08457112    
  -2.50000000      0.500000000       2.99999690     -0.656643569       3.07428551    
  -1.50000000      0.500000000       1.69999766      -1.54255891       3.02971411    
 -0.500000000      0.500000000       1.09999752      -1.50900424       3.00914264    
 -0.500000000      0.500000000       4.59999561      -1.37290740       3.12914252    
  0.500000000      0.500000000      0.799997509      -1.28251672       2.99885678    
  0.500000000      0.500000000       3.79999614      0.703488350       3.10171413    
   1.50000000      0.500000000      0.299997479       1.40483785       2.98171401    
   1.50000000      0.500000000       3.29999661     -0.390700907       3.08457112    
   2.50000000      0.500000000     -0.700002551       1.45001888       2.97142839    
   2.50000000      0.500000000       2.29999757      0.754587054       3.05028558    
   2.50000000      0.500000000       5.29999495      0.561633706       3.15314269    
   2.50000000      0.500000000       7.79999256      -1.60794020       3.23885679    
   3.50000000      0.500000000     -0.400002509      0.809216022       2.97142839    
   3.50000000      0.500000000       1.59999764       1.03877223       3.02628541    
   3.50000000      0.500000000       4.59999561     -0.840363920       3.12914252    
   3.50000000      0.500000000       8.69999504     -0.268277913       3.26971412    
   4.50000000      0.500000000      -2.51829624E-06   1.50842750       2.97142839    
   4.50000000      0.500000000       1.99999774      0.116959348       3.03999972    
   4.50000000      0.500000000       4.99999523     -0.199828401       3.14285684    
   5.50000000      0.500000000      0.299997479      0.773303628       2.98171401    
   5.50000000      0.500000000       3.29999661      0.375535756       3.08457112    
   5.50000000      0.500000000       6.29999399     -0.937628865       3.18742824    
   6.50000000      0.500000000       1.49999762      0.198450357       3.02285695    
   6.50000000      0.500000000       3.69999623      0.369981796       3.09828544    
   7.50000000      0.500000000       2.39999747       1.22347713       3.05371404    
   7.50000000      0.500000000       5.49999475      0.501500487       3.15999985    
   8.50000000      0.500000000       2.69999719      -6.25993162E-02   3.06399989    
   8.50000000      0.500000000       4.79999542      0.936367750       3.13599968    
   9.50000000      0.500000000       4.39999580      0.183002144       3.12228537    
  -3.50000000       1.50000000       2.99999690      0.436359286       3.07428551    
  -2.50000000       1.50000000       3.29999661       1.96359575       3.08457112    
  -1.50000000       1.50000000       1.89999771      0.736059904       3.03657126    
  -1.50000000       1.50000000       4.49999571      0.647688866       3.12571406    
 -0.500000000       1.50000000       1.59999764       1.18418050       3.02628541    
 -0.500000000       1.50000000       4.89999533      -1.31397247       3.13942838    
  0.500000000       1.50000000      0.899997532      0.759994507       3.00228548    
  0.500000000       1.50000000       3.89999604      -7.92417973E-02   3.10514259    
   1.50000000       1.50000000      0.399997473     -0.194179624       2.98514271    
   1.50000000       1.50000000       3.39999652       1.91139591       3.08799982    
   2.50000000       1.50000000     -0.700002551     -0.428817064       2.97142839    
   2.50000000       1.50000000       2.29999757      0.114799529       3.05028558    
   2.50000000       1.50000000       5.29999495       1.01465011       3.15314269    
   3.50000000       1.50000000      -1.60000277       5.57826138       2.97142839    
   3.50000000       1.50000000      0.399997473      -1.42414904       2.98514271    
   3.50000000       1.50000000       3.39999652      0.975654662       3.08799982    
   3.50000000       1.50000000       6.89999342       9.78337526E-02   3.20799971    
   4.50000000       1.50000000      0.199997485     -0.436978668       2.97828555    
   4.50000000       1.50000000       2.19999766      -4.70405817E-03   3.04685688    
   4.50000000       1.50000000       5.19999504      0.613495886       3.14971399    
   5.50000000       1.50000000       1.19999754      -6.86494708E-02   3.01257110    
   5.50000000       1.50000000       4.19999599      -6.58433139E-03   3.11542845    
   6.50000000       1.50000000       2.19999766      0.166189760       3.04685688    
   6.50000000       1.50000000       5.19999504      0.230127320       3.14971399    
   7.50000000       1.50000000       2.89999700      0.241360828       3.07085681    
   7.50000000       1.50000000       5.19999504      0.433925867       3.14971399    
   8.50000000       1.50000000       3.19999671     -0.880263567       3.08114266    
   9.50000000       1.50000000       3.19999671      0.285980284       3.08114266    
   10.5000000       1.50000000       4.49999571       9.86672714E-02   3.12571406    
   11.5000000       1.50000000       4.69999552      -2.94580404E-03   3.13257122    
  -4.50000000       2.50000000       2.09999776      0.250420928       3.04342842    
  -3.50000000       2.50000000       2.39999747       5.03647327E-03   3.05371404    
  -2.50000000       2.50000000       1.19999754      -1.81537652       3.01257110    
  -2.50000000       2.50000000       3.99999595     -0.649470806       3.10857129    
  -1.50000000       2.50000000       1.19999754      -1.39448869       3.01257110    
  -1.50000000       2.50000000       4.39999580      0.534603119       3.12228537    
 -0.500000000       2.50000000       1.19999754       1.88394451       3.01257110    
 -0.500000000       2.50000000       4.19999599     -0.358724535       3.11542845    
  0.500000000       2.50000000      0.599997461      0.199298441       2.99199986    
  0.500000000       2.50000000       3.59999633      -1.13808811       3.09485698    
  0.500000000       2.50000000       6.69999361      0.248715818       3.20114255    
   1.50000000       2.50000000      0.499997467       1.75621867       2.98857117    
   1.50000000       2.50000000       3.49999642       7.51945749E-02   3.09142828    
   2.50000000       2.50000000     -0.500002503      -1.11601198       2.97142839    
   2.50000000       2.50000000       2.49999738      0.596954405       3.05714273    
   2.50000000       2.50000000       5.49999475     -0.790082932       3.15999985    
   2.50000000       2.50000000       8.49999428       4.29984927E-03   3.26285696    
   3.50000000       2.50000000      -1.30000269      -2.01685047       2.97142839    
   3.50000000       2.50000000      0.699997485      0.788126111       2.99542832    
   3.50000000       2.50000000       3.69999623      0.262256086       3.09828544    
   3.50000000       2.50000000       8.59999466       1.24806690       3.26628542    
   4.50000000       2.50000000       9.99974832E-02 -0.537257373       2.97485685    
   4.50000000       2.50000000       2.09999776       1.68297315       3.04342842    
   4.50000000       2.50000000       5.09999514     -0.245271474       3.14628553    
   5.50000000       2.50000000      0.799997509      0.337038934       2.99885678    
   5.50000000       2.50000000       3.79999614      0.489141017       3.10171413    
   5.50000000       2.50000000       5.89999437       8.37820023E-02   3.17371416    
   6.50000000       2.50000000       1.59999764       1.60795498       3.02628541    
   6.50000000       2.50000000       4.59999561     -0.281614661       3.12914252    
   6.50000000       2.50000000       9.39999771     -0.123339444       3.29371428    
   7.50000000       2.50000000       2.49999738      0.543003678       3.05714273    
   7.50000000       2.50000000       5.69999456       9.01560411E-02   3.16685700    
   8.50000000       2.50000000       2.49999738       1.14600098       3.05714273    
   8.50000000       2.50000000       4.59999561      0.276900381       3.12914252    
   8.50000000       2.50000000       7.29999304      0.564321458       3.22171402    
   9.50000000       2.50000000       2.39999747      0.315268278       3.05371404    
   9.50000000       2.50000000       4.59999561      0.494204730       3.12914252    
   9.50000000       2.50000000       8.19999313      -8.59603509E-02   3.25257111    
   10.5000000       2.50000000       2.49999738     -0.228349850       3.05714273    
   10.5000000       2.50000000       5.69999456      0.491114557       3.16685700    
   11.5000000       2.50000000       2.79999709     -0.102495983       3.06742835    
   11.5000000       2.50000000       5.39999485      -7.91355893E-02   3.15657115    
   12.5000000       2.50000000       2.99999690     -0.263579279       3.07428551    
   12.5000000       2.50000000       6.49999380     -0.147049293       3.19428539    
   13.5000000       2.50000000       3.79999614       7.83585906E-02   3.10171413    
  -5.50000000       3.50000000       1.29999757      0.544666290       3.01599979    
  -4.50000000       3.50000000      0.599997461     -0.291384965       2.99199986    
  -3.50000000       3.50000000      0.399997473      -1.12308574       2.98514271    
  -2.50000000       3.50000000      0.499997467     -0.732121646       2.98857117    
  -2.50000000       3.50000000       3.69999623     -0.337952316       3.09828544    
  -1.50000000       3.50000000      0.699997485     -0.525862217       2.99542832    
  -1.50000000       3.50000000       3.69999623      0.129635155       3.09828544    
  -1.50000000       3.50000000       6.29999399      -1.59340537       3.18742824    
 -0.500000000       3.50000000      0.899997532       1.40958428E-02   3.00228548    
 -0.500000000       3.50000000       3.89999604      0.774110556       3.10514259    
  0.500000000       3.50000000      0.399997473      0.242371663       2.98514271    
  0.500000000       3.50000000       3.39999652       7.16192126E-02   3.08799982    
  0.500000000       3.50000000       5.79999447      0.745269477       3.17028546    
   1.50000000       3.50000000      0.799997509     -0.388961434       2.99885678    
   1.50000000       3.50000000       3.79999614       8.47525448E-02   3.10171413    
   1.50000000       3.50000000       6.39999390      0.121617034       3.19085693    
   2.50000000       3.50000000      0.799997509       1.18878007       2.99885678    
   2.50000000       3.50000000       3.79999614     -0.287504673       3.10171413    
   2.50000000       3.50000000       6.19999409     -0.618206263       3.18399978    
   3.50000000       3.50000000      0.399997473     -0.979102850       2.98514271    
   3.50000000       3.50000000       3.39999652     -0.188574985       3.08799982    
   3.50000000       3.50000000       9.09999657     -0.461176634       3.28342843    
   4.50000000       3.50000000      0.799997509       1.68591869       2.99885678    
   4.50000000       3.50000000       3.79999614     -0.488030672       3.10171413    
   4.50000000       3.50000000       6.29999399      0.247900769       3.18742824    
   5.50000000       3.50000000       1.09999752      0.611080527       3.00914264    
   5.50000000       3.50000000       4.09999609      0.812329531       3.11199975    
   5.50000000       3.50000000       7.19999313       4.26352024E-04   3.21828556    
   6.50000000       3.50000000      0.899997532      0.573738217       3.00228548    
   6.50000000       3.50000000       3.89999604      0.505267620       3.10514259    
   6.50000000       3.50000000       6.59999371     -0.416831315       3.19771409    
   7.50000000       3.50000000       1.89999771      0.100886136       3.03657126    
   7.50000000       3.50000000       4.89999533      -1.10179627       3.13942838    
   7.50000000       3.50000000       7.19999313      0.233042836       3.21828556    
   8.50000000       3.50000000       2.19999766     -0.244133249       3.04685688    
   8.50000000       3.50000000       5.69999456     -0.284916401       3.16685700    
   9.50000000       3.50000000       2.29999757       1.89048182E-02   3.05028558    
   9.50000000       3.50000000       6.79999352     -0.575746298       3.20457125    
   10.5000000       3.50000000       2.09999776      0.711912990       3.04342842    
   10.5000000       3.50000000       7.39999294     -0.279806018       3.22514248    
   11.5000000       3.50000000       1.89999771      -1.53271854E-03   3.03657126    
   11.5000000       3.50000000       4.09999609      0.584183216       3.11199975    
   11.5000000       3.50000000       7.69999266      -3.84143442E-02   3.23542833    
   12.5000000       3.50000000       1.69999766      0.203918666       3.02971411    
   12.5000000       3.50000000       3.79999614      0.205800340       3.10171413    
   12.5000000       3.50000000       7.69999266     -0.157588825       3.23542833    
   13.5000000       3.50000000       1.69999766     -0.306656241       3.02971411    
   13.5000000       3.50000000       5.29999495     -0.467129946       3.15314269    
   14.5000000       3.50000000       1.99999774      0.109831586       3.03999972    
   15.5000000       3.50000000       2.99999690     -0.525304735       3.07428551    
  -6.50000000       4.50000000      0.799997509     -0.851676583       2.99885678    
  -5.50000000       4.50000000     -0.200002521      -1.44444573       2.97142839    
  -5.50000000       4.50000000       5.59999466      0.644734263       3.16342831    
  -4.50000000       4.50000000     -0.300002515      -1.54389119       2.97142839    
  -4.50000000       4.50000000       1.69999766       1.93001938       3.02971411    
  -4.50000000       4.50000000       11.5000057     -0.523242712       3.36571455    
  -3.50000000       4.50000000      -2.51829624E-06 -0.711267352       2.97142839    
  -3.50000000       4.50000000       1.99999774     -0.167528540       3.03999972    
  -3.50000000       4.50000000       4.89999533      0.258124173       3.13942838    
  -2.50000000       4.50000000      0.299997479     -0.370893896       2.98171401    
  -2.50000000       4.50000000       3.39999652      0.214029536       3.08799982    
  -2.50000000       4.50000000       14.9000187      0.349056661       3.48228645    
  -1.50000000       4.50000000      0.799997509     -0.384428293       2.99885678    
  -1.50000000       4.50000000       4.29999590      0.924491346       3.11885691    
 -0.500000000       4.50000000       1.19999754      0.705768883       3.01257110    
 -0.500000000       4.50000000       4.39999580       9.90810618E-02   3.12228537    
  0.500000000       4.50000000      0.299997479       1.88626206       2.98171401    
  0.500000000       4.50000000       3.29999661     -0.150714263       3.08457112    
  0.500000000       4.50000000       5.99999428     -0.123264015       3.17714262    
   1.50000000       4.50000000       1.59999764     -0.785627306       3.02628541    
   1.50000000       4.50000000       4.59999561     -0.224621400       3.12914252    
   2.50000000       4.50000000       1.59999764     -0.611521602       3.02628541    
   2.50000000       4.50000000       4.59999561       1.42406964       3.12914252    
   3.50000000       4.50000000      0.499997467       1.57574940       2.98857117    
   3.50000000       4.50000000       3.49999642      0.977298439       3.09142828    
   3.50000000       4.50000000       5.99999428     -0.756352067       3.17714262    
   4.50000000       4.50000000      0.399997473      0.793983817       2.98514271    
   4.50000000       4.50000000       3.39999652      0.529279947       3.08799982    
   4.50000000       4.50000000       6.49999380     -0.132865667       3.19428539    
   5.50000000       4.50000000      0.899997532     -0.198935419       3.00228548    
   5.50000000       4.50000000       3.89999604     -0.715988040       3.10514259    
   5.50000000       4.50000000       8.89999580      0.434384316       3.27657127    
   6.50000000       4.50000000       1.09999752       1.20723867       3.00914264    
   6.50000000       4.50000000       4.09999609      0.466563523       3.11199975    
   7.50000000       4.50000000      0.799997509       1.20124125       2.99885678    
   7.50000000       4.50000000       3.79999614      0.876247823       3.10171413    
   8.50000000       4.50000000       1.89999771      0.883675873       3.03657126    
   8.50000000       4.50000000       6.59999371      0.365297467       3.19771409    
   9.50000000       4.50000000       2.29999757      -1.84230022E-02   3.05028558    
   9.50000000       4.50000000       5.99999428     -0.520829558       3.17714262    
   10.5000000       4.50000000       1.99999774      0.382108897       3.03999972    
   10.5000000       4.50000000       4.49999571       7.44814277E-02   3.12571406    
   10.5000000       4.50000000       7.99999237     -0.180473775       3.24571395    
   11.5000000       4.50000000       1.69999766      -1.03404558       3.02971411    
   11.5000000       4.50000000       6.89999342      0.438151062       3.20799971    
   12.5000000       4.50000000       1.49999762     -0.152668566       3.02285695    
   12.5000000       4.50000000       7.49999285      0.220638305       3.22857118    
   13.5000000       4.50000000       1.29999757      0.701048076       3.01599979    
   13.5000000       4.50000000       7.99999237      -3.89393270E-02   3.24571395    
   14.5000000       4.50000000       1.09999752     -0.275125802       3.00914264    
   14.5000000       4.50000000       3.19999671      0.374846578       3.08114266    
   14.5000000       4.50000000       9.59999847      -3.44010331E-02   3.30057144    
   15.5000000       4.50000000      0.999997556     -0.161333218       3.00571394    
   15.5000000       4.50000000       3.69999623      0.409981519       3.09828544    
   16.5000000       4.50000000       1.69999766       1.00463772       3.02971411    
  -7.50000000       5.50000000      0.699997485     -0.214909449       2.99542832    
  -6.50000000       5.50000000     -0.700002551     -0.817481160       2.97142839    
  -6.50000000       5.50000000       4.39999580      0.958711982       3.12228537    
  -5.50000000       5.50000000     -0.800002575     -0.241533935       2.97142839    
  -5.50000000       5.50000000       8.89999580      -5.44742346E-02   3.27657127    
  -4.50000000       5.50000000     -0.500002503      -1.18636465       2.97142839    
  -4.50000000       5.50000000       8.09999275      0.225584731       3.24914265    
  -3.50000000       5.50000000      0.199997485     -0.128128365       2.97828555    
  -3.50000000       5.50000000       2.19999766      -1.23503852       3.04685688    
  -3.50000000       5.50000000       11.7000065      0.222225755       3.37257171    
  -2.50000000       5.50000000       1.09999752      0.297179997       3.00914264    
  -2.50000000       5.50000000       3.69999623     -0.499373615       3.09828544    
  -1.50000000       5.50000000       2.09999776     -0.421201140       3.04342842    
 -0.500000000       5.50000000       1.29999757     -0.276276588       3.01599979    
 -0.500000000       5.50000000       4.49999571     -0.434191048       3.12571406    
  0.500000000       5.50000000     -0.200002521     -0.556631625       2.97142839    
  0.500000000       5.50000000       1.89999771      0.159667104       3.03657126    
  0.500000000       5.50000000       5.39999485     -0.458854675       3.15657115    
   1.50000000       5.50000000       1.59999764      0.308377326       3.02628541    
   1.50000000       5.50000000       5.29999495     -0.509673476       3.15314269    
   2.50000000       5.50000000       1.59999764      0.130885065       3.02628541    
   2.50000000       5.50000000       3.89999604      0.828345418       3.10514259    
   2.50000000       5.50000000       5.99999428       7.40221813E-02   3.17714262    
   3.50000000       5.50000000      0.599997461      0.469065577       2.99199986    
   3.50000000       5.50000000       3.59999633      -1.11851490       3.09485698    
   3.50000000       5.50000000       17.9000301      0.134959638       3.58514404    
   4.50000000       5.50000000       9.99974832E-02 -0.351378590       2.97485685    
   4.50000000       5.50000000       2.09999776       1.25670838       3.04342842    
   4.50000000       5.50000000       4.39999580      0.194790944       3.12228537    
   5.50000000       5.50000000      0.599997461       1.65603459       2.99199986    
   5.50000000       5.50000000       3.59999633      0.442072213       3.09485698    
   5.50000000       5.50000000       6.39999390     -0.343370765       3.19085693    
   6.50000000       5.50000000       1.09999752     -0.321517766       3.00914264    
   6.50000000       5.50000000       4.39999580     -0.822157681       3.12228537    
   6.50000000       5.50000000       8.79999542     -0.411973000       3.27314281    
   7.50000000       5.50000000      0.999997556     -0.316835701       3.00571394    
   7.50000000       5.50000000       3.19999671      0.971455097       3.08114266    
   7.50000000       5.50000000       6.59999371     -0.457602561       3.19771409    
   8.50000000       5.50000000      0.699997485       9.04869810E-02   2.99542832    
   8.50000000       5.50000000       4.99999523     -0.750914514       3.14285684    
   9.50000000       5.50000000       1.69999766      0.158490494       3.02971411    
   9.50000000       5.50000000       4.89999533     -0.228425950       3.13942838    
   10.5000000       5.50000000       2.79999709      -1.75050832E-02   3.06742835    
   10.5000000       5.50000000       5.89999437      0.750088811       3.17371416    
   11.5000000       5.50000000       2.49999738      0.346705467       3.05714273    
   11.5000000       5.50000000       5.39999485      0.610936582       3.15657115    
   12.5000000       5.50000000       1.79999769     -0.168757901       3.03314257    
   12.5000000       5.50000000       6.79999352       2.20300816E-02   3.20457125    
   13.5000000       5.50000000       1.29999757     -0.607589304       3.01599979    
   13.5000000       5.50000000       3.79999614      0.265359789       3.10171413    
   13.5000000       5.50000000       10.0000000     -0.415664166       3.31428576    
   14.5000000       5.50000000      0.899997532     -0.295762360       3.00228548    
   14.5000000       5.50000000       9.49999809      0.504599273       3.29714274    
   15.5000000       5.50000000      0.599997461      0.364115000       2.99199986    
   15.5000000       5.50000000       10.5000019     -0.542032480       3.33142877    
   16.5000000       5.50000000      0.399997473     -0.239938527       2.98514271    
   17.5000000       5.50000000      0.399997473      0.543585956       2.98514271    
   17.5000000       5.50000000       4.39999580     -0.142937094       3.12228537    
   18.5000000       5.50000000      0.499997467      0.159710795       2.98857117    
  -7.50000000       6.50000000      -1.20000267     -0.262137949       2.97142839    
  -7.50000000       6.50000000       3.59999633      0.607799470       3.09485698    
  -6.50000000       6.50000000      -1.60000277     -0.564313054       2.97142839    
  -6.50000000       6.50000000      0.399997473     -0.563675165       2.98514271    
  -5.50000000       6.50000000     -0.500002503      0.113472581       2.97142839    
  -5.50000000       6.50000000       3.29999661     -0.865707636       3.08457112    
  -4.50000000       6.50000000      0.699997485      -8.53833854E-02   2.99542832    
  -3.50000000       6.50000000       1.69999766      -7.31489956E-02   3.02971411    
 -0.500000000       6.50000000      0.399997473     -0.150146455       2.98514271    
 -0.500000000       6.50000000       3.39999652      0.359053195       3.08799982    
  0.500000000       6.50000000     -0.300002515      -1.02874160       2.97142839    
  0.500000000       6.50000000       2.59999728       1.29832625       3.06057119    
  0.500000000       6.50000000       7.99999237      0.175877929       3.24571395    
   1.50000000       6.50000000       1.29999757     -0.168563306       3.01599979    
   1.50000000       6.50000000       5.09999514     -0.192753062       3.14628553    
   2.50000000       6.50000000       1.59999764     -0.345721871       3.02628541    
   2.50000000       6.50000000       4.99999523      0.182032451       3.14285684    
   3.50000000       6.50000000      0.699997485      0.463170409       2.99542832    
   3.50000000       6.50000000       5.09999514     -0.500799954       3.14628553    
   4.50000000       6.50000000     -0.100002520     -0.284441173       2.97142839    
   4.50000000       6.50000000       1.89999771      0.977430999       3.03657126    
   4.50000000       6.50000000       7.49999285     -0.383754909       3.22857118    
   5.50000000       6.50000000     -0.100002520      -1.21816063       2.97142839    
   5.50000000       6.50000000       1.89999771      0.931440592       3.03657126    
   5.50000000       6.50000000       7.69999266     -0.470247149       3.23542833    
   6.50000000       6.50000000      0.599997461       1.12949514       2.99199986    
   6.50000000       6.50000000       4.39999580     -0.402871817       3.12228537    
   7.50000000       6.50000000       2.09999776      0.749477386       3.04342842    
   7.50000000       6.50000000       4.89999533       6.04336411E-02   3.13942838    
   8.50000000       6.50000000      0.699997485     -0.462966800       2.99542832    
   8.50000000       6.50000000       4.19999599      -1.02116919       3.11542845    
   9.50000000       6.50000000      0.399997473     -0.363340557       2.98514271    
   9.50000000       6.50000000       3.09999681      0.280772507       3.07771397    
   10.5000000       6.50000000       1.39999759      0.515756845       3.01942825    
   10.5000000       6.50000000       4.49999571     -0.328050166       3.12571406    
   11.5000000       6.50000000       5.29999495     -0.521571636       3.15314269    
   12.5000000       6.50000000       4.79999542       4.96064350E-02   3.13599968    
   13.5000000       6.50000000       3.59999633       9.01068002E-03   3.09485698    
   14.5000000       6.50000000       1.59999764     -0.111448273       3.02628541    
   14.5000000       6.50000000       3.79999614     -0.229191840       3.10171413    
   15.5000000       6.50000000      0.899997532     -0.520728886       3.00228548    
   15.5000000       6.50000000       7.39999294      -7.36112595E-02   3.22514248    
   16.5000000       6.50000000      0.399997473     -0.127549440       2.98514271    
   16.5000000       6.50000000       2.79999709      -1.07834712E-02   3.06742835    
   17.5000000       6.50000000       9.99974832E-02   9.87823457E-02   2.97485685    
   17.5000000       6.50000000       2.19999766       2.74461508E-03   3.04685688    
   18.5000000       6.50000000     -0.400002509      0.105054073       2.97142839    
   18.5000000       6.50000000       1.59999764      0.360622317       3.02628541    
   18.5000000       6.50000000       6.39999390     -0.332478255       3.19085693    
   19.5000000       6.50000000     -0.600002527      -1.05740875E-02   2.97142839    
   20.5000000       6.50000000     -0.400002509      -8.11265409E-02   2.97142839    
  -1.50000000       7.50000000       3.39999652      0.423797756       3.08799982    
 -0.500000000       7.50000000     -0.600002527     -0.839982867       2.97142839    
 -0.500000000       7.50000000       5.79999447       6.17984459E-02   3.17028546    
  0.500000000       7.50000000     -0.600002527     -0.951241672       2.97142839    
  0.500000000       7.50000000       2.19999766      0.846424997       3.04685688    
   1.50000000       7.50000000       1.39999759      -7.76138753E-02   3.01942825    
   1.50000000       7.50000000       5.09999514     -0.538060963       3.14628553    
   2.50000000       7.50000000       2.09999776     -0.553692162       3.04342842    
   2.50000000       7.50000000       4.49999571      0.379363835       3.12571406    
   3.50000000       7.50000000      0.599997461      0.680216610       2.99199986    
   3.50000000       7.50000000       2.99999690     -0.200547174       3.07428551    
   3.50000000       7.50000000       9.89999962      0.382000268       3.31085706    
   4.50000000       7.50000000     -0.300002515      0.333282679       2.97142839    
   4.50000000       7.50000000       1.69999766      0.625108004       3.02971411    
   4.50000000       7.50000000       6.59999371     -0.556638658       3.19771409    
   5.50000000       7.50000000     -0.700002551      -1.67956424       2.97142839    
   5.50000000       7.50000000       2.39999747      0.260436326       3.05371404    
   5.50000000       7.50000000       6.79999352     -0.332201630       3.20457125    
   6.50000000       7.50000000     -0.100002520      0.300340533       2.97142839    
   6.50000000       7.50000000       1.89999771       8.52377862E-02   3.03657126    
   6.50000000       7.50000000       6.19999409      0.204673976       3.18399978    
   7.50000000       7.50000000       2.49999738      0.129471228       3.05714273    
   8.50000000       7.50000000       1.79999769      0.501696348       3.03314257    
   8.50000000       7.50000000       4.09999609      0.325241476       3.11199975    
   9.50000000       7.50000000     -0.100002520     -0.619927645       2.97142839    
   9.50000000       7.50000000       2.29999757     -0.288532197       3.05028558    
   9.50000000       7.50000000       5.09999514      0.128481284       3.14628553    
   10.5000000       7.50000000     -0.300002515     -0.556557119       2.97142839    
   10.5000000       7.50000000       2.29999757     -0.353689909       3.05028558    
   11.5000000       7.50000000       2.19999766      0.362625211       3.04685688    
   11.5000000       7.50000000       4.89999533     -0.514391780       3.13942838    
   17.5000000       7.50000000       1.89999771      0.697028279       3.03657126    
   18.5000000       7.50000000      0.299997479       8.88539702E-02   2.98171401    
   18.5000000       7.50000000       6.19999409     -0.200729936       3.18399978    
   19.5000000       7.50000000     -0.600002527      0.422722816       2.97142839    
   19.5000000       7.50000000       1.59999764     -0.465428174       3.02628541    
   20.5000000       7.50000000     -0.800002575      -1.24542341E-02   2.97142839    
   20.5000000       7.50000000       1.29999757     -0.262846828       3.01599979    
   21.5000000       7.50000000     -0.700002551       6.42133579E-02   2.97142839    
  -1.50000000       8.50000000       5.39999485      -1.39226839E-02   3.15657115    
 -0.500000000       8.50000000      -1.50000274     -0.668151319       2.97142839    
 -0.500000000       8.50000000      0.499997467      0.366932154       2.98857117    
  0.500000000       8.50000000     -0.500002503     -0.508699417       2.97142839    
  0.500000000       8.50000000       6.29999399      0.445712149       3.18742824    
   1.50000000       8.50000000       1.79999769      0.921977639       3.03314257    
   1.50000000       8.50000000       6.59999371     -0.454731405       3.19771409    
   2.50000000       8.50000000       3.59999633      0.211190298       3.09485698    
   3.50000000       8.50000000       1.59999764      0.109317854       3.02628541    
   3.50000000       8.50000000       3.99999595      0.966832101       3.10857129    
   4.50000000       8.50000000     -0.400002509       1.22676396       2.97142839    
   4.50000000       8.50000000       1.59999764     -0.199562967       3.02628541    
   4.50000000       8.50000000       5.79999447       1.67869031E-02   3.17028546    
   4.50000000       8.50000000       8.09999275     -0.645400941       3.24914265    
   5.50000000       8.50000000     -0.900002599     -0.950920105       2.97142839    
   5.50000000       8.50000000       3.09999681      -6.92335144E-02   3.07771397    
   5.50000000       8.50000000       5.79999447     -0.520755172       3.17028546    
   6.50000000       8.50000000     -0.700002551     -0.226062059       2.97142839    
   6.50000000       8.50000000       3.19999671      0.128590077       3.08114266    
   6.50000000       8.50000000       5.79999447     -0.125981644       3.17028546    
   7.50000000       8.50000000      0.799997509       7.91133791E-02   2.99885678    
   7.50000000       8.50000000       3.39999652     -0.285684466       3.08799982    
   7.50000000       8.50000000       6.99999332     -0.107380807       3.21142840    
   8.50000000       8.50000000       1.89999771      0.815449417       3.03657126    
   8.50000000       8.50000000       4.59999561     -0.545990825       3.12914252    
   9.50000000       8.50000000       1.49999762       1.13328683       3.02285695    
   9.50000000       8.50000000       4.69999552     -0.743251562       3.13257122    
   10.5000000       8.50000000     -0.500002503     -0.305098444       2.97142839    
   10.5000000       8.50000000       3.89999604      0.162827611       3.10514259    
   10.5000000       8.50000000       10.2000008       1.04126632E-02   3.32114291    
   11.5000000       8.50000000     -0.600002527      0.191397712       2.97142839    
   12.5000000       8.50000000       6.49999380      0.183581829       3.19428539    
  -1.50000000       9.50000000       3.59999633       2.84887552E-02   3.09485698    
  -1.50000000       9.50000000       8.19999313      0.115981609       3.25257111    
 -0.500000000       9.50000000      -1.60000277     -0.359560013       2.97142839    
  0.500000000       9.50000000     -0.600002527      0.709984124       2.97142839    
  0.500000000       9.50000000       3.79999614      0.431181073       3.10171413    
  0.500000000       9.50000000       7.99999237     -0.188734591       3.24571395    
   1.50000000       9.50000000       6.49999380     -0.213939056       3.19428539    
   2.50000000       9.50000000       5.49999475     -0.319594204       3.15999985    
   3.50000000       9.50000000       4.29999590     -0.490143925       3.11885691    
   4.50000000       9.50000000      0.399997473     -0.249867395       2.98514271    
   4.50000000       9.50000000       2.89999700      0.486004114       3.07085681    
   4.50000000       9.50000000       6.89999342     -0.544083118       3.20799971    
   5.50000000       9.50000000     -0.900002599      0.154682994       2.97142839    
   5.50000000       9.50000000       1.39999759      0.409472466       3.01942825    
   5.50000000       9.50000000       5.39999485      0.148952425       3.15657115    
   6.50000000       9.50000000      -1.70000279     -0.503660798       2.97142839    
   6.50000000       9.50000000      0.299997479      0.604068577       2.98171401    
   6.50000000       9.50000000       2.39999747      0.292898417       3.05371404    
   7.50000000       9.50000000      0.399997473      0.292909652       2.98514271    
   7.50000000       9.50000000       2.59999728     -0.689756036       3.06057119    
   7.50000000       9.50000000       7.09999323      -4.79632616E-03   3.21485686    
   8.50000000       9.50000000       3.99999595     -0.472521275       3.10857129    
   11.5000000       9.50000000     -0.200002521      0.425001502       2.97142839    
  -2.50000000       10.5000000       5.39999485     -0.660427868       3.15657115    
  -1.50000000       10.5000000       4.39999580     -0.261024415       3.12228537    
  -1.50000000       10.5000000       6.79999352      0.234929711       3.20457125    
  -1.50000000       10.5000000       9.39999771       5.43304607E-02   3.29371428    
 -0.500000000       10.5000000       4.59999561      -8.70295465E-02   3.12914252    
 -0.500000000       10.5000000       6.99999332      0.149394184       3.21142840    
  0.500000000       10.5000000       3.69999623       1.20219481       3.09828544    
  0.500000000       10.5000000       7.39999294      0.304575473       3.22514248    
  0.500000000       10.5000000       9.49999809     -0.434126198       3.29714274    
   1.50000000       10.5000000       3.49999642       1.23921776       3.09142828    
   1.50000000       10.5000000       5.99999428       3.97396572E-02   3.17714262    
   1.50000000       10.5000000       9.39999771      -7.95654655E-02   3.29371428    
   2.50000000       10.5000000       3.89999604      0.444800258       3.10514259    
   2.50000000       10.5000000       6.29999399      0.266761482       3.18742824    
   3.50000000       10.5000000       3.09999681      0.399619997       3.07771397    
   3.50000000       10.5000000       6.69999361      -4.43979092E-02   3.20114255    
   4.50000000       10.5000000       1.69999766      0.621668994       3.02971411    
   4.50000000       10.5000000       5.59999466     -0.123773575       3.16342831    
   4.50000000       10.5000000       8.29999352      -1.03533041       3.25599980    
   5.50000000       10.5000000      0.399997473      0.486411154       2.98514271    
   5.50000000       10.5000000       2.59999728     -0.227520227       3.06057119    
   5.50000000       10.5000000       5.49999475     -0.836912334       3.15999985    
   6.50000000       10.5000000      -2.51829624E-06  0.492279083       2.97142839    
   6.50000000       10.5000000       3.59999633      0.464563221       3.09485698    
   6.50000000       10.5000000       6.29999399     -0.169779092       3.18742824    
   7.50000000       10.5000000       5.49999475      0.145588920       3.15999985    
   8.50000000       10.5000000       7.29999304     -0.162309378       3.22171402    
   9.50000000       10.5000000       6.89999342     -0.215798840       3.20799971    
   10.5000000       10.5000000       5.39999485     -0.256769568       3.15657115    
   11.5000000       10.5000000       5.29999495     -0.125807196       3.15314269    
   12.5000000       10.5000000       5.19999504       3.99653018E-02   3.14971399    
   15.5000000       10.5000000       3.59999633     -0.399901181       3.09485698    
  -2.50000000       11.5000000       7.29999304     -0.247094959       3.22171402    
  -1.50000000       11.5000000       4.89999533     -0.542031288       3.13942838    
  -1.50000000       11.5000000       8.29999352     -0.335341454       3.25599980    
 -0.500000000       11.5000000       5.59999466     -0.368784249       3.16342831    
 -0.500000000       11.5000000       8.49999428      0.349004984       3.26285696    
  0.500000000       11.5000000       7.69999266      0.345214188       3.23542833    
  0.500000000       11.5000000       10.0000000       8.80108774E-03   3.31428576    
   1.50000000       11.5000000       6.09999418      0.453588545       3.18057108    
   1.50000000       11.5000000       8.19999313      0.315413296       3.25257111    
   2.50000000       11.5000000       5.19999504       1.02587247       3.14971399    
   2.50000000       11.5000000       7.59999275      0.336066961       3.23199964    
   3.50000000       11.5000000       5.09999514       1.41611934       3.14628553    
   3.50000000       11.5000000       7.89999247     -0.180086285       3.24228549    
   4.50000000       11.5000000       3.19999671      0.556588352       3.08114266    
   4.50000000       11.5000000       5.79999447     -0.410672307       3.17028546    
   4.50000000       11.5000000       8.09999275      -1.53382015       3.24914265    
   5.50000000       11.5000000       3.49999642      0.372517139       3.09142828    
   5.50000000       11.5000000       6.19999409     -0.144030139       3.18399978    
   5.50000000       11.5000000       9.39999771     -0.582718015       3.29371428    
   6.50000000       11.5000000       1.79999769      0.857615650       3.03314257    
   6.50000000       11.5000000       5.39999485     -0.332402527       3.15657115    
   6.50000000       11.5000000       7.59999275     -0.240304217       3.23199964    
   7.50000000       11.5000000       6.49999380       8.16267356E-02   3.19428539    
   8.50000000       11.5000000       7.19999313      0.559287071       3.21828556    
 -0.500000000       12.5000000       9.09999657     -0.113136970       3.28342843    
  0.500000000       12.5000000       8.09999275      -4.02975678E-02   3.24914265    
   1.50000000       12.5000000       6.99999332     -0.309962004       3.21142840    
   1.50000000       12.5000000       9.79999924     -0.235176474       3.30742860    
   2.50000000       12.5000000       5.59999466      -8.55750293E-02   3.16342831    
   2.50000000       12.5000000       8.49999428     -0.471763432       3.26285696    
   3.50000000       12.5000000       4.59999561      0.901295483       3.12914252    
   3.50000000       12.5000000       6.79999352     -0.315703571       3.20457125    
   4.50000000       12.5000000       5.99999428      0.871298075       3.17714262    
   4.50000000       12.5000000       8.09999275     -0.870382786       3.24914265    
   5.50000000       12.5000000       5.19999504      0.402027756       3.14971399    
   5.50000000       12.5000000       7.39999294      0.397918254       3.22514248    
   6.50000000       12.5000000       4.19999599      0.625382900       3.11542845    
   6.50000000       12.5000000       6.39999390      0.233709753       3.19085693    
   7.50000000       12.5000000       5.69999456      0.624246955       3.16685700    
  0.500000000       13.5000000       8.29999352      -1.50641799E-03   3.25599980    
   1.50000000       13.5000000       7.19999313      0.250087261       3.21828556    
   1.50000000       13.5000000       9.59999847     -0.152132750       3.30057144    
   2.50000000       13.5000000       6.59999371     -0.357303441       3.19771409    
   3.50000000       13.5000000       6.89999342     -0.380040586       3.20799971    
   4.50000000       13.5000000       5.99999428       1.06195998       3.17714262    
   5.50000000       13.5000000       6.69999361      0.952077806       3.20114255    
   6.50000000       13.5000000       5.99999428      0.634324312       3.17714262    
   6.50000000       13.5000000       8.09999275     -0.101067528       3.24914265    
   7.50000000       13.5000000       6.49999380     -0.336171985       3.19428539    
   8.50000000       13.5000000       7.09999323     -0.212436974       3.21485686    
   1.50000000       14.5000000       7.79999256      0.898523331       3.23885679    
   2.50000000       14.5000000       7.79999256      -3.63711119E-02   3.23885679    
   3.50000000       14.5000000       6.49999380       8.44279677E-02   3.19428539    
   5.50000000       14.5000000       7.59999275     -0.100511186       3.23199964    
   6.50000000       14.5000000       7.09999323      0.251864552       3.21485686    
   7.50000000       14.5000000       6.79999352      0.119921453       3.20457125    
   2.50000000       15.5000000       10.2000008     -0.268069744       3.32114291    
   5.50000000       15.5000000       6.39999390      0.181407049       3.19085693    
   5.50000000       15.5000000       9.19999695     -0.295261830       3.28685713    
   6.50000000       15.5000000       6.89999342       9.82452333E-02   3.20799971    
   6.50000000       15.5000000       9.19999695      -3.36034112E-02   3.28685713    
   7.50000000       15.5000000       6.99999332      0.227986425       3.21142840    
   5.50000000       16.5000000       7.89999247      -6.79195076E-02   3.24228549    
   6.50000000       16.5000000       7.89999247       4.40936908E-03   3.24228549    
   6.50000000       16.5000000       10.0000000     -0.108834453       3.31428576    
   7.50000000       16.5000000       7.09999323       5.33224642E-02   3.21485686    
   8.50000000       17.5000000       7.49999285     -0.102179699       3.22857118    
