  -5.50000000      -17.5000000       11.9000072    
  -4.50000000      -17.5000000       12.9000111    
  -3.50000000      -17.5000000       14.8000183    
  -6.50000000      -16.5000000       12.7000103    
  -5.50000000      -16.5000000       11.7000065    
  -4.50000000      -16.5000000       11.8000069    
  -4.50000000      -16.5000000       13.9000149    
  -3.50000000      -16.5000000       12.1000080    
  -2.50000000      -16.5000000       12.8000107    
  -2.50000000      -16.5000000       15.3000202    
  -1.50000000      -16.5000000       14.8000183    
  -6.50000000      -15.5000000       12.1000080    
  -5.50000000      -15.5000000       10.5000019    
  -5.50000000      -15.5000000       13.1000118    
  -4.50000000      -15.5000000       10.8000031    
  -4.50000000      -15.5000000       12.8000107    
  -3.50000000      -15.5000000       10.5000019    
  -3.50000000      -15.5000000       12.5000095    
  -2.50000000      -15.5000000       13.0000114    
  -1.50000000      -15.5000000       14.0000153    
  -9.50000000      -14.5000000       15.7000217    
  -8.50000000      -14.5000000       12.5000095    
  -8.50000000      -14.5000000       14.9000187    
  -7.50000000      -14.5000000       12.0000076    
  -6.50000000      -14.5000000       12.1000080    
  -5.50000000      -14.5000000       9.69999886    
  -5.50000000      -14.5000000       11.7000065    
  -4.50000000      -14.5000000       9.89999962    
  -4.50000000      -14.5000000       12.3000088    
  -3.50000000      -14.5000000       10.1000004    
  -3.50000000      -14.5000000       12.1000080    
  -2.50000000      -14.5000000       11.1000042    
  -2.50000000      -14.5000000       13.3000126    
  -1.50000000      -14.5000000       12.9000111    
 -0.500000000      -14.5000000       13.0000114    
   4.50000000      -14.5000000       9.49999809    
   5.50000000      -14.5000000       8.59999466    
   6.50000000      -14.5000000       8.49999428    
  -9.50000000      -13.5000000       13.9000149    
  -8.50000000      -13.5000000       12.6000099    
  -7.50000000      -13.5000000       12.1000080    
  -6.50000000      -13.5000000       10.4000015    
  -5.50000000      -13.5000000       7.59999275    
  -5.50000000      -13.5000000       9.89999962    
  -5.50000000      -13.5000000       12.1000080    
  -4.50000000      -13.5000000       10.1000004    
  -4.50000000      -13.5000000       12.8000107    
  -3.50000000      -13.5000000       9.19999695    
  -3.50000000      -13.5000000       12.2000084    
  -2.50000000      -13.5000000       8.39999390    
  -2.50000000      -13.5000000       10.7000027    
  -2.50000000      -13.5000000       12.9000111    
  -1.50000000      -13.5000000       10.9000034    
  -1.50000000      -13.5000000       12.9000111    
 -0.500000000      -13.5000000       11.1000042    
   7.50000000      -13.5000000       8.09999275    
   8.50000000      -13.5000000       6.99999332    
   9.50000000      -13.5000000       6.49999380    
   18.5000000      -13.5000000       14.9000187    
  -9.50000000      -12.5000000       14.8000183    
  -8.50000000      -12.5000000       12.3000088    
  -7.50000000      -12.5000000       9.59999847    
  -7.50000000      -12.5000000       12.4000092    
  -6.50000000      -12.5000000       10.7000027    
  -6.50000000      -12.5000000       12.8000107    
  -5.50000000      -12.5000000       6.39999390    
  -5.50000000      -12.5000000       9.29999733    
  -5.50000000      -12.5000000       11.6000061    
  -4.50000000      -12.5000000       8.49999428    
  -4.50000000      -12.5000000       11.0000038    
  -3.50000000      -12.5000000       7.89999247    
  -3.50000000      -12.5000000       11.8000069    
  -2.50000000      -12.5000000       8.19999313    
  -2.50000000      -12.5000000       10.8000031    
  -2.50000000      -12.5000000       13.2000122    
  -1.50000000      -12.5000000       7.59999275    
  -1.50000000      -12.5000000       9.79999924    
  -1.50000000      -12.5000000       11.9000072    
 -0.500000000      -12.5000000       9.89999962    
 -0.500000000      -12.5000000       12.6000099    
  0.500000000      -12.5000000       12.3000088    
   4.50000000      -12.5000000       4.09999609    
   6.50000000      -12.5000000       8.59999466    
   9.50000000      -12.5000000       5.69999456    
   10.5000000      -12.5000000       6.19999409    
   11.5000000      -12.5000000       5.69999456    
   12.5000000      -12.5000000       4.89999533    
   13.5000000      -12.5000000       5.09999514    
  -8.50000000      -11.5000000       13.4000130    
  -7.50000000      -11.5000000       8.29999352    
  -7.50000000      -11.5000000       10.4000015    
  -7.50000000      -11.5000000       13.6000137    
  -6.50000000      -11.5000000       8.39999390    
  -6.50000000      -11.5000000       11.7000065    
  -5.50000000      -11.5000000       4.79999542    
  -5.50000000      -11.5000000       9.49999809    
  -5.50000000      -11.5000000       13.0000114    
  -4.50000000      -11.5000000       7.39999294    
  -4.50000000      -11.5000000       9.69999886    
  -4.50000000      -11.5000000       12.3000088    
  -3.50000000      -11.5000000       6.49999380    
  -3.50000000      -11.5000000       10.7000027    
  -2.50000000      -11.5000000       6.09999418    
  -2.50000000      -11.5000000       9.39999771    
  -1.50000000      -11.5000000       7.19999313    
  -1.50000000      -11.5000000       10.3000011    
  -1.50000000      -11.5000000       12.7000103    
 -0.500000000      -11.5000000       7.89999247    
 -0.500000000      -11.5000000       10.5000019    
 -0.500000000      -11.5000000       12.5000095    
  0.500000000      -11.5000000       8.89999580    
  0.500000000      -11.5000000       11.8000069    
   1.50000000      -11.5000000       10.4000015    
   4.50000000      -11.5000000       2.49999738    
   8.50000000      -11.5000000       6.79999352    
   9.50000000      -11.5000000       8.39999390    
   10.5000000      -11.5000000       6.09999418    
   11.5000000      -11.5000000       6.09999418    
   12.5000000      -11.5000000       4.99999523    
   13.5000000      -11.5000000       4.79999542    
   14.5000000      -11.5000000       3.79999614    
   15.5000000      -11.5000000       2.99999690    
   16.5000000      -11.5000000       2.49999738    
  -7.50000000      -10.5000000       8.89999580    
  -7.50000000      -10.5000000       11.3000050    
  -7.50000000      -10.5000000       13.5000134    
  -6.50000000      -10.5000000       5.49999475    
  -6.50000000      -10.5000000       7.99999237    
  -6.50000000      -10.5000000       12.1000080    
  -5.50000000      -10.5000000       2.99999690    
  -5.50000000      -10.5000000       8.19999313    
  -5.50000000      -10.5000000       10.4000015    
  -4.50000000      -10.5000000       5.79999447    
  -4.50000000      -10.5000000       8.19999313    
  -4.50000000      -10.5000000       10.9000034    
  -4.50000000      -10.5000000       14.2000160    
  -3.50000000      -10.5000000       6.09999418    
  -3.50000000      -10.5000000       8.39999390    
  -3.50000000      -10.5000000       11.5000057    
  -3.50000000      -10.5000000       13.6000137    
  -2.50000000      -10.5000000       4.99999523    
  -2.50000000      -10.5000000       8.29999352    
  -2.50000000      -10.5000000       11.3000050    
  -1.50000000      -10.5000000       6.89999342    
  -1.50000000      -10.5000000       9.59999847    
 -0.500000000      -10.5000000       4.29999590    
 -0.500000000      -10.5000000       8.69999504    
 -0.500000000      -10.5000000       11.4000053    
  0.500000000      -10.5000000       4.89999533    
  0.500000000      -10.5000000       8.29999352    
  0.500000000      -10.5000000       10.8000031    
   1.50000000      -10.5000000       5.09999514    
   1.50000000      -10.5000000       9.79999924    
   2.50000000      -10.5000000       6.09999418    
   3.50000000      -10.5000000       6.69999361    
   4.50000000      -10.5000000       2.49999738    
   4.50000000      -10.5000000       6.69999361    
   7.50000000      -10.5000000       6.89999342    
   8.50000000      -10.5000000       6.89999342    
   9.50000000      -10.5000000       5.89999437    
   10.5000000      -10.5000000       6.19999409    
   11.5000000      -10.5000000       5.99999428    
   12.5000000      -10.5000000       5.69999456    
   13.5000000      -10.5000000       3.89999604    
   13.5000000      -10.5000000       9.29999733    
   14.5000000      -10.5000000       3.29999661    
   14.5000000      -10.5000000       10.3000011    
   15.5000000      -10.5000000       2.09999776    
   15.5000000      -10.5000000       10.9000034    
   16.5000000      -10.5000000       1.29999757    
   16.5000000      -10.5000000       8.69999504    
   17.5000000      -10.5000000       1.19999754    
   18.5000000      -10.5000000      0.299997479    
   19.5000000      -10.5000000     -0.100002520    
   20.5000000      -10.5000000     -0.300002515    
  -6.50000000      -9.50000000       5.09999514    
  -5.50000000      -9.50000000       5.39999485    
  -4.50000000      -9.50000000       8.19999313    
  -3.50000000      -9.50000000       9.39999771    
  -2.50000000      -9.50000000       4.59999561    
  -2.50000000      -9.50000000       8.59999466    
  -1.50000000      -9.50000000       5.69999456    
 -0.500000000      -9.50000000       6.39999390    
  0.500000000      -9.50000000       4.99999523    
  0.500000000      -9.50000000       8.59999466    
   1.50000000      -9.50000000       7.89999247    
   3.50000000      -9.50000000       7.59999275    
   13.5000000      -9.50000000       4.79999542    
   14.5000000      -9.50000000       3.99999595    
   15.5000000      -9.50000000       2.69999719    
   16.5000000      -9.50000000       1.19999754    
   17.5000000      -9.50000000      -2.51829624E-06
   17.5000000      -9.50000000       2.09999776    
   17.5000000      -9.50000000       4.89999533    
   18.5000000      -9.50000000     -0.600002527    
   18.5000000      -9.50000000       2.89999700    
   19.5000000      -9.50000000     -0.800002575    
   19.5000000      -9.50000000       2.29999757    
   20.5000000      -9.50000000     -0.800002575    
   20.5000000      -9.50000000       1.29999757    
  -6.50000000      -8.50000000       8.49999428    
  -5.50000000      -8.50000000       9.99974832E-02
  -5.50000000      -8.50000000       8.79999542    
  -4.50000000      -8.50000000      0.799997509    
  -4.50000000      -8.50000000       7.29999304    
  -3.50000000      -8.50000000      0.599997461    
  -3.50000000      -8.50000000       3.69999623    
  -3.50000000      -8.50000000       9.19999695    
  -2.50000000      -8.50000000       1.59999764    
  -2.50000000      -8.50000000       3.69999623    
  -2.50000000      -8.50000000       8.69999504    
  -1.50000000      -8.50000000       2.69999719    
  -1.50000000      -8.50000000       4.79999542    
  -1.50000000      -8.50000000       8.69999504    
 -0.500000000      -8.50000000       3.09999681    
 -0.500000000      -8.50000000       6.29999399    
  0.500000000      -8.50000000       3.09999681    
  0.500000000      -8.50000000       6.49999380    
   1.50000000      -8.50000000       2.89999700    
   2.50000000      -8.50000000       4.99999523    
   3.50000000      -8.50000000       4.69999552    
   4.50000000      -8.50000000       4.19999599    
   5.50000000      -8.50000000       3.39999652    
   6.50000000      -8.50000000       3.99999595    
   7.50000000      -8.50000000       5.59999466    
   9.50000000      -8.50000000       5.79999447    
   10.5000000      -8.50000000       5.09999514    
   11.5000000      -8.50000000       4.39999580    
   12.5000000      -8.50000000       2.99999690    
   12.5000000      -8.50000000       7.59999275    
   13.5000000      -8.50000000       1.89999771    
   13.5000000      -8.50000000       6.99999332    
   14.5000000      -8.50000000      0.899997532    
   14.5000000      -8.50000000       6.69999361    
   15.5000000      -8.50000000      0.399997473    
   15.5000000      -8.50000000       5.59999466    
   16.5000000      -8.50000000       9.99974832E-02
   16.5000000      -8.50000000       2.09999776    
   16.5000000      -8.50000000       6.59999371    
   17.5000000      -8.50000000     -0.500002503    
   17.5000000      -8.50000000       2.59999728    
   18.5000000      -8.50000000     -0.700002551    
   18.5000000      -8.50000000       2.39999747    
   19.5000000      -8.50000000     -0.600002527    
   19.5000000      -8.50000000       3.29999661    
   20.5000000      -8.50000000      -2.51829624E-06
  -6.50000000      -7.50000000       1.99999774    
  -6.50000000      -7.50000000       8.29999352    
  -5.50000000      -7.50000000      -1.60000277    
  -5.50000000      -7.50000000      0.399997473    
  -4.50000000      -7.50000000     -0.900002599    
  -4.50000000      -7.50000000       1.19999754    
  -4.50000000      -7.50000000       7.19999313    
  -3.50000000      -7.50000000     -0.600002527    
  -3.50000000      -7.50000000       4.29999590    
  -3.50000000      -7.50000000       8.99999619    
  -2.50000000      -7.50000000      0.399997473    
  -2.50000000      -7.50000000       2.89999700    
  -2.50000000      -7.50000000       6.89999342    
  -1.50000000      -7.50000000       1.09999752    
  -1.50000000      -7.50000000       5.19999504    
  -1.50000000      -7.50000000       10.1000004    
 -0.500000000      -7.50000000       2.19999766    
 -0.500000000      -7.50000000       5.49999475    
  0.500000000      -7.50000000       2.49999738    
  0.500000000      -7.50000000       5.69999456    
   1.50000000      -7.50000000       2.29999757    
   2.50000000      -7.50000000       3.29999661    
   3.50000000      -7.50000000       4.19999599    
   4.50000000      -7.50000000       4.29999590    
   5.50000000      -7.50000000       4.39999580    
   6.50000000      -7.50000000       4.89999533    
   7.50000000      -7.50000000       4.99999523    
   8.50000000      -7.50000000       4.99999523    
   9.50000000      -7.50000000       3.29999661    
   9.50000000      -7.50000000       6.59999371    
   10.5000000      -7.50000000       2.69999719    
   10.5000000      -7.50000000       4.79999542    
   10.5000000      -7.50000000       10.6000023    
   11.5000000      -7.50000000       2.39999747    
   11.5000000      -7.50000000       7.89999247    
   12.5000000      -7.50000000       1.59999764    
   12.5000000      -7.50000000       3.79999614    
   12.5000000      -7.50000000       8.49999428    
   13.5000000      -7.50000000       1.09999752    
   13.5000000      -7.50000000       7.69999266    
   13.5000000      -7.50000000       12.0000076    
   14.5000000      -7.50000000      0.699997485    
   14.5000000      -7.50000000       6.29999399    
   15.5000000      -7.50000000      0.299997479    
   15.5000000      -7.50000000       5.59999466    
   16.5000000      -7.50000000      0.199997485    
   16.5000000      -7.50000000       2.19999766    
   16.5000000      -7.50000000       6.59999371    
   17.5000000      -7.50000000      0.299997479    
   17.5000000      -7.50000000       3.19999671    
   18.5000000      -7.50000000       1.59999764    
  -5.50000000      -6.50000000     -0.100002520    
  -5.50000000      -6.50000000       6.39999390    
  -4.50000000      -6.50000000     -0.700002551    
  -4.50000000      -6.50000000       6.69999361    
  -3.50000000      -6.50000000     -0.700002551    
  -3.50000000      -6.50000000       3.99999595    
  -2.50000000      -6.50000000     -0.100002520    
  -2.50000000      -6.50000000       1.89999771    
  -2.50000000      -6.50000000       3.99999595    
  -2.50000000      -6.50000000       9.29999733    
  -1.50000000      -6.50000000     -0.200002521    
  -1.50000000      -6.50000000       1.79999769    
  -1.50000000      -6.50000000       6.99999332    
 -0.500000000      -6.50000000       1.09999752    
 -0.500000000      -6.50000000       4.49999571    
 -0.500000000      -6.50000000       8.59999466    
  0.500000000      -6.50000000       1.59999764    
  0.500000000      -6.50000000       5.79999447    
  0.500000000      -6.50000000       9.19999695    
   1.50000000      -6.50000000       1.39999759    
   1.50000000      -6.50000000       3.89999604    
   2.50000000      -6.50000000      0.199997485    
   2.50000000      -6.50000000       3.29999661    
   3.50000000      -6.50000000       1.19999754    
   3.50000000      -6.50000000       4.99999523    
   4.50000000      -6.50000000       1.59999764    
   4.50000000      -6.50000000       3.69999623    
   5.50000000      -6.50000000       2.39999747    
   6.50000000      -6.50000000       2.79999709    
   6.50000000      -6.50000000       4.89999533    
   7.50000000      -6.50000000       2.69999719    
   7.50000000      -6.50000000       6.19999409    
   8.50000000      -6.50000000       2.89999700    
   8.50000000      -6.50000000       6.59999371    
   9.50000000      -6.50000000       2.79999709    
   9.50000000      -6.50000000       6.39999390    
   10.5000000      -6.50000000       2.19999766    
   10.5000000      -6.50000000       4.89999533    
   10.5000000      -6.50000000       7.79999256    
   11.5000000      -6.50000000       1.69999766    
   11.5000000      -6.50000000       6.99999332    
   11.5000000      -6.50000000       11.1000042    
   12.5000000      -6.50000000       1.29999757    
   12.5000000      -6.50000000       6.69999361    
   12.5000000      -6.50000000       9.69999886    
   13.5000000      -6.50000000       1.09999752    
   13.5000000      -6.50000000       7.09999323    
   13.5000000      -6.50000000       10.4000015    
   14.5000000      -6.50000000      0.699997485    
   14.5000000      -6.50000000       5.29999495    
   14.5000000      -6.50000000       11.9000072    
   15.5000000      -6.50000000      0.699997485    
   15.5000000      -6.50000000       2.99999690    
   15.5000000      -6.50000000       11.5000057    
   16.5000000      -6.50000000       1.29999757    
   16.5000000      -6.50000000       4.59999561    
  -4.50000000      -5.50000000       1.09999752    
  -3.50000000      -5.50000000      -2.51829624E-06
  -3.50000000      -5.50000000       2.29999757    
  -2.50000000      -5.50000000     -0.100002520    
  -2.50000000      -5.50000000       1.89999771    
  -2.50000000      -5.50000000       4.79999542    
  -1.50000000      -5.50000000      -1.70000279    
  -1.50000000      -5.50000000      0.299997479    
  -1.50000000      -5.50000000       5.89999437    
 -0.500000000      -5.50000000      -1.40000272    
 -0.500000000      -5.50000000      0.599997461    
 -0.500000000      -5.50000000       3.89999604    
  0.500000000      -5.50000000     -0.200002521    
  0.500000000      -5.50000000       1.79999769    
  0.500000000      -5.50000000       3.99999595    
   1.50000000      -5.50000000     -0.100002520    
   1.50000000      -5.50000000       1.89999771    
   1.50000000      -5.50000000       3.99999595    
   1.50000000      -5.50000000       6.09999418    
   2.50000000      -5.50000000      -1.60000277    
   2.50000000      -5.50000000      0.399997473    
   2.50000000      -5.50000000       3.39999652    
   2.50000000      -5.50000000       8.39999390    
   3.50000000      -5.50000000      -1.80000281    
   3.50000000      -5.50000000      0.199997485    
   3.50000000      -5.50000000       2.39999747    
   3.50000000      -5.50000000       5.99999428    
   4.50000000      -5.50000000     -0.300002515    
   4.50000000      -5.50000000       1.69999766    
   4.50000000      -5.50000000       3.79999614    
   4.50000000      -5.50000000       5.89999437    
   5.50000000      -5.50000000       1.49999762    
   5.50000000      -5.50000000       5.29999495    
   6.50000000      -5.50000000       2.79999709    
   7.50000000      -5.50000000       3.09999681    
   8.50000000      -5.50000000       3.09999681    
   9.50000000      -5.50000000       2.39999747    
   9.50000000      -5.50000000       5.29999495    
   10.5000000      -5.50000000       2.29999757    
   10.5000000      -5.50000000       5.89999437    
   11.5000000      -5.50000000       2.09999776    
   11.5000000      -5.50000000       6.59999371    
   12.5000000      -5.50000000       1.79999769    
   12.5000000      -5.50000000       6.49999380    
   13.5000000      -5.50000000       1.89999771    
   13.5000000      -5.50000000       4.19999599    
   14.5000000      -5.50000000       2.49999738    
  -3.50000000      -4.50000000       1.69999766    
  -2.50000000      -4.50000000      0.499997467    
  -2.50000000      -4.50000000       2.79999709    
  -2.50000000      -4.50000000       7.19999313    
  -1.50000000      -4.50000000      -1.50000274    
  -1.50000000      -4.50000000      0.499997467    
  -1.50000000      -4.50000000       3.79999614    
 -0.500000000      -4.50000000      -1.60000277    
 -0.500000000      -4.50000000      0.399997473    
 -0.500000000      -4.50000000       3.39999652    
 -0.500000000      -4.50000000       8.19999313    
  0.500000000      -4.50000000     -0.600002527    
  0.500000000      -4.50000000       2.39999747    
  0.500000000      -4.50000000       5.59999466    
   1.50000000      -4.50000000     -0.500002503    
   1.50000000      -4.50000000       2.49999738    
   1.50000000      -4.50000000       4.79999542    
   2.50000000      -4.50000000      -1.20000267    
   2.50000000      -4.50000000      0.799997509    
   2.50000000      -4.50000000       3.79999614    
   2.50000000      -4.50000000       8.39999390    
   3.50000000      -4.50000000      -1.40000272    
   3.50000000      -4.50000000      0.599997461    
   3.50000000      -4.50000000       3.59999633    
   3.50000000      -4.50000000       5.99999428    
   4.50000000      -4.50000000     -0.100002520    
   4.50000000      -4.50000000       1.89999771    
   4.50000000      -4.50000000       4.89999533    
   5.50000000      -4.50000000       2.19999766    
   5.50000000      -4.50000000       4.49999571    
   6.50000000      -4.50000000       2.89999700    
   6.50000000      -4.50000000       5.39999485    
   7.50000000      -4.50000000       3.09999681    
   8.50000000      -4.50000000       2.99999690    
   9.50000000      -4.50000000       2.99999690    
   10.5000000      -4.50000000       2.79999709    
   11.5000000      -4.50000000       2.49999738    
   11.5000000      -4.50000000       5.29999495    
   12.5000000      -4.50000000       3.39999652    
  -3.50000000      -3.50000000       2.69999719    
  -2.50000000      -3.50000000       1.59999764    
  -1.50000000      -3.50000000      0.699997485    
  -1.50000000      -3.50000000       3.69999623    
 -0.500000000      -3.50000000     -0.700002551    
 -0.500000000      -3.50000000       2.29999757    
 -0.500000000      -3.50000000       4.39999580    
  0.500000000      -3.50000000     -0.600002527    
  0.500000000      -3.50000000       2.39999747    
  0.500000000      -3.50000000       4.49999571    
   1.50000000      -3.50000000     -0.400002509    
   1.50000000      -3.50000000       1.59999764    
   1.50000000      -3.50000000       4.59999561    
   1.50000000      -3.50000000       7.39999294    
   2.50000000      -3.50000000     -0.400002509    
   2.50000000      -3.50000000       1.59999764    
   2.50000000      -3.50000000       4.59999561    
   3.50000000      -3.50000000     -0.400002509    
   3.50000000      -3.50000000       1.59999764    
   3.50000000      -3.50000000       4.59999561    
   4.50000000      -3.50000000      0.499997467    
   4.50000000      -3.50000000       3.49999642    
   4.50000000      -3.50000000       6.69999361    
   5.50000000      -3.50000000       1.59999764    
   5.50000000      -3.50000000       3.69999623    
   6.50000000      -3.50000000       2.29999757    
   6.50000000      -3.50000000       4.39999580    
   7.50000000      -3.50000000       2.89999700    
   7.50000000      -3.50000000       5.19999504    
   8.50000000      -3.50000000       2.69999719    
   8.50000000      -3.50000000       5.39999485    
   9.50000000      -3.50000000       2.69999719    
   10.5000000      -3.50000000       3.19999671    
   11.5000000      -3.50000000       3.59999633    
  -2.50000000      -2.50000000       2.19999766    
  -1.50000000      -2.50000000      0.799997509    
  -1.50000000      -2.50000000       2.89999700    
 -0.500000000      -2.50000000     -0.700002551    
 -0.500000000      -2.50000000       1.49999762    
 -0.500000000      -2.50000000       5.79999447    
  0.500000000      -2.50000000      -2.20000267    
  0.500000000      -2.50000000     -0.200002521    
  0.500000000      -2.50000000       1.79999769    
  0.500000000      -2.50000000       5.09999514    
   1.50000000      -2.50000000     -0.500002503    
   1.50000000      -2.50000000       2.49999738    
   1.50000000      -2.50000000       5.79999447    
   2.50000000      -2.50000000     -0.200002521    
   2.50000000      -2.50000000       1.79999769    
   2.50000000      -2.50000000       4.79999542    
   3.50000000      -2.50000000     -0.100002520    
   3.50000000      -2.50000000       1.89999771    
   3.50000000      -2.50000000       4.89999533    
   4.50000000      -2.50000000      0.499997467    
   4.50000000      -2.50000000       3.49999642    
   4.50000000      -2.50000000       7.69999266    
   5.50000000      -2.50000000       1.09999752    
   5.50000000      -2.50000000       4.09999609    
   5.50000000      -2.50000000       6.39999390    
   6.50000000      -2.50000000       1.39999759    
   6.50000000      -2.50000000       4.39999580    
   7.50000000      -2.50000000       1.59999764    
   7.50000000      -2.50000000       3.79999614    
   8.50000000      -2.50000000       1.59999764    
   8.50000000      -2.50000000       4.59999561    
   9.50000000      -2.50000000       1.69999766    
   10.5000000      -2.50000000       1.39999759    
   11.5000000      -2.50000000      0.899997532    
   12.5000000      -2.50000000      0.699997485    
   12.5000000      -2.50000000       2.99999690    
   13.5000000      -2.50000000     -0.100002520    
   14.5000000      -2.50000000     -0.200002521    
  -2.50000000      -1.50000000      0.899997532    
  -1.50000000      -1.50000000     -0.200002521    
  -1.50000000      -1.50000000       2.29999757    
  -1.50000000      -1.50000000       6.69999361    
 -0.500000000      -1.50000000      0.299997479    
 -0.500000000      -1.50000000       3.79999614    
  0.500000000      -1.50000000     -0.200002521    
  0.500000000      -1.50000000       1.89999771    
  0.500000000      -1.50000000       6.29999399    
   1.50000000      -1.50000000     -0.200002521    
   1.50000000      -1.50000000       1.79999769    
   1.50000000      -1.50000000       4.79999542    
   2.50000000      -1.50000000     -0.500002503    
   2.50000000      -1.50000000       2.49999738    
   2.50000000      -1.50000000       5.49999475    
   3.50000000      -1.50000000      -1.50000274    
   3.50000000      -1.50000000      0.499997467    
   3.50000000      -1.50000000       3.49999642    
   4.50000000      -1.50000000      -1.40000272    
   4.50000000      -1.50000000      0.599997461    
   4.50000000      -1.50000000       3.59999633    
   4.50000000      -1.50000000       15.6000214    
   5.50000000      -1.50000000      0.899997532    
   5.50000000      -1.50000000       3.89999604    
   5.50000000      -1.50000000       7.89999247    
   6.50000000      -1.50000000       1.69999766    
   6.50000000      -1.50000000       4.79999542    
   7.50000000      -1.50000000       1.89999771    
   7.50000000      -1.50000000       6.69999361    
   8.50000000      -1.50000000       2.19999766    
   9.50000000      -1.50000000       2.19999766    
   10.5000000      -1.50000000       1.69999766    
   11.5000000      -1.50000000       1.09999752    
   12.5000000      -1.50000000      0.699997485    
   13.5000000      -1.50000000      0.299997479    
  -3.50000000     -0.500000000       3.39999652    
  -2.50000000     -0.500000000      -1.40000272    
  -2.50000000     -0.500000000      0.599997461    
  -2.50000000     -0.500000000       7.99999237    
  -1.50000000     -0.500000000     -0.800002575    
  -1.50000000     -0.500000000       2.99999690    
 -0.500000000     -0.500000000       9.99974832E-02
 -0.500000000     -0.500000000       2.09999776    
 -0.500000000     -0.500000000       6.09999418    
  0.500000000     -0.500000000      0.599997461    
  0.500000000     -0.500000000       3.59999633    
   1.50000000     -0.500000000      0.799997509    
   1.50000000     -0.500000000       3.79999614    
   2.50000000     -0.500000000      0.399997473    
   2.50000000     -0.500000000       3.39999652    
   2.50000000     -0.500000000       16.6000252    
   3.50000000     -0.500000000     -0.700002551    
   3.50000000     -0.500000000       2.29999757    
   3.50000000     -0.500000000       5.29999495    
   4.50000000     -0.500000000     -0.800002575    
   4.50000000     -0.500000000       2.19999766    
   4.50000000     -0.500000000       5.19999504    
   4.50000000     -0.500000000       7.99999237    
   5.50000000     -0.500000000      0.699997485    
   5.50000000     -0.500000000       3.69999623    
   5.50000000     -0.500000000       6.49999380    
   6.50000000     -0.500000000      0.999997556    
   6.50000000     -0.500000000       3.99999595    
   7.50000000     -0.500000000      0.999997556    
   7.50000000     -0.500000000       4.09999609    
   8.50000000     -0.500000000       1.19999754    
   8.50000000     -0.500000000       7.99999237    
   9.50000000     -0.500000000       1.59999764    
  -3.50000000      0.500000000       4.89999533    
  -2.50000000      0.500000000      -1.60000277    
  -2.50000000      0.500000000       2.29999757    
  -1.50000000      0.500000000     -0.600002527    
  -1.50000000      0.500000000       2.29999757    
 -0.500000000      0.500000000      0.299997479    
 -0.500000000      0.500000000       2.49999738    
 -0.500000000      0.500000000       17.1000271    
  0.500000000      0.500000000      0.899997532    
  0.500000000      0.500000000       3.89999604    
  0.500000000      0.500000000       7.29999304    
   1.50000000      0.500000000      0.999997556    
   1.50000000      0.500000000       3.99999595    
   2.50000000      0.500000000      0.299997479    
   2.50000000      0.500000000       3.29999661    
   3.50000000      0.500000000      0.599997461    
   3.50000000      0.500000000       3.59999633    
   3.50000000      0.500000000       5.79999447    
   4.50000000      0.500000000      0.699997485    
   4.50000000      0.500000000       3.69999623    
   4.50000000      0.500000000       6.09999418    
   5.50000000      0.500000000      0.899997532    
   5.50000000      0.500000000       3.89999604    
   5.50000000      0.500000000       7.19999313    
   6.50000000      0.500000000      0.399997473    
   6.50000000      0.500000000       3.39999652    
   6.50000000      0.500000000       7.09999323    
   7.50000000      0.500000000      0.199997485    
   7.50000000      0.500000000       2.19999766    
   7.50000000      0.500000000       4.99999523    
   8.50000000      0.500000000       9.99974832E-02
   8.50000000      0.500000000       2.09999776    
   8.50000000      0.500000000       9.89999962    
   9.50000000      0.500000000       9.99974832E-02
   9.50000000      0.500000000       2.09999776    
   9.50000000      0.500000000       4.69999552    
   10.5000000      0.500000000      0.599997461    
   11.5000000      0.500000000       2.09999776    
  -1.50000000       1.50000000       2.89999700    
 -0.500000000       1.50000000       1.99999774    
  0.500000000       1.50000000       1.29999757    
  0.500000000       1.50000000       4.29999590    
   1.50000000       1.50000000       1.19999754    
   1.50000000       1.50000000       4.19999599    
   2.50000000       1.50000000      0.799997509    
   2.50000000       1.50000000       3.79999614    
   3.50000000       1.50000000      0.499997467    
   3.50000000       1.50000000       3.49999642    
   3.50000000       1.50000000       5.99999428    
   4.50000000       1.50000000       1.69999766    
   4.50000000       1.50000000       4.69999552    
   5.50000000       1.50000000       1.89999771    
   5.50000000       1.50000000       3.99999595    
   6.50000000       1.50000000       1.29999757    
   6.50000000       1.50000000       3.49999642    
   7.50000000       1.50000000      0.399997473    
   7.50000000       1.50000000       3.79999614    
   7.50000000       1.50000000       14.5000172    
   8.50000000       1.50000000     -0.300002515    
   8.50000000       1.50000000       1.69999766    
   8.50000000       1.50000000       10.5000019    
   9.50000000       1.50000000     -0.700002551    
   9.50000000       1.50000000       2.89999700    
   10.5000000       1.50000000     -0.800002575    
   10.5000000       1.50000000       4.99999523    
   11.5000000       1.50000000     -0.500002503    
   11.5000000       1.50000000       2.49999738    
  -1.50000000       2.50000000       3.09999681    
 -0.500000000       2.50000000       2.59999728    
  0.500000000       2.50000000       1.39999759    
  0.500000000       2.50000000       4.49999571    
   1.50000000       2.50000000      0.999997556    
   1.50000000       2.50000000       3.99999595    
   2.50000000       2.50000000      0.899997532    
   2.50000000       2.50000000       3.89999604    
   3.50000000       2.50000000      0.299997479    
   3.50000000       2.50000000       3.29999661    
   3.50000000       2.50000000       5.79999447    
   4.50000000       2.50000000      0.799997509    
   4.50000000       2.50000000       3.79999614    
   4.50000000       2.50000000       6.89999342    
   5.50000000       2.50000000       1.59999764    
   5.50000000       2.50000000       3.69999623    
   6.50000000       2.50000000       1.59999764    
   6.50000000       2.50000000       4.89999533    
   7.50000000       2.50000000       1.09999752    
   7.50000000       2.50000000       4.89999533    
   8.50000000       2.50000000      0.499997467    
   8.50000000       2.50000000       3.99999595    
   9.50000000       2.50000000     -0.300002515    
   9.50000000       2.50000000       2.29999757    
   9.50000000       2.50000000       6.19999409    
   10.5000000       2.50000000     -0.800002575    
   10.5000000       2.50000000       1.79999769    
   10.5000000       2.50000000       6.19999409    
   11.5000000       2.50000000      -1.60000277    
   11.5000000       2.50000000      0.399997473    
   12.5000000       2.50000000       1.09999752    
   12.5000000       2.50000000       5.19999504    
  -2.50000000       3.50000000       3.89999604    
  -1.50000000       3.50000000       2.19999766    
  -1.50000000       3.50000000       5.09999514    
 -0.500000000       3.50000000       1.19999754    
 -0.500000000       3.50000000       3.39999652    
 -0.500000000       3.50000000       6.79999352    
  0.500000000       3.50000000      0.499997467    
  0.500000000       3.50000000       3.49999642    
  0.500000000       3.50000000       7.79999256    
   1.50000000       3.50000000      0.299997479    
   1.50000000       3.50000000       3.29999661    
   1.50000000       3.50000000       6.59999371    
   2.50000000       3.50000000      0.299997479    
   2.50000000       3.50000000       3.29999661    
   2.50000000       3.50000000       5.59999466    
   3.50000000       3.50000000      0.499997467    
   3.50000000       3.50000000       3.49999642    
   3.50000000       3.50000000       5.69999456    
   3.50000000       3.50000000       15.2000198    
   4.50000000       3.50000000     -0.500002503    
   4.50000000       3.50000000       2.49999738    
   4.50000000       3.50000000       6.19999409    
   5.50000000       3.50000000      0.399997473    
   5.50000000       3.50000000       3.59999633    
   5.50000000       3.50000000       7.39999294    
   6.50000000       3.50000000       1.19999754    
   6.50000000       3.50000000       4.49999571    
   7.50000000       3.50000000       1.59999764    
   7.50000000       3.50000000       5.89999437    
   8.50000000       3.50000000       1.89999771    
   8.50000000       3.50000000       4.49999571    
   9.50000000       3.50000000       1.59999764    
   9.50000000       3.50000000       4.79999542    
   10.5000000       3.50000000       2.59999728    
   11.5000000       3.50000000       4.79999542    
   12.5000000       3.50000000       4.99999523    
  -3.50000000       4.50000000       5.89999437    
  -2.50000000       4.50000000       4.19999599    
  -1.50000000       4.50000000       2.19999766    
  -1.50000000       4.50000000       6.09999418    
 -0.500000000       4.50000000      0.699997485    
 -0.500000000       4.50000000       4.09999609    
  0.500000000       4.50000000       9.99974832E-02
  0.500000000       4.50000000       2.09999776    
  0.500000000       4.50000000       5.19999504    
   1.50000000       4.50000000      -2.51829624E-06
   1.50000000       4.50000000       1.99999774    
   1.50000000       4.50000000       4.29999590    
   1.50000000       4.50000000       7.89999247    
   2.50000000       4.50000000      0.199997485    
   2.50000000       4.50000000       2.19999766    
   2.50000000       4.50000000       4.29999590    
   2.50000000       4.50000000       6.69999361    
   3.50000000       4.50000000       1.29999757    
   3.50000000       4.50000000       4.29999590    
   3.50000000       4.50000000       7.79999256    
   4.50000000       4.50000000     -0.300002515    
   4.50000000       4.50000000       1.79999769    
   4.50000000       4.50000000       5.39999485    
   4.50000000       4.50000000       10.1000004    
   5.50000000       4.50000000     -0.600002527    
   5.50000000       4.50000000       4.09999609    
   5.50000000       4.50000000       7.99999237    
   6.50000000       4.50000000      -2.51829624E-06
   6.50000000       4.50000000       2.99999690    
   6.50000000       4.50000000       5.49999475    
   6.50000000       4.50000000       12.0000076    
   7.50000000       4.50000000       2.29999757    
   7.50000000       4.50000000       6.19999409    
   8.50000000       4.50000000       2.09999776    
   8.50000000       4.50000000       6.09999418    
   9.50000000       4.50000000       4.79999542    
   11.5000000       4.50000000       6.69999361    
   12.5000000       4.50000000       6.99999332    
  -2.50000000       5.50000000       4.69999552    
  -1.50000000       5.50000000       1.69999766    
 -0.500000000       5.50000000      0.199997485    
 -0.500000000       5.50000000       2.19999766    
 -0.500000000       5.50000000       13.7000141    
  0.500000000       5.50000000     -0.400002509    
  0.500000000       5.50000000       1.59999764    
  0.500000000       5.50000000       7.09999323    
   1.50000000       5.50000000     -0.300002515    
   1.50000000       5.50000000       1.69999766    
   1.50000000       5.50000000       5.29999495    
   1.50000000       5.50000000       11.5000057    
   2.50000000       5.50000000      0.599997461    
   2.50000000       5.50000000       3.69999623    
   2.50000000       5.50000000       6.59999371    
   3.50000000       5.50000000       1.69999766    
   3.50000000       5.50000000       4.29999590    
   4.50000000       5.50000000       1.29999757    
   4.50000000       5.50000000       5.29999495    
   5.50000000       5.50000000     -0.800002575    
   5.50000000       5.50000000       2.49999738    
   5.50000000       5.50000000       5.39999485    
   5.50000000       5.50000000       9.19999695    
   6.50000000       5.50000000      -1.10000265    
   6.50000000       5.50000000       1.69999766    
   6.50000000       5.50000000       6.99999332    
   7.50000000       5.50000000       9.99974832E-02
   7.50000000       5.50000000       4.99999523    
   7.50000000       5.50000000       8.29999352    
   8.50000000       5.50000000       6.69999361    
   9.50000000       5.50000000       5.49999475    
  -1.50000000       6.50000000       1.49999762    
 -0.500000000       6.50000000     -0.300002515    
 -0.500000000       6.50000000       1.69999766    
  0.500000000       6.50000000     -0.700002551    
  0.500000000       6.50000000       2.29999757    
  0.500000000       6.50000000       10.0000000    
   1.50000000       6.50000000     -0.400002509    
   1.50000000       6.50000000       1.59999764    
   1.50000000       6.50000000       7.69999266    
   2.50000000       6.50000000      0.699997485    
   2.50000000       6.50000000       2.79999709    
   2.50000000       6.50000000       6.99999332    
   3.50000000       6.50000000       2.69999719    
   4.50000000       6.50000000       3.59999633    
   5.50000000       6.50000000       2.39999747    
   5.50000000       6.50000000       4.99999523    
   5.50000000       6.50000000       7.89999247    
   6.50000000       6.50000000      -1.70000279    
   6.50000000       6.50000000      0.299997479    
   7.50000000       6.50000000     -0.700002551    
   7.50000000       6.50000000       6.09999418    
   8.50000000       6.50000000       6.29999399    
  -1.50000000       7.50000000       1.29999757    
 -0.500000000       7.50000000     -0.700002551    
 -0.500000000       7.50000000       4.29999590    
  0.500000000       7.50000000     -0.800002575    
  0.500000000       7.50000000       4.99999523    
   1.50000000       7.50000000     -0.400002509    
   1.50000000       7.50000000       1.59999764    
   1.50000000       7.50000000       5.19999504    
   1.50000000       7.50000000       8.59999466    
   2.50000000       7.50000000      0.899997532    
   2.50000000       7.50000000       6.19999409    
   3.50000000       7.50000000       4.49999571    
   6.50000000       7.50000000       3.89999604    
  -1.50000000       8.50000000      0.599997461    
  -1.50000000       8.50000000       9.29999733    
 -0.500000000       8.50000000      -1.00000262    
 -0.500000000       8.50000000       1.09999752    
  0.500000000       8.50000000      -1.00000262    
  0.500000000       8.50000000       1.09999752    
  0.500000000       8.50000000       4.59999561    
   1.50000000       8.50000000     -0.300002515    
   1.50000000       8.50000000       1.69999766    
   2.50000000       8.50000000       2.19999766    
  -1.50000000       9.50000000       1.29999757    
  -1.50000000       9.50000000       3.39999652    
  -1.50000000       9.50000000       8.39999390    
 -0.500000000       9.50000000      -1.70000279    
 -0.500000000       9.50000000      0.299997479    
  0.500000000       9.50000000     -0.800002575    
  0.500000000       9.50000000       2.59999728    
   1.50000000       9.50000000      0.199997485    
   1.50000000       9.50000000       4.29999590    
   2.50000000       9.50000000       2.09999776    
  -5.50000000       10.5000000       5.59999466    
  -5.50000000       10.5000000       10.2000008    
  -4.50000000       10.5000000       9.69999886    
  -4.50000000       10.5000000       11.8000069    
   9.50000000       10.5000000       5.59999466    
   9.50000000       10.5000000       11.6000061    
   11.5000000       10.5000000       9.29999733    
   13.5000000       10.5000000       10.8000031    
   6.50000000       11.5000000       6.79999352    
   6.50000000       11.5000000       14.3000164    
  -1.50000000       12.5000000      0.599997461    
  -1.50000000       12.5000000       11.1000042    
  -1.50000000       12.5000000       13.2000122    
