  iter=           1  dtot_p=  0.166215435      red=   0.00000000    
  iter=           1  dtot_s=  0.234539777      red=   0.00000000    
 ___________________________________________________
  iter=           2  dtot_p=  0.114503860      red=   31.1111736    
  iter=           2  dtot_s=  0.142211199      red=   39.3658485    
 ___________________________________________________
  iter=           3  dtot_p=  0.109613158      red=   34.0535622    
  iter=           3  dtot_s=  0.136663586      red=   41.7311668    
 ___________________________________________________
  nsrces=        4090  nray_p=       27014  nray_s=       22827
