  -5.50000000      -17.5000000       11.9000072     -0.537330031       3.37942886    
  -4.50000000      -17.5000000       12.9000111     -0.347320616       3.41371465    
  -3.50000000      -17.5000000       14.8000183      -21.6733456       3.47885776    
  -6.50000000      -16.5000000       12.7000103     -0.211909086       3.40685749    
  -5.50000000      -16.5000000       11.7000065      0.330762148       3.37257171    
  -4.50000000      -16.5000000       11.8000069       3.49780917E-02   3.37600017    
  -4.50000000      -16.5000000       13.9000149      -1.86946280E-02   3.44800043    
  -3.50000000      -16.5000000       12.1000080      0.212381274       3.38628602    
  -2.50000000      -16.5000000       12.8000107     -0.387860119       3.41028619    
  -2.50000000      -16.5000000       15.3000202      -5.40319681       3.49600077    
  -1.50000000      -16.5000000       14.8000183      -9.07290649       3.47885776    
  -6.50000000      -15.5000000       12.1000080     -0.283813953       3.38628602    
  -5.50000000      -15.5000000       10.5000019      0.301744163       3.33142877    
  -5.50000000      -15.5000000       13.1000118      0.502955198       3.42057180    
  -4.50000000      -15.5000000       10.8000031     -0.727719307       3.34171438    
  -4.50000000      -15.5000000       12.8000107      -1.69546342       3.41028619    
  -3.50000000      -15.5000000       10.5000019      0.285649657       3.33142877    
  -3.50000000      -15.5000000       12.5000095      0.300906062       3.40000033    
  -2.50000000      -15.5000000       13.0000114     -0.294612318       3.41714334    
  -1.50000000      -15.5000000       14.0000153      -13.1599417       3.45142913    
  -9.50000000      -14.5000000       15.7000217      -3.10015250E-02   3.50971508    
  -8.50000000      -14.5000000       12.5000095      0.431915611       3.40000033    
  -8.50000000      -14.5000000       14.9000187     -0.465398133       3.48228645    
  -7.50000000      -14.5000000       12.0000076     -0.371634930       3.38285732    
  -6.50000000      -14.5000000       12.1000080     -0.281970769       3.38628602    
  -5.50000000      -14.5000000       9.69999886     -0.229681790       3.30399990    
  -5.50000000      -14.5000000       11.7000065       1.29857004       3.37257171    
  -4.50000000      -14.5000000       9.89999962     -0.247019798       3.31085706    
  -4.50000000      -14.5000000       12.3000088      -1.55398858       3.39314318    
  -3.50000000      -14.5000000       10.1000004      0.259818673       3.31771445    
  -3.50000000      -14.5000000       12.1000080      -1.29042149       3.38628602    
  -2.50000000      -14.5000000       11.1000042      0.100069180       3.35200024    
  -2.50000000      -14.5000000       13.3000126     -0.433441699       3.42742896    
  -1.50000000      -14.5000000       12.9000111      -5.25461817       3.41371465    
 -0.500000000      -14.5000000       13.0000114      -6.77183580       3.41714334    
   4.50000000      -14.5000000       9.49999809     -0.676521420       3.29714274    
   5.50000000      -14.5000000       8.59999466      -1.27323461       3.26628542    
   6.50000000      -14.5000000       8.49999428      0.832767725       3.26285696    
  -9.50000000      -13.5000000       13.9000149     -0.236692250       3.44800043    
  -8.50000000      -13.5000000       12.6000099      0.682025552       3.40342903    
  -7.50000000      -13.5000000       12.1000080     -0.502510309       3.38628602    
  -6.50000000      -13.5000000       10.4000015      -4.25336137E-02   3.32800007    
  -5.50000000      -13.5000000       7.59999275     -0.502445698       3.23199964    
  -5.50000000      -13.5000000       9.89999962      0.896678567       3.31085706    
  -5.50000000      -13.5000000       12.1000080      0.854317069       3.38628602    
  -4.50000000      -13.5000000       10.1000004     -0.929553151       3.31771445    
  -4.50000000      -13.5000000       12.8000107     -0.470771044       3.41028619    
  -3.50000000      -13.5000000       9.19999695      0.185934842       3.28685713    
  -3.50000000      -13.5000000       12.2000084      -1.75747371       3.38971472    
  -2.50000000      -13.5000000       8.39999390     -0.554407835       3.25942826    
  -2.50000000      -13.5000000       10.7000027       9.95420218E-02   3.33828592    
  -2.50000000      -13.5000000       12.9000111     -0.278899193       3.41371465    
  -1.50000000      -13.5000000       10.9000034      0.885095060       3.34514308    
  -1.50000000      -13.5000000       12.9000111     -0.805952609       3.41371465    
 -0.500000000      -13.5000000       11.1000042      -11.3793926       3.35200024    
   7.50000000      -13.5000000       8.09999275       3.12325060E-02   3.24914265    
   8.50000000      -13.5000000       6.99999332      0.160984114       3.21142840    
   9.50000000      -13.5000000       6.49999380      0.274498105       3.19428539    
   18.5000000      -13.5000000       14.9000187      0.244518012       3.48228645    
  -9.50000000      -12.5000000       14.8000183     -0.254787832       3.47885776    
  -8.50000000      -12.5000000       12.3000088     -0.611974776       3.39314318    
  -7.50000000      -12.5000000       9.59999847      0.597440958       3.30057144    
  -7.50000000      -12.5000000       12.4000092     -0.125685737       3.39657187    
  -6.50000000      -12.5000000       10.7000027      -1.40245545       3.33828592    
  -6.50000000      -12.5000000       12.8000107      0.401895046       3.41028619    
  -5.50000000      -12.5000000       6.39999390     -0.488023043       3.19085693    
  -5.50000000      -12.5000000       9.29999733       1.16938257       3.29028559    
  -5.50000000      -12.5000000       11.6000061      0.697981417       3.36914301    
  -4.50000000      -12.5000000       8.49999428     -0.381931454       3.26285696    
  -4.50000000      -12.5000000       11.0000038     -0.220874429       3.34857154    
  -3.50000000      -12.5000000       7.89999247     -0.468499541       3.24228549    
  -3.50000000      -12.5000000       11.8000069      -1.29474783       3.37600017    
  -2.50000000      -12.5000000       8.19999313     -0.197721452       3.25257111    
  -2.50000000      -12.5000000       10.8000031     -0.899977207       3.34171438    
  -2.50000000      -12.5000000       13.2000122     -0.255018383       3.42400050    
  -1.50000000      -12.5000000       7.59999275      0.136273280       3.23199964    
  -1.50000000      -12.5000000       9.79999924     -0.741315067       3.30742860    
  -1.50000000      -12.5000000       11.9000072      -5.63701577E-02   3.37942886    
 -0.500000000      -12.5000000       9.89999962      -2.79874706       3.31085706    
 -0.500000000      -12.5000000       12.6000099      -1.79197311       3.40342903    
  0.500000000      -12.5000000       12.3000088      -4.86061287       3.39314318    
   4.50000000      -12.5000000       4.09999609     -0.877013266       3.11199975    
   6.50000000      -12.5000000       8.59999466      -1.29553580       3.26628542    
   9.50000000      -12.5000000       5.69999456      0.405390710       3.16685700    
   10.5000000      -12.5000000       6.19999409     -0.250379741       3.18399978    
   11.5000000      -12.5000000       5.69999456      -9.40467641E-02   3.16685700    
   12.5000000      -12.5000000       4.89999533      -1.15951002E-02   3.13942838    
   13.5000000      -12.5000000       5.09999514     -0.371777713       3.14628553    
  -8.50000000      -11.5000000       13.4000130     -0.956148624       3.43085766    
  -7.50000000      -11.5000000       8.29999352      0.902128279       3.25599980    
  -7.50000000      -11.5000000       10.4000015     -0.418221712       3.32800007    
  -7.50000000      -11.5000000       13.6000137     -0.757257700       3.43771482    
  -6.50000000      -11.5000000       8.39999390      -1.25465310       3.25942826    
  -6.50000000      -11.5000000       11.7000065      0.501746655       3.37257171    
  -5.50000000      -11.5000000       4.79999542     -0.770213068       3.13599968    
  -5.50000000      -11.5000000       9.49999809       1.46527421       3.29714274    
  -5.50000000      -11.5000000       13.0000114     -0.431932539       3.41714334    
  -4.50000000      -11.5000000       7.39999294      -8.61856341E-02   3.22514248    
  -4.50000000      -11.5000000       9.69999886      0.467368901       3.30399990    
  -4.50000000      -11.5000000       12.3000088      -1.09601700       3.39314318    
  -3.50000000      -11.5000000       6.49999380     -0.223003358       3.19428539    
  -3.50000000      -11.5000000       10.7000027     -0.376570374       3.33828592    
  -2.50000000      -11.5000000       6.09999418     -0.915724516       3.18057108    
  -2.50000000      -11.5000000       9.39999771      -2.06355262       3.29371428    
  -1.50000000      -11.5000000       7.19999313     -0.379154623       3.21828556    
  -1.50000000      -11.5000000       10.3000011      -1.13228083       3.32457161    
  -1.50000000      -11.5000000       12.7000103      -7.87283629E-02   3.40685749    
 -0.500000000      -11.5000000       7.89999247       2.46056598E-02   3.24228549    
 -0.500000000      -11.5000000       10.5000019     -0.893367589       3.33142877    
 -0.500000000      -11.5000000       12.5000095      -1.48426914       3.40000033    
  0.500000000      -11.5000000       8.89999580      -5.43159485       3.27657127    
  0.500000000      -11.5000000       11.8000069      -4.97277069       3.37600017    
   1.50000000      -11.5000000       10.4000015      -1.92299378       3.32800007    
   4.50000000      -11.5000000       2.49999738     -0.482286215       3.05714273    
   8.50000000      -11.5000000       6.79999352     -0.671991110       3.20457125    
   9.50000000      -11.5000000       8.39999390     -0.237036318       3.25942826    
   10.5000000      -11.5000000       6.09999418     -0.262997657       3.18057108    
   11.5000000      -11.5000000       6.09999418     -0.788540840       3.18057108    
   12.5000000      -11.5000000       4.99999523     -0.243913710       3.14285684    
   13.5000000      -11.5000000       4.79999542      0.635108709       3.13599968    
   14.5000000      -11.5000000       3.79999614      0.740180135       3.10171413    
   15.5000000      -11.5000000       2.99999690      0.450203776       3.07428551    
   16.5000000      -11.5000000       2.49999738     -0.362400353       3.05714273    
  -7.50000000      -10.5000000       8.89999580       2.98313703E-02   3.27657127    
  -7.50000000      -10.5000000       11.3000050     -0.402053833       3.35885739    
  -7.50000000      -10.5000000       13.5000134      0.252149791       3.43428612    
  -6.50000000      -10.5000000       5.49999475      0.635446250       3.15999985    
  -6.50000000      -10.5000000       7.99999237     -0.317921221       3.24571395    
  -6.50000000      -10.5000000       12.1000080      0.160662323       3.38628602    
  -5.50000000      -10.5000000       2.99999690     -0.898029029       3.07428551    
  -5.50000000      -10.5000000       8.19999313      0.738255799       3.25257111    
  -5.50000000      -10.5000000       10.4000015       1.09780669       3.32800007    
  -4.50000000      -10.5000000       5.79999447     -0.273896545       3.17028546    
  -4.50000000      -10.5000000       8.19999313       1.60448265       3.25257111    
  -4.50000000      -10.5000000       10.9000034      0.456897885       3.34514308    
  -4.50000000      -10.5000000       14.2000160     -0.543884933       3.45828629    
  -3.50000000      -10.5000000       6.09999418     -0.880441487       3.18057108    
  -3.50000000      -10.5000000       8.39999390       1.19020641       3.25942826    
  -3.50000000      -10.5000000       11.5000057     -0.221567184       3.36571455    
  -3.50000000      -10.5000000       13.6000137      -1.19136584       3.43771482    
  -2.50000000      -10.5000000       4.99999523      -9.61123481E-02   3.14285684    
  -2.50000000      -10.5000000       8.29999352     -0.122711033       3.25599980    
  -2.50000000      -10.5000000       11.3000050      0.838409305       3.35885739    
  -1.50000000      -10.5000000       6.89999342      -2.11700749       3.20799971    
  -1.50000000      -10.5000000       9.59999847      0.415061682       3.30057144    
 -0.500000000      -10.5000000       4.29999590     -0.969651043       3.11885691    
 -0.500000000      -10.5000000       8.69999504      0.323485255       3.26971412    
 -0.500000000      -10.5000000       11.4000053      -1.24116504       3.36228585    
  0.500000000      -10.5000000       4.89999533      0.617733300       3.13942838    
  0.500000000      -10.5000000       8.29999352      -3.81747460       3.25599980    
  0.500000000      -10.5000000       10.8000031      -3.00102329       3.34171438    
   1.50000000      -10.5000000       5.09999514     -0.666342258       3.14628553    
   1.50000000      -10.5000000       9.79999924      -5.49749041       3.30742860    
   2.50000000      -10.5000000       6.09999418      -1.39511693       3.18057108    
   3.50000000      -10.5000000       6.69999361     -0.287536293       3.20114255    
   4.50000000      -10.5000000       2.49999738      -2.31629944       3.05714273    
   4.50000000      -10.5000000       6.69999361      0.179407716       3.20114255    
   7.50000000      -10.5000000       6.89999342       1.49274743       3.20799971    
   8.50000000      -10.5000000       6.89999342     -0.258952200       3.20799971    
   9.50000000      -10.5000000       5.89999437      0.570098698       3.17371416    
   10.5000000      -10.5000000       6.19999409      -1.08802032       3.18399978    
   11.5000000      -10.5000000       5.99999428     -0.395258963       3.17714262    
   12.5000000      -10.5000000       5.69999456      0.959684908       3.16685700    
   13.5000000      -10.5000000       3.89999604       2.54691914E-02   3.10514259    
   13.5000000      -10.5000000       9.29999733       1.99704242       3.29028559    
   14.5000000      -10.5000000       3.29999661      0.207659274       3.08457112    
   14.5000000      -10.5000000       10.3000011      0.967191100       3.32457161    
   15.5000000      -10.5000000       2.09999776      0.130538136       3.04342842    
   15.5000000      -10.5000000       10.9000034      0.585938573       3.34514308    
   16.5000000      -10.5000000       1.29999757     -0.146393299       3.01599979    
   16.5000000      -10.5000000       8.69999504       1.52749217       3.26971412    
   17.5000000      -10.5000000       1.19999754      0.622308612       3.01257110    
   18.5000000      -10.5000000      0.299997479      0.244273543       2.98171401    
   19.5000000      -10.5000000     -0.100002520     -0.149249136       2.97142839    
   20.5000000      -10.5000000     -0.300002515      0.117388785       2.97142839    
  -6.50000000      -9.50000000       5.09999514      -2.55738571E-02   3.14628553    
  -5.50000000      -9.50000000       5.39999485       1.11943722       3.15657115    
  -4.50000000      -9.50000000       8.19999313      0.150804549       3.25257111    
  -3.50000000      -9.50000000       9.39999771      -1.06789887       3.29371428    
  -2.50000000      -9.50000000       4.59999561     -0.827432871       3.12914252    
  -2.50000000      -9.50000000       8.59999466     -0.172105134       3.26628542    
  -1.50000000      -9.50000000       5.69999456      0.103831768       3.16685700    
 -0.500000000      -9.50000000       6.39999390      -3.47060537       3.19085693    
  0.500000000      -9.50000000       4.99999523      -1.74715281       3.14285684    
  0.500000000      -9.50000000       8.59999466      -1.31149483       3.26628542    
   1.50000000      -9.50000000       7.89999247      -10.9316597       3.24228549    
   3.50000000      -9.50000000       7.59999275      -2.10664845       3.23199964    
   13.5000000      -9.50000000       4.79999542     -0.381070822       3.13599968    
   14.5000000      -9.50000000       3.99999595     -0.552358031       3.10857129    
   15.5000000      -9.50000000       2.69999719      0.970647216       3.06399989    
   16.5000000      -9.50000000       1.19999754      0.615496933       3.01257110    
   17.5000000      -9.50000000      -2.51829624E-06  0.380733550       2.97142839    
   17.5000000      -9.50000000       2.09999776      0.498349518       3.04342842    
   17.5000000      -9.50000000       4.89999533      -1.24049830       3.13942838    
   18.5000000      -9.50000000     -0.600002527      0.702134609       2.97142839    
   18.5000000      -9.50000000       2.89999700     -0.625293076       3.07085681    
   19.5000000      -9.50000000     -0.800002575      0.308060646       2.97142839    
   19.5000000      -9.50000000       2.29999757     -0.133472636       3.05028558    
   20.5000000      -9.50000000     -0.800002575       1.12246108       2.97142839    
   20.5000000      -9.50000000       1.29999757      0.406314164       3.01599979    
  -6.50000000      -8.50000000       8.49999428      -3.95317972E-02   3.26285696    
  -5.50000000      -8.50000000       9.99974832E-02  0.708019912       2.97485685    
  -5.50000000      -8.50000000       8.79999542       1.37183571       3.27314281    
  -4.50000000      -8.50000000      0.799997509      0.981759071       2.99885678    
  -4.50000000      -8.50000000       7.29999304      0.615459979       3.22171402    
  -3.50000000      -8.50000000      0.599997461      -1.80275977       2.99199986    
  -3.50000000      -8.50000000       3.69999623      0.260397017       3.09828544    
  -3.50000000      -8.50000000       9.19999695      0.417943567       3.28685713    
  -2.50000000      -8.50000000       1.59999764     -0.683516204       3.02628541    
  -2.50000000      -8.50000000       3.69999623      -7.34980702E-02   3.09828544    
  -2.50000000      -8.50000000       8.69999504       1.40473056       3.26971412    
  -1.50000000      -8.50000000       2.69999719     -0.815958619       3.06399989    
  -1.50000000      -8.50000000       4.79999542     -0.789359987       3.13599968    
  -1.50000000      -8.50000000       8.69999504     -0.207533538       3.26971412    
 -0.500000000      -8.50000000       3.09999681      0.797396481       3.07771397    
 -0.500000000      -8.50000000       6.29999399      0.655639827       3.18742824    
  0.500000000      -8.50000000       3.09999681      -1.01947165       3.07771397    
  0.500000000      -8.50000000       6.49999380      -5.03355932       3.19428539    
   1.50000000      -8.50000000       2.89999700      -8.61461830       3.07085681    
   2.50000000      -8.50000000       4.99999523      -1.97788489       3.14285684    
   3.50000000      -8.50000000       4.69999552      0.618106663       3.13257122    
   4.50000000      -8.50000000       4.19999599      0.616563559       3.11542845    
   5.50000000      -8.50000000       3.39999652      -1.18437076       3.08799982    
   6.50000000      -8.50000000       3.99999595     -0.298261285       3.10857129    
   7.50000000      -8.50000000       5.59999466      0.339784563       3.16342831    
   9.50000000      -8.50000000       5.79999447      -1.84909320       3.17028546    
   10.5000000      -8.50000000       5.09999514     -0.386514872       3.14628553    
   11.5000000      -8.50000000       4.39999580       8.29664096E-02   3.12228537    
   12.5000000      -8.50000000       2.99999690       1.22830629       3.07428551    
   12.5000000      -8.50000000       7.59999275       6.64798915E-02   3.23199964    
   13.5000000      -8.50000000       1.89999771       2.01197338       3.03657126    
   13.5000000      -8.50000000       6.99999332     -0.596246839       3.21142840    
   14.5000000      -8.50000000      0.899997532      0.847193658       3.00228548    
   14.5000000      -8.50000000       6.69999361       1.11665905       3.20114255    
   15.5000000      -8.50000000      0.399997473      0.367429912       2.98514271    
   15.5000000      -8.50000000       5.59999466     -0.980116189       3.16342831    
   16.5000000      -8.50000000       9.99974832E-02  0.260711163       2.97485685    
   16.5000000      -8.50000000       2.09999776     -0.250995606       3.04342842    
   16.5000000      -8.50000000       6.59999371      -1.11283803       3.19771409    
   17.5000000      -8.50000000     -0.500002503     -0.634480834       2.97142839    
   17.5000000      -8.50000000       2.59999728     -0.656485677       3.06057119    
   18.5000000      -8.50000000     -0.700002551      0.453246295       2.97142839    
   18.5000000      -8.50000000       2.39999747      0.255874485       3.05371404    
   19.5000000      -8.50000000     -0.600002527       2.07778025       2.97142839    
   19.5000000      -8.50000000       3.29999661     -0.640077472       3.08457112    
   20.5000000      -8.50000000      -2.51829624E-06   1.06511223       2.97142839    
  -6.50000000      -7.50000000       1.99999774      0.664821804       3.03999972    
  -6.50000000      -7.50000000       8.29999352      0.962988377       3.25599980    
  -5.50000000      -7.50000000      -1.60000277      -4.81804562       2.97142839    
  -5.50000000      -7.50000000      0.399997473      -3.99644947       2.98514271    
  -4.50000000      -7.50000000     -0.900002599      -3.04692984       2.97142839    
  -4.50000000      -7.50000000       1.19999754       2.29951024       3.01257110    
  -4.50000000      -7.50000000       7.19999313      -1.19525492       3.21828556    
  -3.50000000      -7.50000000     -0.600002527       1.47442186       2.97142839    
  -3.50000000      -7.50000000       4.29999590       1.32333672       3.11885691    
  -3.50000000      -7.50000000       8.99999619     -0.752098143       3.27999997    
  -2.50000000      -7.50000000      0.399997473      0.546389461       2.98514271    
  -2.50000000      -7.50000000       2.89999700       9.45740640E-02   3.07085681    
  -2.50000000      -7.50000000       6.89999342      -2.38197684       3.20799971    
  -1.50000000      -7.50000000       1.09999752     -0.507247090       3.00914264    
  -1.50000000      -7.50000000       5.19999504      0.180143386       3.14971399    
  -1.50000000      -7.50000000       10.1000004     -0.321534395       3.31771445    
 -0.500000000      -7.50000000       2.19999766      0.403370321       3.04685688    
 -0.500000000      -7.50000000       5.49999475      -1.11186767       3.15999985    
  0.500000000      -7.50000000       2.49999738      -1.48148346       3.05714273    
  0.500000000      -7.50000000       5.69999456      -4.29679775       3.16685700    
   1.50000000      -7.50000000       2.29999757      -9.02276039       3.05028558    
   2.50000000      -7.50000000       3.29999661       1.12930846       3.08457112    
   3.50000000      -7.50000000       4.19999599       1.43913889       3.11542845    
   4.50000000      -7.50000000       4.29999590      -1.96861088       3.11885691    
   5.50000000      -7.50000000       4.39999580      -1.37758052       3.12228537    
   6.50000000      -7.50000000       4.89999533      0.125001609       3.13942838    
   7.50000000      -7.50000000       4.99999523      -1.22696900       3.14285684    
   8.50000000      -7.50000000       4.99999523      -1.33853352       3.14285684    
   9.50000000      -7.50000000       3.29999661      0.566680372       3.08457112    
   9.50000000      -7.50000000       6.59999371       1.13149440       3.19771409    
   10.5000000      -7.50000000       2.69999719      0.741423547       3.06399989    
   10.5000000      -7.50000000       4.79999542      0.411914647       3.13599968    
   10.5000000      -7.50000000       10.6000023      0.331679493       3.33485723    
   11.5000000      -7.50000000       2.39999747     -0.118887916       3.05371404    
   11.5000000      -7.50000000       7.89999247     -0.671683192       3.24228549    
   12.5000000      -7.50000000       1.59999764      -1.17054343       3.02628541    
   12.5000000      -7.50000000       3.79999614     -0.622807384       3.10171413    
   12.5000000      -7.50000000       8.49999428     -0.100363076       3.26285696    
   13.5000000      -7.50000000       1.09999752      -1.07619536       3.00914264    
   13.5000000      -7.50000000       7.69999266     -0.945632815       3.23542833    
   13.5000000      -7.50000000       12.0000076      0.480926126       3.38285732    
   14.5000000      -7.50000000      0.699997485       9.26305503E-02   2.99542832    
   14.5000000      -7.50000000       6.29999399       1.28135085E-02   3.18742824    
   15.5000000      -7.50000000      0.299997479       1.26185128E-02   2.98171401    
   15.5000000      -7.50000000       5.59999466     -0.642770112       3.16342831    
   16.5000000      -7.50000000      0.199997485     -0.873023212       2.97828555    
   16.5000000      -7.50000000       2.19999766       1.79013264       3.04685688    
   16.5000000      -7.50000000       6.59999371     -0.717881441       3.19771409    
   17.5000000      -7.50000000      0.299997479       2.28522587       2.98171401    
   17.5000000      -7.50000000       3.19999671      -1.11328983       3.08114266    
   18.5000000      -7.50000000       1.59999764     -0.185132504       3.02628541    
  -5.50000000      -6.50000000     -0.100002520      -11.2644997       2.97142839    
  -5.50000000      -6.50000000       6.39999390     -0.725051284       3.19085693    
  -4.50000000      -6.50000000     -0.700002551      -26.1384544       2.97142839    
  -4.50000000      -6.50000000       6.69999361       1.17414653       3.20114255    
  -3.50000000      -6.50000000     -0.700002551      0.293129504       2.97142839    
  -3.50000000      -6.50000000       3.99999595      -1.92881370       3.10857129    
  -2.50000000      -6.50000000     -0.100002520      0.661118567       2.97142839    
  -2.50000000      -6.50000000       1.89999771       1.08952606       3.03657126    
  -2.50000000      -6.50000000       3.99999595      0.925719202       3.10857129    
  -2.50000000      -6.50000000       9.29999733     -0.771773934       3.29028559    
  -1.50000000      -6.50000000     -0.200002521      0.910572648       2.97142839    
  -1.50000000      -6.50000000       1.79999769      0.286670685       3.03314257    
  -1.50000000      -6.50000000       6.99999332       1.61187887       3.21142840    
 -0.500000000      -6.50000000       1.09999752      0.226274014       3.00914264    
 -0.500000000      -6.50000000       4.49999571     -0.220393658       3.12571406    
 -0.500000000      -6.50000000       8.59999466      -1.68484390       3.26628542    
  0.500000000      -6.50000000       1.59999764      -2.26641607       3.02628541    
  0.500000000      -6.50000000       5.79999447     -0.881014824       3.17028546    
  0.500000000      -6.50000000       9.19999695      -5.16376209       3.28685713    
   1.50000000      -6.50000000       1.39999759      -2.10835600       3.01942825    
   1.50000000      -6.50000000       3.89999604      -8.97956181       3.10514259    
   2.50000000      -6.50000000      0.199997485     -0.626685381       2.97828555    
   2.50000000      -6.50000000       3.29999661      -1.08032012       3.08457112    
   3.50000000      -6.50000000       1.19999754      -1.21521771       3.01257110    
   3.50000000      -6.50000000       4.99999523      0.144866228       3.14285684    
   4.50000000      -6.50000000       1.59999764      0.294075072       3.02628541    
   4.50000000      -6.50000000       3.69999623      -1.89669538       3.09828544    
   5.50000000      -6.50000000       2.39999747      -3.03255558       3.05371404    
   6.50000000      -6.50000000       2.79999709     -0.508520961       3.06742835    
   6.50000000      -6.50000000       4.89999533      -3.07365584       3.13942838    
   7.50000000      -6.50000000       2.69999719     -0.399883747       3.06399989    
   7.50000000      -6.50000000       6.19999409       1.39674890       3.18399978    
   8.50000000      -6.50000000       2.89999700      0.323978424       3.07085681    
   8.50000000      -6.50000000       6.59999371      0.239352316       3.19771409    
   9.50000000      -6.50000000       2.79999709     -0.447840214       3.06742835    
   9.50000000      -6.50000000       6.39999390      -1.42206264       3.19085693    
   10.5000000      -6.50000000       2.19999766     -0.906063497       3.04685688    
   10.5000000      -6.50000000       4.89999533     -0.712960005       3.13942838    
   10.5000000      -6.50000000       7.79999256     -0.980498016       3.23885679    
   11.5000000      -6.50000000       1.69999766     -0.341831505       3.02971411    
   11.5000000      -6.50000000       6.99999332       2.35619640       3.21142840    
   11.5000000      -6.50000000       11.1000042      0.118024632       3.35200024    
   12.5000000      -6.50000000       1.29999757     -0.359473556       3.01599979    
   12.5000000      -6.50000000       6.69999361     -0.634180725       3.20114255    
   12.5000000      -6.50000000       9.69999886      -1.26578069       3.30399990    
   13.5000000      -6.50000000       1.09999752      0.126027212       3.00914264    
   13.5000000      -6.50000000       7.09999323     -0.815202951       3.21485686    
   13.5000000      -6.50000000       10.4000015      0.203482136       3.32800007    
   14.5000000      -6.50000000      0.699997485     -0.477290183       2.99542832    
   14.5000000      -6.50000000       5.29999495      0.613302410       3.15314269    
   14.5000000      -6.50000000       11.9000072       1.13123941       3.37942886    
   15.5000000      -6.50000000      0.699997485      0.760455072       2.99542832    
   15.5000000      -6.50000000       2.99999690     -0.844860017       3.07428551    
   15.5000000      -6.50000000       11.5000057       1.60248101       3.36571455    
   16.5000000      -6.50000000       1.29999757       1.18493891       3.01599979    
   16.5000000      -6.50000000       4.59999561     -0.539516628       3.12914252    
  -4.50000000      -5.50000000       1.09999752      -27.4154186       3.00914264    
  -3.50000000      -5.50000000      -2.51829624E-06  -13.9232168       2.97142839    
  -3.50000000      -5.50000000       2.29999757       5.49221945       3.05028558    
  -2.50000000      -5.50000000     -0.100002520      -1.03292990       2.97142839    
  -2.50000000      -5.50000000       1.89999771       2.64815712       3.03657126    
  -2.50000000      -5.50000000       4.79999542      0.122061193       3.13599968    
  -1.50000000      -5.50000000      -1.70000279       1.09294534       2.97142839    
  -1.50000000      -5.50000000      0.299997479      0.922365069       2.98171401    
  -1.50000000      -5.50000000       5.89999437      -9.96094495E-02   3.17371416    
 -0.500000000      -5.50000000      -1.40000272       4.36619425       2.97142839    
 -0.500000000      -5.50000000      0.599997461      -1.22664428       2.99199986    
 -0.500000000      -5.50000000       3.89999604       4.17063832E-02   3.10514259    
  0.500000000      -5.50000000     -0.200002521      -3.91893768       2.97142839    
  0.500000000      -5.50000000       1.79999769      -1.04767871       3.03314257    
  0.500000000      -5.50000000       3.99999595      0.837485313       3.10857129    
   1.50000000      -5.50000000     -0.100002520      0.333680153       2.97142839    
   1.50000000      -5.50000000       1.89999771      -1.58292997       3.03657126    
   1.50000000      -5.50000000       3.99999595      -7.52118731       3.10857129    
   1.50000000      -5.50000000       6.09999418      -2.11825991       3.18057108    
   2.50000000      -5.50000000      -1.60000277      0.501668096       2.97142839    
   2.50000000      -5.50000000      0.399997473       2.10638332       2.98514271    
   2.50000000      -5.50000000       3.39999652      -3.58091307       3.08799982    
   2.50000000      -5.50000000       8.39999390     -0.616119087       3.25942826    
   3.50000000      -5.50000000      -1.80000281      -1.66655874       2.97142839    
   3.50000000      -5.50000000      0.199997485      -1.93510079       2.97828555    
   3.50000000      -5.50000000       2.39999747      -4.75076866       3.05371404    
   3.50000000      -5.50000000       5.99999428      -6.44650602       3.17714262    
   4.50000000      -5.50000000     -0.300002515      -1.62339103       2.97142839    
   4.50000000      -5.50000000       1.69999766      0.403105110       3.02971411    
   4.50000000      -5.50000000       3.79999614      -2.65367270       3.10171413    
   4.50000000      -5.50000000       5.89999437      -10.3442564       3.17371416    
   5.50000000      -5.50000000       1.49999762     -0.644757628       3.02285695    
   5.50000000      -5.50000000       5.29999495      -3.52428198       3.15314269    
   6.50000000      -5.50000000       2.79999709     -0.739629745       3.06742835    
   7.50000000      -5.50000000       3.09999681      -1.21436095       3.07771397    
   8.50000000      -5.50000000       3.09999681       1.45025444       3.07771397    
   9.50000000      -5.50000000       2.39999747     -0.185228720       3.05371404    
   9.50000000      -5.50000000       5.29999495      -2.32783723       3.15314269    
   10.5000000      -5.50000000       2.29999757     -0.129099414       3.05028558    
   10.5000000      -5.50000000       5.89999437       1.82292962       3.17371416    
   11.5000000      -5.50000000       2.09999776       8.93074423E-02   3.04342842    
   11.5000000      -5.50000000       6.59999371      -1.67849612       3.19771409    
   12.5000000      -5.50000000       1.79999769      0.309438705       3.03314257    
   12.5000000      -5.50000000       6.49999380     -0.600009322       3.19428539    
   13.5000000      -5.50000000       1.89999771      -1.90247476       3.03657126    
   13.5000000      -5.50000000       4.19999599      0.228247955       3.11542845    
   14.5000000      -5.50000000       2.49999738      0.846743345       3.05714273    
  -3.50000000      -4.50000000       1.69999766      -39.4840317       3.02971411    
  -2.50000000      -4.50000000      0.499997467      -3.88171363       2.98857117    
  -2.50000000      -4.50000000       2.79999709       5.96679211       3.06742835    
  -2.50000000      -4.50000000       7.19999313     -0.185351789       3.21828556    
  -1.50000000      -4.50000000      -1.50000274      -11.5452662       2.97142839    
  -1.50000000      -4.50000000      0.499997467       2.75021768       2.98857117    
  -1.50000000      -4.50000000       3.79999614       2.24718022       3.10171413    
 -0.500000000      -4.50000000      -1.60000277      -2.07628393       2.97142839    
 -0.500000000      -4.50000000      0.399997473      -1.47711122       2.98514271    
 -0.500000000      -4.50000000       3.39999652     -0.583632708       3.08799982    
 -0.500000000      -4.50000000       8.19999313      -6.55152893       3.25257111    
  0.500000000      -4.50000000     -0.600002527      0.320023119       2.97142839    
  0.500000000      -4.50000000       2.39999747      0.706339717       3.05371404    
  0.500000000      -4.50000000       5.59999466      -2.40799141       3.16342831    
   1.50000000      -4.50000000     -0.500002503       2.57828021       2.97142839    
   1.50000000      -4.50000000       2.49999738      -4.39042187       3.05714273    
   1.50000000      -4.50000000       4.79999542      -4.41566849       3.13599968    
   2.50000000      -4.50000000      -1.20000267       19.1331978       2.97142839    
   2.50000000      -4.50000000      0.799997509      0.131706595       2.99885678    
   2.50000000      -4.50000000       3.79999614      -19.5036697       3.10171413    
   2.50000000      -4.50000000       8.39999390      -6.91234303       3.25942826    
   3.50000000      -4.50000000      -1.40000272       9.31777668       2.97142839    
   3.50000000      -4.50000000      0.599997461       2.52728200       2.99199986    
   3.50000000      -4.50000000       3.59999633      -13.9677582       3.09485698    
   3.50000000      -4.50000000       5.99999428      -13.2348127       3.17714262    
   4.50000000      -4.50000000     -0.100002520       1.58189607       2.97142839    
   4.50000000      -4.50000000       1.89999771      -6.36581993       3.03657126    
   4.50000000      -4.50000000       4.89999533      -5.47164059       3.13942838    
   5.50000000      -4.50000000       2.19999766      -2.21605253       3.04685688    
   5.50000000      -4.50000000       4.49999571      -3.92371845       3.12571406    
   6.50000000      -4.50000000       2.89999700      -2.02117419       3.07085681    
   6.50000000      -4.50000000       5.39999485     -0.977726340       3.15657115    
   7.50000000      -4.50000000       3.09999681      -8.14062953E-02   3.07771397    
   8.50000000      -4.50000000       2.99999690      -1.51985288       3.07428551    
   9.50000000      -4.50000000       2.99999690      0.613604367       3.07428551    
   10.5000000      -4.50000000       2.79999709      0.175373822       3.06742835    
   11.5000000      -4.50000000       2.49999738      0.906869531       3.05714273    
   11.5000000      -4.50000000       5.29999495      0.536043823       3.15314269    
   12.5000000      -4.50000000       3.39999652      -1.21030819       3.08799982    
  -3.50000000      -3.50000000       2.69999719      -17.5097809       3.06399989    
  -2.50000000      -3.50000000       1.59999764      -28.1436081       3.02628541    
  -1.50000000      -3.50000000      0.699997485      -8.00065994       2.99542832    
  -1.50000000      -3.50000000       3.69999623      -24.4056034       3.09828544    
 -0.500000000      -3.50000000     -0.700002551      -8.02153778       2.97142839    
 -0.500000000      -3.50000000       2.29999757      -3.29328871       3.05028558    
 -0.500000000      -3.50000000       4.39999580      -140.307037       3.12228537    
  0.500000000      -3.50000000     -0.600002527       6.18614960       2.97142839    
  0.500000000      -3.50000000       2.39999747      -14.3858376       3.05371404    
  0.500000000      -3.50000000       4.49999571      -37.9187698       3.12571406    
   1.50000000      -3.50000000     -0.400002509       9.52923584       2.97142839    
   1.50000000      -3.50000000       1.59999764       3.50398493       3.02628541    
   1.50000000      -3.50000000       4.59999561      -19.0073471       3.12914252    
   1.50000000      -3.50000000       7.39999294      -9.00794125       3.22514248    
   2.50000000      -3.50000000     -0.400002509      -7.76720643E-02   2.97142839    
   2.50000000      -3.50000000       1.59999764      -3.19088674       3.02628541    
   2.50000000      -3.50000000       4.59999561      -27.9298306       3.12914252    
   3.50000000      -3.50000000     -0.400002509       4.45951509       2.97142839    
   3.50000000      -3.50000000       1.59999764      -18.0754356       3.02628541    
   3.50000000      -3.50000000       4.59999561      -13.3108473       3.12914252    
   4.50000000      -3.50000000      0.499997467       6.19983673E-03   2.98857117    
   4.50000000      -3.50000000       3.49999642      -10.3045359       3.09142828    
   4.50000000      -3.50000000       6.69999361      -18.0460014       3.20114255    
   5.50000000      -3.50000000       1.59999764      -3.76074123       3.02628541    
   5.50000000      -3.50000000       3.69999623      -6.02079344       3.09828544    
   6.50000000      -3.50000000       2.29999757      0.988808572       3.05028558    
   6.50000000      -3.50000000       4.39999580      -1.36668122       3.12228537    
   7.50000000      -3.50000000       2.89999700       1.69471526       3.07085681    
   7.50000000      -3.50000000       5.19999504       1.34031510       3.14971399    
   8.50000000      -3.50000000       2.69999719      -2.60147676E-02   3.06399989    
   8.50000000      -3.50000000       5.39999485      -2.49619508       3.15657115    
   9.50000000      -3.50000000       2.69999719      0.100502133       3.06399989    
   10.5000000      -3.50000000       3.19999671      0.182393134       3.08114266    
   11.5000000      -3.50000000       3.59999633      0.355930567       3.09485698    
  -2.50000000      -2.50000000       2.19999766      -31.0306892       3.04685688    
  -1.50000000      -2.50000000      0.799997509      -17.7304382       2.99885678    
  -1.50000000      -2.50000000       2.89999700      -344.854218       3.07085681    
 -0.500000000      -2.50000000     -0.700002551      -1.72076964       2.97142839    
 -0.500000000      -2.50000000       1.49999762      -343.483124       3.02285695    
 -0.500000000      -2.50000000       5.79999447      -219.121307       3.17028546    
  0.500000000      -2.50000000      -2.20000267     -0.225941539       2.97142839    
  0.500000000      -2.50000000     -0.200002521       1.25785279       2.97142839    
  0.500000000      -2.50000000       1.79999769      -107.348778       3.03314257    
  0.500000000      -2.50000000       5.09999514      -338.506470       3.14628553    
   1.50000000      -2.50000000     -0.500002503      -1.25543880       2.97142839    
   1.50000000      -2.50000000       2.49999738      -26.1621170       3.05714273    
   1.50000000      -2.50000000       5.79999447      -23.3517914       3.17028546    
   2.50000000      -2.50000000     -0.200002521       2.29306650       2.97142839    
   2.50000000      -2.50000000       1.79999769      -8.85190296       3.03314257    
   2.50000000      -2.50000000       4.79999542      -42.4779625       3.13599968    
   3.50000000      -2.50000000     -0.100002520      -18.4504108       2.97142839    
   3.50000000      -2.50000000       1.89999771      -16.9723835       3.03657126    
   3.50000000      -2.50000000       4.89999533      -15.9646158       3.13942838    
   4.50000000      -2.50000000      0.499997467      -11.3272572       2.98857117    
   4.50000000      -2.50000000       3.49999642      -6.59885025       3.09142828    
   4.50000000      -2.50000000       7.69999266      -3.22072268       3.23542833    
   5.50000000      -2.50000000       1.09999752      -4.74849224       3.00914264    
   5.50000000      -2.50000000       4.09999609     -0.538890243       3.11199975    
   5.50000000      -2.50000000       6.39999390      -4.86627722       3.19085693    
   6.50000000      -2.50000000       1.39999759       1.22636366       3.01942825    
   6.50000000      -2.50000000       4.39999580     -0.243308246       3.12228537    
   7.50000000      -2.50000000       1.59999764      -1.08509219       3.02628541    
   7.50000000      -2.50000000       3.79999614       1.21673155       3.10171413    
   8.50000000      -2.50000000       1.59999764     -0.556641161       3.02628541    
   8.50000000      -2.50000000       4.59999561     -0.236019447       3.12914252    
   9.50000000      -2.50000000       1.69999766      0.687658310       3.02971411    
   10.5000000      -2.50000000       1.39999759      -1.99858356       3.01942825    
   11.5000000      -2.50000000      0.899997532     -0.343639612       3.00228548    
   12.5000000      -2.50000000      0.699997485      0.985167205       2.99542832    
   12.5000000      -2.50000000       2.99999690       1.17296100       3.07428551    
   13.5000000      -2.50000000     -0.100002520      -1.10263002       2.97142839    
   14.5000000      -2.50000000     -0.200002521       1.12214994       2.97142839    
  -2.50000000      -1.50000000      0.899997532      -221.325272       3.00228548    
  -1.50000000      -1.50000000     -0.200002521      -5.93921471       2.97142839    
  -1.50000000      -1.50000000       2.29999757      -128.309280       3.05028558    
  -1.50000000      -1.50000000       6.69999361      -211.457169       3.20114255    
 -0.500000000      -1.50000000      0.299997479      -539.164856       2.98171401    
 -0.500000000      -1.50000000       3.79999614      -948.861145       3.10171413    
  0.500000000      -1.50000000     -0.200002521      -3.18873596       2.97142839    
  0.500000000      -1.50000000       1.89999771      -424.970886       3.03657126    
  0.500000000      -1.50000000       6.29999399      -76.4589310       3.18742824    
   1.50000000      -1.50000000     -0.200002521       5.41349983       2.97142839    
   1.50000000      -1.50000000       1.79999769      -22.2773228       3.03314257    
   1.50000000      -1.50000000       4.79999542      -85.2288589       3.13599968    
   2.50000000      -1.50000000     -0.500002503       4.15267563       2.97142839    
   2.50000000      -1.50000000       2.49999738      -11.1496916       3.05714273    
   2.50000000      -1.50000000       5.49999475      -22.2241497       3.15999985    
   3.50000000      -1.50000000      -1.50000274      -7.80103731       2.97142839    
   3.50000000      -1.50000000      0.499997467      -25.9818439       2.98857117    
   3.50000000      -1.50000000       3.49999642      -8.16913891       3.09142828    
   4.50000000      -1.50000000      -1.40000272      -48.8329086       2.97142839    
   4.50000000      -1.50000000      0.599997461      -8.13943958       2.99199986    
   4.50000000      -1.50000000       3.59999633      -4.19971466       3.09485698    
   4.50000000      -1.50000000       15.6000214      0.501450598       3.50628638    
   5.50000000      -1.50000000      0.899997532      -1.30304360       3.00228548    
   5.50000000      -1.50000000       3.89999604      -1.07168496       3.10514259    
   5.50000000      -1.50000000       7.89999247     -0.903531313       3.24228549    
   6.50000000      -1.50000000       1.69999766      0.648417830       3.02971411    
   6.50000000      -1.50000000       4.79999542      0.112445444       3.13599968    
   7.50000000      -1.50000000       1.89999771       1.63587832       3.03657126    
   7.50000000      -1.50000000       6.69999361      0.598213136       3.20114255    
   8.50000000      -1.50000000       2.19999766       1.18687224       3.04685688    
   9.50000000      -1.50000000       2.19999766       2.49322510       3.04685688    
   10.5000000      -1.50000000       1.69999766       1.85164881       3.02971411    
   11.5000000      -1.50000000       1.09999752      0.159788132       3.00914264    
   12.5000000      -1.50000000      0.699997485       1.31354117       2.99542832    
   13.5000000      -1.50000000      0.299997479       2.47689152       2.98171401    
  -3.50000000     -0.500000000       3.39999652      -2.25285053       3.08799982    
  -2.50000000     -0.500000000      -1.40000272      -320.757721       2.97142839    
  -2.50000000     -0.500000000      0.599997461      -100.952744       2.99199986    
  -2.50000000     -0.500000000       7.99999237      -47.9709587       3.24571395    
  -1.50000000     -0.500000000     -0.800002575       150.858154       2.97142839    
  -1.50000000     -0.500000000       2.99999690      -127.547951       3.07428551    
 -0.500000000     -0.500000000       9.99974832E-02  -464.553131       2.97485685    
 -0.500000000     -0.500000000       2.09999776      -276.215515       3.04342842    
 -0.500000000     -0.500000000       6.09999418      -23.8894672       3.18057108    
  0.500000000     -0.500000000      0.599997461      -41.7619095       2.99199986    
  0.500000000     -0.500000000       3.59999633      -116.364403       3.09485698    
   1.50000000     -0.500000000      0.799997509      -23.4921169       2.99885678    
   1.50000000     -0.500000000       3.79999614      -28.2416439       3.10171413    
   2.50000000     -0.500000000      0.399997473      -2.44078255       2.98514271    
   2.50000000     -0.500000000       3.39999652      -6.38514805       3.08799982    
   2.50000000     -0.500000000       16.6000252     -0.593207896       3.54057240    
   3.50000000     -0.500000000     -0.700002551      -6.54998779       2.97142839    
   3.50000000     -0.500000000       2.29999757     -0.385179430       3.05028558    
   3.50000000     -0.500000000       5.29999495     -0.755266428       3.15314269    
   4.50000000     -0.500000000     -0.800002575      -5.39669943       2.97142839    
   4.50000000     -0.500000000       2.19999766     -0.613248706       3.04685688    
   4.50000000     -0.500000000       5.19999504      -1.58790731       3.14971399    
   4.50000000     -0.500000000       7.99999237     -0.240518987       3.24571395    
   5.50000000     -0.500000000      0.699997485      -3.72747922       2.99542832    
   5.50000000     -0.500000000       3.69999623      -1.37940574       3.09828544    
   5.50000000     -0.500000000       6.49999380      -1.14003658       3.19428539    
   6.50000000     -0.500000000      0.999997556      -2.31099367       3.00571394    
   6.50000000     -0.500000000       3.99999595       1.41348290       3.10857129    
   7.50000000     -0.500000000      0.999997556      0.117365271       3.00571394    
   7.50000000     -0.500000000       4.09999609     -0.489898920       3.11199975    
   8.50000000     -0.500000000       1.19999754      -8.55211765E-02   3.01257110    
   8.50000000     -0.500000000       7.99999237     -0.342104375       3.24571395    
   9.50000000     -0.500000000       1.59999764       2.30231929       3.02628541    
  -3.50000000      0.500000000       4.89999533      -22.5944939       3.13942838    
  -2.50000000      0.500000000      -1.60000277      -121.344574       2.97142839    
  -2.50000000      0.500000000       2.29999757      -222.526199       3.05028558    
  -1.50000000      0.500000000     -0.600002527      -333.525360       2.97142839    
  -1.50000000      0.500000000       2.29999757      -155.464935       3.05028558    
 -0.500000000      0.500000000      0.299997479      -63.7287331       2.98171401    
 -0.500000000      0.500000000       2.49999738      -49.8588676       3.05714273    
 -0.500000000      0.500000000       17.1000271     -0.201640368       3.55771518    
  0.500000000      0.500000000      0.899997532      -19.4565468       3.00228548    
  0.500000000      0.500000000       3.89999604      -33.9884911       3.10514259    
  0.500000000      0.500000000       7.29999304      -6.20731211       3.22171402    
   1.50000000      0.500000000      0.999997556      -9.67206097       3.00571394    
   1.50000000      0.500000000       3.99999595      -2.34825325       3.10857129    
   2.50000000      0.500000000      0.299997479       1.94827235       2.98171401    
   2.50000000      0.500000000       3.29999661      0.331631720       3.08457112    
   3.50000000      0.500000000      0.599997461       1.81879508       2.99199986    
   3.50000000      0.500000000       3.59999633     -0.554293275       3.09485698    
   3.50000000      0.500000000       5.79999447     -0.730568945       3.17028546    
   4.50000000      0.500000000      0.699997485      -2.54392838       2.99542832    
   4.50000000      0.500000000       3.69999623      -1.03841066       3.09828544    
   4.50000000      0.500000000       6.09999418     -0.733668685       3.18057108    
   5.50000000      0.500000000      0.899997532      -2.28755856       3.00228548    
   5.50000000      0.500000000       3.89999604      0.958140075       3.10514259    
   5.50000000      0.500000000       7.19999313       2.19327331       3.21828556    
   6.50000000      0.500000000      0.399997473      0.757754803       2.98514271    
   6.50000000      0.500000000       3.39999652       1.07745433       3.08799982    
   6.50000000      0.500000000       7.09999323     -0.115490273       3.21485686    
   7.50000000      0.500000000      0.199997485       3.90064144       2.97828555    
   7.50000000      0.500000000       2.19999766       2.35883975       3.04685688    
   7.50000000      0.500000000       4.99999523      0.293035388       3.14285684    
   8.50000000      0.500000000       9.99974832E-02   2.78387427       2.97485685    
   8.50000000      0.500000000       2.09999776       3.41142607       3.04342842    
   8.50000000      0.500000000       9.89999962      -4.37569320E-02   3.31085706    
   9.50000000      0.500000000       9.99974832E-02   1.22713649       2.97485685    
   9.50000000      0.500000000       2.09999776      0.145837307       3.04342842    
   9.50000000      0.500000000       4.69999552      -5.90733290E-02   3.13257122    
   10.5000000      0.500000000      0.599997461      0.949288249       2.99199986    
   11.5000000      0.500000000       2.09999776       1.71500075       3.04342842    
  -1.50000000       1.50000000       2.89999700      -13.5370188       3.07085681    
 -0.500000000       1.50000000       1.99999774      -11.1478958       3.03999972    
  0.500000000       1.50000000       1.29999757     -0.324890852       3.01599979    
  0.500000000       1.50000000       4.29999590      -48.7976227       3.11885691    
   1.50000000       1.50000000       1.19999754       3.81932092       3.01257110    
   1.50000000       1.50000000       4.19999599      -10.1500883       3.11542845    
   2.50000000       1.50000000      0.799997509      -1.32097089       2.99885678    
   2.50000000       1.50000000       3.79999614       1.73970616       3.10171413    
   3.50000000       1.50000000      0.499997467      -2.95073819       2.98857117    
   3.50000000       1.50000000       3.49999642     -0.288083315       3.09142828    
   3.50000000       1.50000000       5.99999428       2.98591661       3.17714262    
   4.50000000       1.50000000       1.69999766      -1.34381020       3.02971411    
   4.50000000       1.50000000       4.69999552     -0.371577263       3.13257122    
   5.50000000       1.50000000       1.89999771      0.745960236       3.03657126    
   5.50000000       1.50000000       3.99999595     -0.500629365       3.10857129    
   6.50000000       1.50000000       1.29999757     -0.114400141       3.01599979    
   6.50000000       1.50000000       3.49999642      -1.34503794       3.09142828    
   7.50000000       1.50000000      0.399997473     -0.706314921       2.98514271    
   7.50000000       1.50000000       3.79999614     -0.143669367       3.10171413    
   7.50000000       1.50000000       14.5000172     -0.471516222       3.46857214    
   8.50000000       1.50000000     -0.300002515     -0.413853168       2.97142839    
   8.50000000       1.50000000       1.69999766       1.16224897       3.02971411    
   8.50000000       1.50000000       10.5000019     -0.608070254       3.33142877    
   9.50000000       1.50000000     -0.700002551      -1.00677872       2.97142839    
   9.50000000       1.50000000       2.89999700       2.76169133       3.07085681    
   10.5000000       1.50000000     -0.800002575      -1.70180488       2.97142839    
   10.5000000       1.50000000       4.99999523       8.51085037E-02   3.14285684    
   11.5000000       1.50000000     -0.500002503      0.616807938       2.97142839    
   11.5000000       1.50000000       2.49999738      -1.14134562       3.05714273    
  -1.50000000       2.50000000       3.09999681      -2.56546140       3.07771397    
 -0.500000000       2.50000000       2.59999728     -0.278095841       3.06057119    
  0.500000000       2.50000000       1.39999759      0.146921873       3.01942825    
  0.500000000       2.50000000       4.49999571      -37.7315750       3.12571406    
   1.50000000       2.50000000      0.999997556       5.87154627       3.00571394    
   1.50000000       2.50000000       3.99999595      -23.4958096       3.10857129    
   2.50000000       2.50000000      0.899997532       11.9373808       3.00228548    
   2.50000000       2.50000000       3.89999604      -1.93783116       3.10514259    
   3.50000000       2.50000000      0.299997479      0.303707957       2.98171401    
   3.50000000       2.50000000       3.29999661      0.272065401       3.08457112    
   3.50000000       2.50000000       5.79999447      0.903815746       3.17028546    
   4.50000000       2.50000000      0.799997509      0.419356972       2.99885678    
   4.50000000       2.50000000       3.79999614       3.55413651       3.10171413    
   4.50000000       2.50000000       6.89999342       1.59549332       3.20799971    
   5.50000000       2.50000000       1.59999764       2.61543989       3.02628541    
   5.50000000       2.50000000       3.69999623       1.01475918       3.09828544    
   6.50000000       2.50000000       1.59999764      -3.49340844       3.02628541    
   6.50000000       2.50000000       4.89999533       1.15427053       3.13942838    
   7.50000000       2.50000000       1.09999752     -0.118495755       3.00914264    
   7.50000000       2.50000000       4.89999533      0.845759511       3.13942838    
   8.50000000       2.50000000      0.499997467       1.35191226       2.98857117    
   8.50000000       2.50000000       3.99999595      0.146816373       3.10857129    
   9.50000000       2.50000000     -0.300002515       2.37685490       2.97142839    
   9.50000000       2.50000000       2.29999757     -0.608140469       3.05028558    
   9.50000000       2.50000000       6.19999409     -0.539563715       3.18399978    
   10.5000000       2.50000000     -0.800002575      0.837702870       2.97142839    
   10.5000000       2.50000000       1.79999769      0.185370907       3.03314257    
   10.5000000       2.50000000       6.19999409      -1.18716109       3.18399978    
   11.5000000       2.50000000      -1.60000277      0.557077169       2.97142839    
   11.5000000       2.50000000      0.399997473       2.13138962       2.98514271    
   12.5000000       2.50000000       1.09999752     -0.241704434       3.00914264    
   12.5000000       2.50000000       5.19999504      0.771908760       3.14971399    
  -2.50000000       3.50000000       3.89999604     -0.128366470       3.10514259    
  -1.50000000       3.50000000       2.19999766       1.17813194       3.04685688    
  -1.50000000       3.50000000       5.09999514      -1.57597935       3.14628553    
 -0.500000000       3.50000000       1.19999754     -0.404514402       3.01257110    
 -0.500000000       3.50000000       3.39999652       3.04545236       3.08799982    
 -0.500000000       3.50000000       6.79999352      -1.98717427       3.20457125    
  0.500000000       3.50000000      0.499997467      -1.27471483       2.98857117    
  0.500000000       3.50000000       3.49999642      -4.43518972       3.09142828    
  0.500000000       3.50000000       7.79999256      -8.48672485       3.23885679    
   1.50000000       3.50000000      0.299997479       1.67733562       2.98171401    
   1.50000000       3.50000000       3.29999661      -2.08368421       3.08457112    
   1.50000000       3.50000000       6.59999371      -14.2694654       3.19771409    
   2.50000000       3.50000000      0.299997479       9.73435402       2.98171401    
   2.50000000       3.50000000       3.29999661       3.04802632       3.08457112    
   2.50000000       3.50000000       5.59999466      -3.99231005       3.16342831    
   3.50000000       3.50000000      0.499997467      -1.78178954       2.98857117    
   3.50000000       3.50000000       3.49999642       1.32867622       3.09142828    
   3.50000000       3.50000000       5.69999456       1.82573342       3.16685700    
   3.50000000       3.50000000       15.2000198     -0.640322089       3.49257207    
   4.50000000       3.50000000     -0.500002503      -2.60325885       2.97142839    
   4.50000000       3.50000000       2.49999738      0.967498183       3.05714273    
   4.50000000       3.50000000       6.19999409      0.310599864       3.18399978    
   5.50000000       3.50000000      0.399997473      0.261475265       2.98514271    
   5.50000000       3.50000000       3.59999633       1.98434484       3.09485698    
   5.50000000       3.50000000       7.39999294      0.209471986       3.22514248    
   6.50000000       3.50000000       1.19999754      0.852988482       3.01257110    
   6.50000000       3.50000000       4.49999571      0.344044209       3.12571406    
   7.50000000       3.50000000       1.59999764      -1.03697550       3.02628541    
   7.50000000       3.50000000       5.89999437      -5.18331379E-02   3.17371416    
   8.50000000       3.50000000       1.89999771       1.06214440       3.03657126    
   8.50000000       3.50000000       4.49999571     -0.472712815       3.12571406    
   9.50000000       3.50000000       1.59999764      0.191277415       3.02628541    
   9.50000000       3.50000000       4.79999542      0.868773580       3.13599968    
   10.5000000       3.50000000       2.59999728       1.05121541       3.06057119    
   11.5000000       3.50000000       4.79999542     -0.105552636       3.13599968    
   12.5000000       3.50000000       4.99999523     -0.400968909       3.14285684    
  -3.50000000       4.50000000       5.89999437       4.67275083E-02   3.17371416    
  -2.50000000       4.50000000       4.19999599      -1.25478315       3.11542845    
  -1.50000000       4.50000000       2.19999766     -0.452771991       3.04685688    
  -1.50000000       4.50000000       6.09999418     -0.494067430       3.18057108    
 -0.500000000       4.50000000      0.699997485      -1.05506897       2.99542832    
 -0.500000000       4.50000000       4.09999609       2.26905251       3.11199975    
  0.500000000       4.50000000       9.99974832E-02  -2.72743535       2.97485685    
  0.500000000       4.50000000       2.09999776     -0.846224070       3.04342842    
  0.500000000       4.50000000       5.19999504      -1.39988518       3.14971399    
   1.50000000       4.50000000      -2.51829624E-06   2.83597326       2.97142839    
   1.50000000       4.50000000       1.99999774      -1.33586156       3.03999972    
   1.50000000       4.50000000       4.29999590       2.20658493       3.11885691    
   1.50000000       4.50000000       7.89999247      -5.37098789       3.24228549    
   2.50000000       4.50000000      0.199997485       8.63850307       2.97828555    
   2.50000000       4.50000000       2.19999766       2.85877299       3.04685688    
   2.50000000       4.50000000       4.29999590     -0.759847403       3.11885691    
   2.50000000       4.50000000       6.69999361      -5.95850134       3.20114255    
   3.50000000       4.50000000       1.29999757       2.96982646       3.01599979    
   3.50000000       4.50000000       4.29999590       1.57188439       3.11885691    
   3.50000000       4.50000000       7.79999256      -1.06414115       3.23885679    
   4.50000000       4.50000000     -0.300002515      -1.23404145       2.97142839    
   4.50000000       4.50000000       1.79999769       4.29331112       3.03314257    
   4.50000000       4.50000000       5.39999485      0.996802747       3.15657115    
   4.50000000       4.50000000       10.1000004     -0.454056650       3.31771445    
   5.50000000       4.50000000     -0.600002527      0.652749240       2.97142839    
   5.50000000       4.50000000       4.09999609       1.36078000       3.11199975    
   5.50000000       4.50000000       7.99999237       1.45467591       3.24571395    
   6.50000000       4.50000000      -2.51829624E-06  0.704932392       2.97142839    
   6.50000000       4.50000000       2.99999690     -0.208002329       3.07428551    
   6.50000000       4.50000000       5.49999475      0.410593987       3.15999985    
   6.50000000       4.50000000       12.0000076     -0.820577085       3.38285732    
   7.50000000       4.50000000       2.29999757       1.67272174       3.05028558    
   7.50000000       4.50000000       6.19999409       5.49053922E-02   3.18399978    
   8.50000000       4.50000000       2.09999776     -0.155845806       3.04342842    
   8.50000000       4.50000000       6.09999418       2.06785560       3.18057108    
   9.50000000       4.50000000       4.79999542     -0.330739558       3.13599968    
   11.5000000       4.50000000       6.69999361     -0.152482599       3.20114255    
   12.5000000       4.50000000       6.99999332      0.466602296       3.21142840    
  -2.50000000       5.50000000       4.69999552      -2.33850670       3.13257122    
  -1.50000000       5.50000000       1.69999766     -0.278612882       3.02971411    
 -0.500000000       5.50000000      0.199997485      -1.92053568       2.97828555    
 -0.500000000       5.50000000       2.19999766       1.20334375       3.04685688    
 -0.500000000       5.50000000       13.7000141       1.79355884       3.44114327    
  0.500000000       5.50000000     -0.400002509     -0.704808295       2.97142839    
  0.500000000       5.50000000       1.59999764     -0.183247805       3.02628541    
  0.500000000       5.50000000       7.09999323      -1.96522546       3.21485686    
   1.50000000       5.50000000     -0.300002515      0.896047592       2.97142839    
   1.50000000       5.50000000       1.69999766       2.50835061       3.02971411    
   1.50000000       5.50000000       5.29999495     -0.924448013       3.15314269    
   1.50000000       5.50000000       11.5000057       1.13209343       3.36571455    
   2.50000000       5.50000000      0.599997461       2.87739944       2.99199986    
   2.50000000       5.50000000       3.69999623      0.783708096       3.09828544    
   2.50000000       5.50000000       6.59999371      -1.14301217       3.19771409    
   3.50000000       5.50000000       1.69999766       3.73300099       3.02971411    
   3.50000000       5.50000000       4.29999590      -3.21846771       3.11885691    
   4.50000000       5.50000000       1.29999757      0.840590715       3.01599979    
   4.50000000       5.50000000       5.29999495       2.16931200       3.15314269    
   5.50000000       5.50000000     -0.800002575     -0.717075527       2.97142839    
   5.50000000       5.50000000       2.49999738      0.208474040       3.05714273    
   5.50000000       5.50000000       5.39999485       1.62675118       3.15657115    
   5.50000000       5.50000000       9.19999695      0.510877788       3.28685713    
   6.50000000       5.50000000      -1.10000265       1.48801878E-03   2.97142839    
   6.50000000       5.50000000       1.69999766       3.49321604       3.02971411    
   6.50000000       5.50000000       6.99999332      0.925961018       3.21142840    
   7.50000000       5.50000000       9.99974832E-02 -0.292447388       2.97485685    
   7.50000000       5.50000000       4.99999523     -0.354341239       3.14285684    
   7.50000000       5.50000000       8.29999352      0.639780223       3.25599980    
   8.50000000       5.50000000       6.69999361      0.705074191       3.20114255    
   9.50000000       5.50000000       5.49999475       1.47846615       3.15999985    
  -1.50000000       6.50000000       1.49999762     -0.134310126       3.02285695    
 -0.500000000       6.50000000     -0.300002515      -2.45613837       2.97142839    
 -0.500000000       6.50000000       1.69999766      0.913299203       3.02971411    
  0.500000000       6.50000000     -0.700002551      -2.13714623       2.97142839    
  0.500000000       6.50000000       2.29999757       3.83209276       3.05028558    
  0.500000000       6.50000000       10.0000000      -1.16135299       3.31428576    
   1.50000000       6.50000000     -0.400002509       2.21176744       2.97142839    
   1.50000000       6.50000000       1.59999764     -0.768422842       3.02628541    
   1.50000000       6.50000000       7.69999266       1.59721708       3.23542833    
   2.50000000       6.50000000      0.699997485      -1.89584386       2.99542832    
   2.50000000       6.50000000       2.79999709      0.307191610       3.06742835    
   2.50000000       6.50000000       6.99999332     -0.926082313       3.21142840    
   3.50000000       6.50000000       2.69999719      -1.98051596       3.06399989    
   4.50000000       6.50000000       3.59999633       2.87726820E-02   3.09485698    
   5.50000000       6.50000000       2.39999747       3.40991402       3.05371404    
   5.50000000       6.50000000       4.99999523     -0.141974375       3.14285684    
   5.50000000       6.50000000       7.89999247      0.530612588       3.24228549    
   6.50000000       6.50000000      -1.70000279       1.87736368       2.97142839    
   6.50000000       6.50000000      0.299997479       2.35553598       2.98171401    
   7.50000000       6.50000000     -0.700002551       7.46523142E-02   2.97142839    
   7.50000000       6.50000000       6.09999418       1.33347166       3.18057108    
   8.50000000       6.50000000       6.29999399      0.219435737       3.18742824    
  -1.50000000       7.50000000       1.29999757     -0.260649323       3.01599979    
 -0.500000000       7.50000000     -0.700002551      -1.02945149       2.97142839    
 -0.500000000       7.50000000       4.29999590     -0.673949301       3.11885691    
  0.500000000       7.50000000     -0.800002575       2.28342819       2.97142839    
  0.500000000       7.50000000       4.99999523       1.79629445       3.14285684    
   1.50000000       7.50000000     -0.400002509       1.46104550       2.97142839    
   1.50000000       7.50000000       1.59999764     -0.305395424       3.02628541    
   1.50000000       7.50000000       5.19999504     -0.340378761       3.14971399    
   1.50000000       7.50000000       8.59999466     -0.389022470       3.26628542    
   2.50000000       7.50000000      0.899997532      0.915469408       3.00228548    
   2.50000000       7.50000000       6.19999409      -9.78694037E-02   3.18399978    
   3.50000000       7.50000000       4.49999571     -0.593108892       3.12571406    
   6.50000000       7.50000000       3.89999604       5.26567554       3.10514259    
  -1.50000000       8.50000000      0.599997461      0.682465315       2.99199986    
  -1.50000000       8.50000000       9.29999733      -1.58136916       3.29028559    
 -0.500000000       8.50000000      -1.00000262      0.377988100       2.97142839    
 -0.500000000       8.50000000       1.09999752      0.575667262       3.00914264    
  0.500000000       8.50000000      -1.00000262       1.04109228       2.97142839    
  0.500000000       8.50000000       1.09999752       4.19672251       3.00914264    
  0.500000000       8.50000000       4.59999561      0.847113609       3.12914252    
   1.50000000       8.50000000     -0.300002515      0.545211911       2.97142839    
   1.50000000       8.50000000       1.69999766      0.317424238       3.02971411    
   2.50000000       8.50000000       2.19999766      0.549732387       3.04685688    
  -1.50000000       9.50000000       1.29999757      -1.41667330       3.01599979    
  -1.50000000       9.50000000       3.39999652      0.647391319       3.08799982    
  -1.50000000       9.50000000       8.39999390     -0.581731915       3.25942826    
 -0.500000000       9.50000000      -1.70000279       1.13741922       2.97142839    
 -0.500000000       9.50000000      0.299997479       2.92434835       2.98171401    
  0.500000000       9.50000000     -0.800002575       4.69367218       2.97142839    
  0.500000000       9.50000000       2.59999728       1.15471363       3.06057119    
   1.50000000       9.50000000      0.199997485     -0.445850283       2.97828555    
   1.50000000       9.50000000       4.29999590       2.01811194       3.11885691    
   2.50000000       9.50000000       2.09999776       1.14966583       3.04342842    
  -5.50000000       10.5000000       5.59999466     -0.348790377       3.16342831    
  -5.50000000       10.5000000       10.2000008      0.870594501       3.32114291    
  -4.50000000       10.5000000       9.69999886     -0.689459503       3.30399990    
  -4.50000000       10.5000000       11.8000069      -1.04238391       3.37600017    
   9.50000000       10.5000000       5.59999466      0.510654807       3.16342831    
   9.50000000       10.5000000       11.6000061       1.68051171       3.36914301    
   11.5000000       10.5000000       9.29999733      0.657950282       3.29028559    
   13.5000000       10.5000000       10.8000031       7.53851831E-02   3.34171438    
   6.50000000       11.5000000       6.79999352      0.711027801       3.20457125    
   6.50000000       11.5000000       14.3000164     -0.502757967       3.46171498    
  -1.50000000       12.5000000      0.599997461       1.22927666       2.99199986    
  -1.50000000       12.5000000       11.1000042      -1.43569827       3.35200024    
  -1.50000000       12.5000000       13.2000122     -0.437718749       3.42400050    
